%!PS-Adobe-3.0 EPSF-3.0
%%Creator: MATLAB, The MathWorks, Inc. Version 8.1.0.604 (R2013a). Operating System: Linux 3.19.0-59-generic #65~14.04.1-Ubuntu SMP Tue Apr 19 18:57:09 UTC 2016 x86_64.
%%Title: /home/rajeevpnj/Downloads/output/miceLoss.eps
%%CreationDate: 05/05/2016  18:46:12
%%DocumentNeededFonts: Helvetica
%%DocumentProcessColors: Cyan Magenta Yellow Black
%%LanguageLevel: 2
%%Pages: 1
%%BoundingBox:   103   307   508   484
%%EndComments

%%BeginProlog
% MathWorks dictionary
/MathWorks 160 dict begin
% definition operators
/bdef {bind def} bind def
/ldef {load def} bind def
/xdef {exch def} bdef
/xstore {exch store} bdef
% operator abbreviations
/c  /clip ldef
/cc /concat ldef
/cp /closepath ldef
/gr /grestore ldef
/gs /gsave ldef
/mt /moveto ldef
/np /newpath ldef
/cm /currentmatrix ldef
/sm /setmatrix ldef
/rm /rmoveto ldef
/rl /rlineto ldef
/s {show newpath} bdef
/sc {setcmykcolor} bdef
/sr /setrgbcolor ldef
/sg /setgray ldef
/w /setlinewidth ldef
/j /setlinejoin ldef
/cap /setlinecap ldef
/rc {rectclip} bdef
/rf {rectfill} bdef
% page state control
/pgsv () def
/bpage {/pgsv save def} bdef
/epage {pgsv restore} bdef
/bplot /gsave ldef
/eplot {stroke grestore} bdef
% orientation switch
/portraitMode 0 def /landscapeMode 1 def /rotateMode 2 def
% coordinate system mappings
/dpi2point 0 def
% font control
/FontSize 0 def
/FMS {/FontSize xstore findfont [FontSize 0 0 FontSize neg 0 0]
  makefont setfont} bdef
/reencode {exch dup where {pop load} {pop StandardEncoding} ifelse
  exch dup 3 1 roll findfont dup length dict begin
  { 1 index /FID ne {def}{pop pop} ifelse } forall
  /Encoding exch def currentdict end definefont pop} bdef
/isroman {findfont /CharStrings get /Agrave known} bdef
/FMSR {3 1 roll 1 index dup isroman {reencode} {pop pop} ifelse
  exch FMS} bdef
/csm {1 dpi2point div -1 dpi2point div scale neg translate
 dup landscapeMode eq {pop -90 rotate}
  {rotateMode eq {90 rotate} if} ifelse} bdef
% line types: solid, dotted, dashed, dotdash
/SO { [] 0 setdash } bdef
/DO { [.5 dpi2point mul 4 dpi2point mul] 0 setdash } bdef
/DA { [6 dpi2point mul] 0 setdash } bdef
/DD { [.5 dpi2point mul 4 dpi2point mul 6 dpi2point mul 4
  dpi2point mul] 0 setdash } bdef
% macros for lines and objects
/L {lineto stroke} bdef
/MP {3 1 roll moveto 1 sub {rlineto} repeat} bdef
/AP {{rlineto} repeat} bdef
/PDlw -1 def
/W {/PDlw currentlinewidth def setlinewidth} def
/PP {closepath eofill} bdef
/DP {closepath stroke} bdef
/MR {4 -2 roll moveto dup  0 exch rlineto exch 0 rlineto
  neg 0 exch rlineto closepath} bdef
/FR {MR stroke} bdef
/PR {MR fill} bdef
/L1i {{currentfile picstr readhexstring pop} image} bdef
/tMatrix matrix def
/MakeOval {newpath tMatrix currentmatrix pop translate scale
0 0 1 0 360 arc tMatrix setmatrix} bdef
/FO {MakeOval stroke} bdef
/PO {MakeOval fill} bdef
/PD {currentlinewidth 2 div 0 360 arc fill
   PDlw -1 eq not {PDlw w /PDlw -1 def} if} def
/FA {newpath tMatrix currentmatrix pop translate scale
  0 0 1 5 -2 roll arc tMatrix setmatrix stroke} bdef
/PA {newpath tMatrix currentmatrix pop	translate 0 0 moveto scale
  0 0 1 5 -2 roll arc closepath tMatrix setmatrix fill} bdef
/FAn {newpath tMatrix currentmatrix pop translate scale
  0 0 1 5 -2 roll arcn tMatrix setmatrix stroke} bdef
/PAn {newpath tMatrix currentmatrix pop translate 0 0 moveto scale
  0 0 1 5 -2 roll arcn closepath tMatrix setmatrix fill} bdef
/vradius 0 def /hradius 0 def /lry 0 def
/lrx 0 def /uly 0 def /ulx 0 def /rad 0 def
/MRR {/vradius xdef /hradius xdef /lry xdef /lrx xdef /uly xdef
  /ulx xdef newpath tMatrix currentmatrix pop ulx hradius add uly
  vradius add translate hradius vradius scale 0 0 1 180 270 arc 
  tMatrix setmatrix lrx hradius sub uly vradius add translate
  hradius vradius scale 0 0 1 270 360 arc tMatrix setmatrix
  lrx hradius sub lry vradius sub translate hradius vradius scale
  0 0 1 0 90 arc tMatrix setmatrix ulx hradius add lry vradius sub
  translate hradius vradius scale 0 0 1 90 180 arc tMatrix setmatrix
  closepath} bdef
/FRR {MRR stroke } bdef
/PRR {MRR fill } bdef
/MlrRR {/lry xdef /lrx xdef /uly xdef /ulx xdef /rad lry uly sub 2 div def
  newpath tMatrix currentmatrix pop ulx rad add uly rad add translate
  rad rad scale 0 0 1 90 270 arc tMatrix setmatrix lrx rad sub lry rad
  sub translate rad rad scale 0 0 1 270 90 arc tMatrix setmatrix
  closepath} bdef
/FlrRR {MlrRR stroke } bdef
/PlrRR {MlrRR fill } bdef
/MtbRR {/lry xdef /lrx xdef /uly xdef /ulx xdef /rad lrx ulx sub 2 div def
  newpath tMatrix currentmatrix pop ulx rad add uly rad add translate
  rad rad scale 0 0 1 180 360 arc tMatrix setmatrix lrx rad sub lry rad
  sub translate rad rad scale 0 0 1 0 180 arc tMatrix setmatrix
  closepath} bdef
/FtbRR {MtbRR stroke } bdef
/PtbRR {MtbRR fill } bdef
/stri 6 array def /dtri 6 array def
/smat 6 array def /dmat 6 array def
/tmat1 6 array def /tmat2 6 array def /dif 3 array def
/asub {/ind2 exch def /ind1 exch def dup dup
  ind1 get exch ind2 get sub exch } bdef
/tri_to_matrix {
  2 0 asub 3 1 asub 4 0 asub 5 1 asub
  dup 0 get exch 1 get 7 -1 roll astore } bdef
/compute_transform {
  dmat dtri tri_to_matrix tmat1 invertmatrix 
  smat stri tri_to_matrix tmat2 concatmatrix } bdef
/ds {stri astore pop} bdef
/dt {dtri astore pop} bdef
/db {2 copy /cols xdef /rows xdef mul dup 3 mul string
  currentfile 
  3 index 0 eq {/ASCIIHexDecode filter}
  {/ASCII85Decode filter 3 index 2 eq {/RunLengthDecode filter} if }
  ifelse exch readstring pop
  dup 0 3 index getinterval /rbmap xdef
  dup 2 index dup getinterval /gbmap xdef
  1 index dup 2 mul exch getinterval /bbmap xdef pop pop}bdef
/it {gs np dtri aload pop moveto lineto lineto cp c
  cols rows 8 compute_transform 
  rbmap gbmap bbmap true 3 colorimage gr}bdef
/il {newpath moveto lineto stroke}bdef
currentdict end def
%%EndProlog

%%BeginSetup
MathWorks begin

0 cap

end
%%EndSetup

%%Page: 1 1
%%BeginPageSetup
%%PageBoundingBox:   103   307   508   484
MathWorks begin
bpage
%%EndPageSetup

%%BeginObject: obj1
bplot

/dpi2point 12 def
portraitMode 1236 5808 csm

    0     0  4867  2122 rc
85 dict begin %Colortable dictionary
/c0 { 0.000000 0.000000 0.000000 sr} bdef
/c1 { 1.000000 1.000000 1.000000 sr} bdef
/c2 { 0.900000 0.000000 0.000000 sr} bdef
/c3 { 0.000000 0.820000 0.000000 sr} bdef
/c4 { 0.000000 0.000000 0.800000 sr} bdef
/c5 { 0.910000 0.820000 0.320000 sr} bdef
/c6 { 1.000000 0.260000 0.820000 sr} bdef
/c7 { 0.000000 0.820000 0.820000 sr} bdef
c0
1 j
1 sg
   0    0 4868 2123 rf
6 w
0 1646 3772 0 0 -1646 633 1805 4 MP
PP
-3772 0 0 1646 3772 0 0 -1646 633 1805 5 MP stroke
4 w
DO
0 sg
 633 1805 mt  633  159 L
 633  159 mt  633  159 L
1261 1805 mt 1261  159 L
1261  159 mt 1261  159 L
1890 1805 mt 1890  159 L
1890  159 mt 1890  159 L
2519 1805 mt 2519  159 L
2519  159 mt 2519  159 L
3147 1805 mt 3147  159 L
3147  159 mt 3147  159 L
3776 1805 mt 3776  159 L
3776  159 mt 3776  159 L
4405 1805 mt 4405  159 L
4405  159 mt 4405  159 L
 633 1805 mt 4405 1805 L
4405 1805 mt 4405 1805 L
 633 1475 mt 4405 1475 L
4405 1475 mt 4405 1475 L
 633 1146 mt 4405 1146 L
4405 1146 mt 4405 1146 L
 633  817 mt 4405  817 L
4405  817 mt 4405  817 L
 633  488 mt 4405  488 L
4405  488 mt 4405  488 L
 633  159 mt 4405  159 L
4405  159 mt 4405  159 L
SO
6 w
 633 1805 mt 4405 1805 L
 633  159 mt 4405  159 L
 633 1805 mt  633  159 L
4405 1805 mt 4405  159 L
 633 1805 mt 4405 1805 L
 633 1805 mt  633  159 L
 633 1805 mt  633 1767 L
 633  159 mt  633  196 L
%%IncludeResource: font Helvetica
/Helvetica /ISOLatin1Encoding 120 FMSR

 600 1950 mt 
(0) s
1261 1805 mt 1261 1767 L
1261  159 mt 1261  196 L
1195 1950 mt 
(10) s
1890 1805 mt 1890 1767 L
1890  159 mt 1890  196 L
1824 1950 mt 
(20) s
2519 1805 mt 2519 1767 L
2519  159 mt 2519  196 L
2453 1950 mt 
(30) s
3147 1805 mt 3147 1767 L
3147  159 mt 3147  196 L
3081 1950 mt 
(40) s
3776 1805 mt 3776 1767 L
3776  159 mt 3776  196 L
3710 1950 mt 
(50) s
4405 1805 mt 4405 1767 L
4405  159 mt 4405  196 L
4339 1950 mt 
(60) s
 633 1805 mt  670 1805 L
4405 1805 mt 4367 1805 L
 532 1849 mt 
(0) s
 633 1475 mt  670 1475 L
4405 1475 mt 4367 1475 L
 432 1519 mt 
(0.2) s
 633 1146 mt  670 1146 L
4405 1146 mt 4367 1146 L
 432 1190 mt 
(0.4) s
 633  817 mt  670  817 L
4405  817 mt 4367  817 L
 432  861 mt 
(0.6) s
 633  488 mt  670  488 L
4405  488 mt 4367  488 L
 432  532 mt 
(0.8) s
 633  159 mt  670  159 L
4405  159 mt 4367  159 L
 532  203 mt 
(1) s
 633 1805 mt 4405 1805 L
 633  159 mt 4405  159 L
 633 1805 mt  633  159 L
4405 1805 mt 4405  159 L
gs 633 159 3773 1647 rc
734 0 104 0 35 0 0 -1 64 0 6 0 140 0 0 -1 
19 0 121 0 7 0 0 -1 102 0 26 0 2 0 0 -1 
2 0 0 -1 70 0 7 0 28 0 0 -1 19 0 16 0 
6 0 0 -1 4 0 0 -1 60 0 0 -3 26 0 4 0 
0 -1 13 0 9 0 0 -2 11 0 0 -1 42 0 0 0 
66 -1 0 -2 15 0 4 0 0 -1 19 0 0 -4 45 0 
0 -2 11 0 0 -1 14 0 20 0 0 -4 15 0 0 -1 
3 0 0 -1 28 0 0 -1 4 0 18 0 0 -3 22 0 
0 -2 30 0 0 -1 5 0 0 -1 4 0 0 -4 51 0 
0 -2 10 0 0 -1 15 0 4 0 0 -2 16 0 0 -8 
32 0 0 -4 3 0 0 -1 10 0 0 -2 2 0 0 -1 
13 0 0 -2 45 0 0 -6 6 0 0 -2 24 0 0 -4 
4 0 0 -3 18 0 0 -5 3 0 0 -6 14 0 0 -14 
35 0 0 -4 10 0 0 -3 5 0 0 -5 14 0 0 -1 
6 0 0 -1 45 0 0 -7 9 0 0 -2 3 0 0 -2 
13 0 0 -23 51 0 0 -2 13 0 0 -4 6 0 0 -3 
20 0 0 -4 13 0 0 -6 2 0 0 -7 9 0 0 -3 
26 0 0 -3 3 0 0 -4 14 0 0 -10 21 0 0 -1 
2 0 0 -6 30 0 0 -9 13 0 0 -5 8 0 0 -7 
10 0 0 -2 29 0 0 -6 10 0 0 -4 23 0 0 -5 
2 0 0 -5 9 0 0 -15 35 0 0 -4 10 0 0 -17 
9 0 0 -1 14 0 0 -5 37 0 0 -12 13 0 0 -3 
17 0 0 -6 13 0 0 -5 10 0 0 -12 16 0 0 -11 
1 0 0 -3 6 0 0 -3 29 0 0 -6 15 0 0 -4 
2 0 0 -7 18 0 0 -65 48 0 9 0 0 -8 5 0 
0 -5 1 0 0 -3 7 0 0 -31 57 0 0 -3 13 0 
0 -4 1 0 0 -4 19 0 0 -7 15 0 0 -7 10 0 
0 -6 5 0 0 -1 20 0 0 -3 11 0 0 -5 6 0 
0 -8 22 0 0 -6 5 0 0 -2 11 0 0 -5 14 0 
0 -14 22 0 0 -3 13 0 0 -7 3 0 0 -1 22 0 
0 -6 10 0 0 -4 31 0 0 -5 4 -1 0 -40 35 0 
0 -2 10 0 0 -3 13 0 0 -8 2 0 0 -2 16 0 
0 -3 22 0 0 -27 7 0 0 -7 19 0 0 -1 11 0 
0 -6 20 0 0 -3 2 0 0 -17 18 0 0 -2 11 0 
0 -14 1 0 0 -2 23 0 0 -9 15 0 0 -3 10 0 
0 -1 10 0 0 -2 6 0 0 -1 63 0 0 -914 633 1805 288 MP stroke
gr

2039 2093 mt 
(Flow loss rate \(%\)) s
 350 1106 mt  -90 rotate
(CDF) s
90 rotate
gs 633 159 3773 1647 rc
DA
/c8 { 0.000000 0.000000 1.000000 sr} bdef
c8
315 0 52 0 137 0 79 0 0 -1 46 0 3 0 49 0 
80 0 0 -1 25 0 51 0 0 -1 19 0 20 0 13 0 
0 -1 2 0 9 0 29 0 14 0 0 -1 21 0 2 0 
0 -1 30 0 21 0 0 -2 10 0 29 0 0 -1 10 0 
34 0 0 -1 35 0 10 0 0 -3 9 0 14 0 37 0 
0 -1 30 0 23 0 0 -2 16 0 0 -2 1 0 6 0 
0 -1 29 0 15 0 0 -2 2 0 0 -1 18 0 0 -8 
57 0 5 0 0 -1 8 -1 0 -5 57 0 13 0 1 -1 
19 0 0 -2 15 0 0 -1 10 0 0 -1 5 0 0 -1 
20 0 0 -1 11 0 0 -2 6 0 0 -1 22 0 0 -1 
5 0 0 -2 25 0 0 -5 22 0 0 -1 13 0 0 -1 
3 0 0 -2 22 0 0 -2 10 0 0 -1 31 0 0 -2 
4 -1 0 -7 35 0 0 -1 10 0 0 -1 13 0 0 -2 
2 0 0 -2 16 0 0 -1 22 0 0 -6 7 0 0 -3 
19 0 11 0 0 -2 20 0 0 -3 2 0 0 -3 18 0 
0 -3 11 0 0 -3 1 0 0 -3 23 0 0 -3 15 0 
0 -3 10 0 0 -4 10 0 0 -1 6 0 0 -1 63 0 
0 -1529 633 1805 138 MP stroke
gr

c8
DA
0 sg
 616 1848 mt 
( ) s
4389  201 mt 
( ) s
SO
1 sg
0 342 1963 0 0 -342 2354 1711 4 MP
PP
-1963 0 0 342 1963 0 0 -342 2354 1711 5 MP stroke
4 w
DO
SO
6 w
0 sg
2354 1711 mt 4317 1711 L
2354 1369 mt 4317 1369 L
2354 1711 mt 2354 1369 L
4317 1711 mt 4317 1369 L
2354 1711 mt 4317 1711 L
2354 1711 mt 2354 1369 L
2354 1711 mt 4317 1711 L
2354 1369 mt 4317 1369 L
2354 1711 mt 2354 1369 L
4317 1711 mt 4317 1369 L
2822 1507 mt 
(Buffer = 18 \(Small flow\)) s
gs 2354 1369 1964 343 rc
360 0 2425 1465 2 MP stroke
gr

2822 1658 mt 
(Buffer = 500 \(Small flow\)) s
gs 2354 1369 1964 343 rc
DA
c8
360 0 2425 1615 2 MP stroke
SO
gr

c8

end %%Color Dict

eplot
%%EndObject

epage
end

showpage

%%Trailer
%%EOF
