<?xml version="1.0" encoding="UTF-8" standalone="no"?>
<!-- Created with Inkscape (http://www.inkscape.org/) -->

<svg
   xmlns:dc="http://purl.org/dc/elements/1.1/"
   xmlns:cc="http://creativecommons.org/ns#"
   xmlns:rdf="http://www.w3.org/1999/02/22-rdf-syntax-ns#"
   xmlns:svg="http://www.w3.org/2000/svg"
   xmlns="http://www.w3.org/2000/svg"
   xmlns:sodipodi="http://sodipodi.sourceforge.net/DTD/sodipodi-0.dtd"
   xmlns:inkscape="http://www.inkscape.org/namespaces/inkscape"
   id="svg2"
   version="1.1"
   inkscape:version="0.48.4 r9939"
   width="419.53836"
   height="175.54626"
   xml:space="preserve"
   sodipodi:docname="miceThr.eps"><metadata
     id="metadata8"><rdf:RDF><cc:Work
         rdf:about=""><dc:format>image/svg+xml</dc:format><dc:type
           rdf:resource="http://purl.org/dc/dcmitype/StillImage" /><dc:title></dc:title></cc:Work></rdf:RDF></metadata><defs
     id="defs6"><clipPath
       clipPathUnits="userSpaceOnUse"
       id="clipPath18"><path
         d="m 0,5 3920,0 0,1545 L 0,1550 0,5 z"
         id="path20"
         inkscape:connector-curvature="0" /></clipPath><clipPath
       clipPathUnits="userSpaceOnUse"
       id="clipPath218"><path
         d="m 510.832,300 3044.17,0 0,1078.33 -3044.17,0 0,-1078.33 z"
         id="path220"
         inkscape:connector-curvature="0" /></clipPath><clipPath
       clipPathUnits="userSpaceOnUse"
       id="clipPath228"><path
         d="m 0,5 3920,0 0,1545 L 0,1550 0,5 z"
         id="path230"
         inkscape:connector-curvature="0" /></clipPath><clipPath
       clipPathUnits="userSpaceOnUse"
       id="clipPath250"><path
         d="m 510.832,300 3044.17,0 0,1078.33 -3044.17,0 0,-1078.33 z"
         id="path252"
         inkscape:connector-curvature="0" /></clipPath><clipPath
       clipPathUnits="userSpaceOnUse"
       id="clipPath260"><path
         d="m 0,5 3920,0 0,1545 L 0,1550 0,5 z"
         id="path262"
         inkscape:connector-curvature="0" /></clipPath><clipPath
       clipPathUnits="userSpaceOnUse"
       id="clipPath300"><path
         d="m 1890,385.832 1636.67,0 0,285.836 -1636.67,0 0,-285.836 z"
         id="path302"
         inkscape:connector-curvature="0" /></clipPath><clipPath
       clipPathUnits="userSpaceOnUse"
       id="clipPath310"><path
         d="m 0,5 3920,0 0,1545 L 0,1550 0,5 z"
         id="path312"
         inkscape:connector-curvature="0" /></clipPath><clipPath
       clipPathUnits="userSpaceOnUse"
       id="clipPath324"><path
         d="m 1890,385.832 1636.67,0 0,285.836 -1636.67,0 0,-285.836 z"
         id="path326"
         inkscape:connector-curvature="0" /></clipPath></defs><sodipodi:namedview
     pagecolor="#ffffff"
     bordercolor="#666666"
     borderopacity="1"
     objecttolerance="10"
     gridtolerance="10"
     guidetolerance="10"
     inkscape:pageopacity="0"
     inkscape:pageshadow="2"
     inkscape:window-width="1301"
     inkscape:window-height="744"
     id="namedview4"
     showgrid="false"
     fit-margin-top="0"
     fit-margin-left="0"
     fit-margin-right="0"
     fit-margin-bottom="0"
     inkscape:zoom="2.0838004"
     inkscape:cx="216.94217"
     inkscape:cy="100.80999"
     inkscape:window-x="65"
     inkscape:window-y="24"
     inkscape:window-maximized="1"
     inkscape:current-layer="g10" /><g
     id="g10"
     inkscape:groupmode="layer"
     inkscape:label="ink_ext_XXXXXX"
     transform="matrix(1.25,0,0,-1.25,-25.0375,176.57126)"><g
       id="g4731"><path
         d="m 51.0832,30.0832 304.334,0 0,107.75 -304.334,0 0,-107.75 z"
         style="fill:#ffffff;fill-opacity:1;fill-rule:evenodd;stroke:none"
         id="path24"
         inkscape:connector-curvature="0" /><path
         d="m 51.0832,30.0832 0,107.7498 304.3338,0 0,-107.7498 -304.3338,0"
         style="fill:none;stroke:#ffffff;stroke-width:0.5;stroke-linecap:butt;stroke-linejoin:round;stroke-miterlimit:10;stroke-opacity:1;stroke-dasharray:none"
         id="path26"
         inkscape:connector-curvature="0" /><path
         d="m 286.5,30.0832 0,107.7498"
         style="fill:none;stroke:#000000;stroke-width:0.33333299;stroke-linecap:butt;stroke-linejoin:round;stroke-miterlimit:10;stroke-opacity:1;stroke-dasharray:0.5, 4;stroke-dashoffset:0"
         id="path28"
         inkscape:connector-curvature="0" /><path
         d="m 286.5,137.833 0,0"
         style="fill:none;stroke:#000000;stroke-width:0.33333299;stroke-linecap:butt;stroke-linejoin:round;stroke-miterlimit:10;stroke-opacity:1;stroke-dasharray:0.5, 4;stroke-dashoffset:0"
         id="path30"
         inkscape:connector-curvature="0" /><path
         d="m 51.0832,30.0832 304.3338,0"
         style="fill:none;stroke:#000000;stroke-width:0.33333299;stroke-linecap:butt;stroke-linejoin:round;stroke-miterlimit:10;stroke-opacity:1;stroke-dasharray:0.5, 4;stroke-dashoffset:0"
         id="path32"
         inkscape:connector-curvature="0" /><path
         d="m 355.417,30.0832 0,0"
         style="fill:none;stroke:#000000;stroke-width:0.33333299;stroke-linecap:butt;stroke-linejoin:round;stroke-miterlimit:10;stroke-opacity:1;stroke-dasharray:0.5, 4;stroke-dashoffset:0"
         id="path34"
         inkscape:connector-curvature="0" /><path
         d="m 51.0832,51.6668 304.3338,0"
         style="fill:none;stroke:#000000;stroke-width:0.33333299;stroke-linecap:butt;stroke-linejoin:round;stroke-miterlimit:10;stroke-opacity:1;stroke-dasharray:0.5, 4;stroke-dashoffset:0"
         id="path36"
         inkscape:connector-curvature="0" /><path
         d="m 355.417,51.6668 0,0"
         style="fill:none;stroke:#000000;stroke-width:0.33333299;stroke-linecap:butt;stroke-linejoin:round;stroke-miterlimit:10;stroke-opacity:1;stroke-dasharray:0.5, 4;stroke-dashoffset:0"
         id="path38"
         inkscape:connector-curvature="0" /><path
         d="m 51.0832,73.25 304.3338,0"
         style="fill:none;stroke:#000000;stroke-width:0.33333299;stroke-linecap:butt;stroke-linejoin:round;stroke-miterlimit:10;stroke-opacity:1;stroke-dasharray:0.5, 4;stroke-dashoffset:0"
         id="path40"
         inkscape:connector-curvature="0" /><path
         d="m 355.417,73.25 0,0"
         style="fill:none;stroke:#000000;stroke-width:0.33333299;stroke-linecap:butt;stroke-linejoin:round;stroke-miterlimit:10;stroke-opacity:1;stroke-dasharray:0.5, 4;stroke-dashoffset:0"
         id="path42"
         inkscape:connector-curvature="0" /><path
         d="m 51.0832,94.75 304.3338,0"
         style="fill:none;stroke:#000000;stroke-width:0.33333299;stroke-linecap:butt;stroke-linejoin:round;stroke-miterlimit:10;stroke-opacity:1;stroke-dasharray:0.5, 4;stroke-dashoffset:0"
         id="path44"
         inkscape:connector-curvature="0" /><path
         d="m 355.417,94.75 0,0"
         style="fill:none;stroke:#000000;stroke-width:0.33333299;stroke-linecap:butt;stroke-linejoin:round;stroke-miterlimit:10;stroke-opacity:1;stroke-dasharray:0.5, 4;stroke-dashoffset:0"
         id="path46"
         inkscape:connector-curvature="0" /><path
         d="m 51.0832,116.333 304.3338,0"
         style="fill:none;stroke:#000000;stroke-width:0.33333299;stroke-linecap:butt;stroke-linejoin:round;stroke-miterlimit:10;stroke-opacity:1;stroke-dasharray:0.5, 4;stroke-dashoffset:0"
         id="path48"
         inkscape:connector-curvature="0" /><path
         d="m 355.417,116.333 0,0"
         style="fill:none;stroke:#000000;stroke-width:0.33333299;stroke-linecap:butt;stroke-linejoin:round;stroke-miterlimit:10;stroke-opacity:1;stroke-dasharray:0.5, 4;stroke-dashoffset:0"
         id="path50"
         inkscape:connector-curvature="0" /><path
         d="m 51.0832,137.833 304.3338,0"
         style="fill:none;stroke:#000000;stroke-width:0.33333299;stroke-linecap:butt;stroke-linejoin:round;stroke-miterlimit:10;stroke-opacity:1;stroke-dasharray:0.5, 4;stroke-dashoffset:0"
         id="path52"
         inkscape:connector-curvature="0" /><path
         d="m 355.417,137.833 0,0"
         style="fill:none;stroke:#000000;stroke-width:0.33333299;stroke-linecap:butt;stroke-linejoin:round;stroke-miterlimit:10;stroke-opacity:1;stroke-dasharray:0.5, 4;stroke-dashoffset:0"
         id="path54"
         inkscape:connector-curvature="0" /><path
         d="m 51.0832,30.0832 304.3338,0"
         style="fill:none;stroke:#000000;stroke-width:0.5;stroke-linecap:butt;stroke-linejoin:round;stroke-miterlimit:10;stroke-opacity:1;stroke-dasharray:none"
         id="path56"
         inkscape:connector-curvature="0" /><path
         d="m 51.0832,137.833 304.3338,0"
         style="fill:none;stroke:#000000;stroke-width:0.5;stroke-linecap:butt;stroke-linejoin:round;stroke-miterlimit:10;stroke-opacity:1;stroke-dasharray:none"
         id="path58"
         inkscape:connector-curvature="0" /><path
         d="m 51.0832,30.0832 0,107.7498"
         style="fill:none;stroke:#000000;stroke-width:0.5;stroke-linecap:butt;stroke-linejoin:round;stroke-miterlimit:10;stroke-opacity:1;stroke-dasharray:none"
         id="path60"
         inkscape:connector-curvature="0" /><path
         d="m 355.417,30.0832 0,107.7498"
         style="fill:none;stroke:#000000;stroke-width:0.5;stroke-linecap:butt;stroke-linejoin:round;stroke-miterlimit:10;stroke-opacity:1;stroke-dasharray:none"
         id="path62"
         inkscape:connector-curvature="0" /><path
         d="m 51.0832,30.0832 304.3338,0"
         style="fill:none;stroke:#000000;stroke-width:0.5;stroke-linecap:butt;stroke-linejoin:round;stroke-miterlimit:10;stroke-opacity:1;stroke-dasharray:none"
         id="path64"
         inkscape:connector-curvature="0" /><path
         d="m 51.0832,30.0832 0,107.7498"
         style="fill:none;stroke:#000000;stroke-width:0.5;stroke-linecap:butt;stroke-linejoin:round;stroke-miterlimit:10;stroke-opacity:1;stroke-dasharray:none"
         id="path66"
         inkscape:connector-curvature="0" /><path
         d="m 286.5,30.0832 0,1.5836"
         style="fill:none;stroke:#000000;stroke-width:0.5;stroke-linecap:butt;stroke-linejoin:round;stroke-miterlimit:10;stroke-opacity:1;stroke-dasharray:none"
         id="path68"
         inkscape:connector-curvature="0" /><path
         d="m 286.5,137.833 0,-1.5"
         style="fill:none;stroke:#000000;stroke-width:0.5;stroke-linecap:butt;stroke-linejoin:round;stroke-miterlimit:10;stroke-opacity:1;stroke-dasharray:none"
         id="path70"
         inkscape:connector-curvature="0" /><path
         d="m 286.5,30.0832 0,107.7498"
         style="fill:none;stroke:#000000;stroke-width:0.5;stroke-linecap:butt;stroke-linejoin:round;stroke-miterlimit:10;stroke-opacity:1;stroke-dasharray:0.5, 4;stroke-dashoffset:0"
         id="path72"
         inkscape:connector-curvature="0" /><path
         d="m 286.5,137.833 0,0"
         style="fill:none;stroke:#000000;stroke-width:0.5;stroke-linecap:butt;stroke-linejoin:round;stroke-miterlimit:10;stroke-opacity:1;stroke-dasharray:0.5, 4;stroke-dashoffset:0"
         id="path74"
         inkscape:connector-curvature="0" /><path
         d="m 268.583,30.0832 0,1.5836"
         style="fill:none;stroke:#000000;stroke-width:0.5;stroke-linecap:butt;stroke-linejoin:round;stroke-miterlimit:10;stroke-opacity:1;stroke-dasharray:none"
         id="path76"
         inkscape:connector-curvature="0" /><path
         d="m 268.583,137.833 0,-1.5"
         style="fill:none;stroke:#000000;stroke-width:0.5;stroke-linecap:butt;stroke-linejoin:round;stroke-miterlimit:10;stroke-opacity:1;stroke-dasharray:none"
         id="path78"
         inkscape:connector-curvature="0" /><path
         d="m 268.583,30.0832 0,107.7498"
         style="fill:none;stroke:#000000;stroke-width:0.5;stroke-linecap:butt;stroke-linejoin:round;stroke-miterlimit:10;stroke-opacity:1;stroke-dasharray:0.5, 4;stroke-dashoffset:0"
         id="path80"
         inkscape:connector-curvature="0" /><path
         d="m 268.583,137.833 0,0"
         style="fill:none;stroke:#000000;stroke-width:0.5;stroke-linecap:butt;stroke-linejoin:round;stroke-miterlimit:10;stroke-opacity:1;stroke-dasharray:0.5, 4;stroke-dashoffset:0"
         id="path82"
         inkscape:connector-curvature="0" /><path
         d="m 248.583,30.0832 0,1.5836"
         style="fill:none;stroke:#000000;stroke-width:0.5;stroke-linecap:butt;stroke-linejoin:round;stroke-miterlimit:10;stroke-opacity:1;stroke-dasharray:none"
         id="path84"
         inkscape:connector-curvature="0" /><path
         d="m 248.583,137.833 0,-1.5"
         style="fill:none;stroke:#000000;stroke-width:0.5;stroke-linecap:butt;stroke-linejoin:round;stroke-miterlimit:10;stroke-opacity:1;stroke-dasharray:none"
         id="path86"
         inkscape:connector-curvature="0" /><path
         d="m 248.583,30.0832 0,107.7498"
         style="fill:none;stroke:#000000;stroke-width:0.5;stroke-linecap:butt;stroke-linejoin:round;stroke-miterlimit:10;stroke-opacity:1;stroke-dasharray:0.5, 4;stroke-dashoffset:0"
         id="path88"
         inkscape:connector-curvature="0" /><path
         d="m 248.583,137.833 0,0"
         style="fill:none;stroke:#000000;stroke-width:0.5;stroke-linecap:butt;stroke-linejoin:round;stroke-miterlimit:10;stroke-opacity:1;stroke-dasharray:0.5, 4;stroke-dashoffset:0"
         id="path90"
         inkscape:connector-curvature="0" /><path
         d="m 225.917,30.0832 0,1.5836"
         style="fill:none;stroke:#000000;stroke-width:0.5;stroke-linecap:butt;stroke-linejoin:round;stroke-miterlimit:10;stroke-opacity:1;stroke-dasharray:none"
         id="path92"
         inkscape:connector-curvature="0" /><path
         d="m 225.917,137.833 0,-1.5"
         style="fill:none;stroke:#000000;stroke-width:0.5;stroke-linecap:butt;stroke-linejoin:round;stroke-miterlimit:10;stroke-opacity:1;stroke-dasharray:none"
         id="path94"
         inkscape:connector-curvature="0" /><path
         d="m 225.917,30.0832 0,107.7498"
         style="fill:none;stroke:#000000;stroke-width:0.5;stroke-linecap:butt;stroke-linejoin:round;stroke-miterlimit:10;stroke-opacity:1;stroke-dasharray:0.5, 4;stroke-dashoffset:0"
         id="path96"
         inkscape:connector-curvature="0" /><path
         d="m 225.917,137.833 0,0"
         style="fill:none;stroke:#000000;stroke-width:0.5;stroke-linecap:butt;stroke-linejoin:round;stroke-miterlimit:10;stroke-opacity:1;stroke-dasharray:0.5, 4;stroke-dashoffset:0"
         id="path98"
         inkscape:connector-curvature="0" /><path
         d="m 199.75,30.0832 0,1.5836"
         style="fill:none;stroke:#000000;stroke-width:0.5;stroke-linecap:butt;stroke-linejoin:round;stroke-miterlimit:10;stroke-opacity:1;stroke-dasharray:none"
         id="path100"
         inkscape:connector-curvature="0" /><path
         d="m 199.75,137.833 0,-1.5"
         style="fill:none;stroke:#000000;stroke-width:0.5;stroke-linecap:butt;stroke-linejoin:round;stroke-miterlimit:10;stroke-opacity:1;stroke-dasharray:none"
         id="path102"
         inkscape:connector-curvature="0" /><path
         d="m 199.75,30.0832 0,107.7498"
         style="fill:none;stroke:#000000;stroke-width:0.5;stroke-linecap:butt;stroke-linejoin:round;stroke-miterlimit:10;stroke-opacity:1;stroke-dasharray:0.5, 4;stroke-dashoffset:0"
         id="path104"
         inkscape:connector-curvature="0" /><path
         d="m 199.75,137.833 0,0"
         style="fill:none;stroke:#000000;stroke-width:0.5;stroke-linecap:butt;stroke-linejoin:round;stroke-miterlimit:10;stroke-opacity:1;stroke-dasharray:0.5, 4;stroke-dashoffset:0"
         id="path106"
         inkscape:connector-curvature="0" /><path
         d="m 168.75,30.0832 0,1.5836"
         style="fill:none;stroke:#000000;stroke-width:0.5;stroke-linecap:butt;stroke-linejoin:round;stroke-miterlimit:10;stroke-opacity:1;stroke-dasharray:none"
         id="path108"
         inkscape:connector-curvature="0" /><path
         d="m 168.75,137.833 0,-1.5"
         style="fill:none;stroke:#000000;stroke-width:0.5;stroke-linecap:butt;stroke-linejoin:round;stroke-miterlimit:10;stroke-opacity:1;stroke-dasharray:none"
         id="path110"
         inkscape:connector-curvature="0" /><path
         d="m 168.75,30.0832 0,107.7498"
         style="fill:none;stroke:#000000;stroke-width:0.5;stroke-linecap:butt;stroke-linejoin:round;stroke-miterlimit:10;stroke-opacity:1;stroke-dasharray:0.5, 4;stroke-dashoffset:0"
         id="path112"
         inkscape:connector-curvature="0" /><path
         d="m 168.75,137.833 0,0"
         style="fill:none;stroke:#000000;stroke-width:0.5;stroke-linecap:butt;stroke-linejoin:round;stroke-miterlimit:10;stroke-opacity:1;stroke-dasharray:0.5, 4;stroke-dashoffset:0"
         id="path114"
         inkscape:connector-curvature="0" /><path
         d="m 130.833,30.0832 0,1.5836"
         style="fill:none;stroke:#000000;stroke-width:0.5;stroke-linecap:butt;stroke-linejoin:round;stroke-miterlimit:10;stroke-opacity:1;stroke-dasharray:none"
         id="path116"
         inkscape:connector-curvature="0" /><path
         d="m 130.833,137.833 0,-1.5"
         style="fill:none;stroke:#000000;stroke-width:0.5;stroke-linecap:butt;stroke-linejoin:round;stroke-miterlimit:10;stroke-opacity:1;stroke-dasharray:none"
         id="path118"
         inkscape:connector-curvature="0" /><path
         d="m 130.833,30.0832 0,107.7498"
         style="fill:none;stroke:#000000;stroke-width:0.5;stroke-linecap:butt;stroke-linejoin:round;stroke-miterlimit:10;stroke-opacity:1;stroke-dasharray:0.5, 4;stroke-dashoffset:0"
         id="path120"
         inkscape:connector-curvature="0" /><path
         d="m 130.833,137.833 0,0"
         style="fill:none;stroke:#000000;stroke-width:0.5;stroke-linecap:butt;stroke-linejoin:round;stroke-miterlimit:10;stroke-opacity:1;stroke-dasharray:0.5, 4;stroke-dashoffset:0"
         id="path122"
         inkscape:connector-curvature="0" /><path
         d="m 82,30.0832 0,1.5836"
         style="fill:none;stroke:#000000;stroke-width:0.5;stroke-linecap:butt;stroke-linejoin:round;stroke-miterlimit:10;stroke-opacity:1;stroke-dasharray:none"
         id="path124"
         inkscape:connector-curvature="0" /><path
         d="m 82,137.833 0,-1.5"
         style="fill:none;stroke:#000000;stroke-width:0.5;stroke-linecap:butt;stroke-linejoin:round;stroke-miterlimit:10;stroke-opacity:1;stroke-dasharray:none"
         id="path126"
         inkscape:connector-curvature="0" /><path
         d="M 82,30.0832 82,137.833"
         style="fill:none;stroke:#000000;stroke-width:0.5;stroke-linecap:butt;stroke-linejoin:round;stroke-miterlimit:10;stroke-opacity:1;stroke-dasharray:0.5, 4;stroke-dashoffset:0"
         id="path128"
         inkscape:connector-curvature="0" /><path
         d="m 82,137.833 0,0"
         style="fill:none;stroke:#000000;stroke-width:0.5;stroke-linecap:butt;stroke-linejoin:round;stroke-miterlimit:10;stroke-opacity:1;stroke-dasharray:0.5, 4;stroke-dashoffset:0"
         id="path130"
         inkscape:connector-curvature="0" /><path
         d="m 286.5,30.0832 0,3.0836"
         style="fill:none;stroke:#000000;stroke-width:0.5;stroke-linecap:butt;stroke-linejoin:round;stroke-miterlimit:10;stroke-opacity:1;stroke-dasharray:none"
         id="path132"
         inkscape:connector-curvature="0" /><path
         d="m 286.5,137.833 0,-3"
         style="fill:none;stroke:#000000;stroke-width:0.5;stroke-linecap:butt;stroke-linejoin:round;stroke-miterlimit:10;stroke-opacity:1;stroke-dasharray:none"
         id="path134"
         inkscape:connector-curvature="0" /><text
         y="-14.9168"
         x="279.16699"
         id="text138"
         transform="scale(1,-1)"><tspan
           id="tspan140"
           sodipodi:role="line"
           y="-14.9168"
           x="279.16699 284.72699"
           style="font-size:10px;font-variant:normal;font-weight:normal;writing-mode:lr-tb;fill:#000000;fill-opacity:1;fill-rule:nonzero;stroke:none;font-family:Helvetica;-inkscape-font-specification:Helvetica">10</tspan></text>
<text
         y="-21.08321"
         x="290.25021"
         id="text142"
         transform="scale(1,-1)"><tspan
           id="tspan144"
           y="-21.08321"
           x="290.25021"
           style="font-size:6.66666985px;font-variant:normal;font-weight:normal;writing-mode:lr-tb;fill:#000000;fill-opacity:1;fill-rule:nonzero;stroke:none;font-family:Helvetica;-inkscape-font-specification:Helvetica">5</tspan></text>
<path
         d="m 51.0832,30.0832 3,0"
         style="fill:none;stroke:#000000;stroke-width:0.5;stroke-linecap:butt;stroke-linejoin:round;stroke-miterlimit:10;stroke-opacity:1;stroke-dasharray:none"
         id="path146"
         inkscape:connector-curvature="0" /><path
         d="m 355.417,30.0832 -3.084,0"
         style="fill:none;stroke:#000000;stroke-width:0.5;stroke-linecap:butt;stroke-linejoin:round;stroke-miterlimit:10;stroke-opacity:1;stroke-dasharray:none"
         id="path148"
         inkscape:connector-curvature="0" /><text
         y="-26.4168"
         x="42.666801"
         id="text152"
         transform="scale(1,-1)"><tspan
           id="tspan154"
           y="-26.4168"
           x="42.666801"
           style="font-size:10px;font-variant:normal;font-weight:normal;writing-mode:lr-tb;fill:#000000;fill-opacity:1;fill-rule:nonzero;stroke:none;font-family:Helvetica;-inkscape-font-specification:Helvetica">0</tspan></text>
<path
         d="m 51.0832,51.6668 3,0"
         style="fill:none;stroke:#000000;stroke-width:0.5;stroke-linecap:butt;stroke-linejoin:round;stroke-miterlimit:10;stroke-opacity:1;stroke-dasharray:none"
         id="path156"
         inkscape:connector-curvature="0" /><path
         d="m 355.417,51.6668 -3.084,0"
         style="fill:none;stroke:#000000;stroke-width:0.5;stroke-linecap:butt;stroke-linejoin:round;stroke-miterlimit:10;stroke-opacity:1;stroke-dasharray:none"
         id="path158"
         inkscape:connector-curvature="0" /><text
         y="-48"
         x="34.333199"
         id="text162"
         transform="scale(1,-1)"><tspan
           id="tspan164"
           sodipodi:role="line"
           y="-48"
           x="34.333199 39.8932 42.673199"
           style="font-size:10px;font-variant:normal;font-weight:normal;writing-mode:lr-tb;fill:#000000;fill-opacity:1;fill-rule:nonzero;stroke:none;font-family:Helvetica;-inkscape-font-specification:Helvetica">0.2</tspan></text>
<path
         d="m 51.0832,73.25 3,0"
         style="fill:none;stroke:#000000;stroke-width:0.5;stroke-linecap:butt;stroke-linejoin:round;stroke-miterlimit:10;stroke-opacity:1;stroke-dasharray:none"
         id="path166"
         inkscape:connector-curvature="0" /><path
         d="m 355.417,73.25 -3.084,0"
         style="fill:none;stroke:#000000;stroke-width:0.5;stroke-linecap:butt;stroke-linejoin:round;stroke-miterlimit:10;stroke-opacity:1;stroke-dasharray:none"
         id="path168"
         inkscape:connector-curvature="0" /><text
         y="-69.583199"
         x="34.333199"
         id="text172"
         transform="scale(1,-1)"><tspan
           id="tspan174"
           sodipodi:role="line"
           y="-69.583199"
           x="34.333199 39.8932 42.673199"
           style="font-size:10px;font-variant:normal;font-weight:normal;writing-mode:lr-tb;fill:#000000;fill-opacity:1;fill-rule:nonzero;stroke:none;font-family:Helvetica;-inkscape-font-specification:Helvetica">0.4</tspan></text>
<path
         d="m 51.0832,94.75 3,0"
         style="fill:none;stroke:#000000;stroke-width:0.5;stroke-linecap:butt;stroke-linejoin:round;stroke-miterlimit:10;stroke-opacity:1;stroke-dasharray:none"
         id="path176"
         inkscape:connector-curvature="0" /><path
         d="m 355.417,94.75 -3.084,0"
         style="fill:none;stroke:#000000;stroke-width:0.5;stroke-linecap:butt;stroke-linejoin:round;stroke-miterlimit:10;stroke-opacity:1;stroke-dasharray:none"
         id="path178"
         inkscape:connector-curvature="0" /><text
         y="-91.083199"
         x="34.333199"
         id="text182"
         transform="scale(1,-1)"><tspan
           id="tspan184"
           sodipodi:role="line"
           y="-91.083199"
           x="34.333199 39.8932 42.673199"
           style="font-size:10px;font-variant:normal;font-weight:normal;writing-mode:lr-tb;fill:#000000;fill-opacity:1;fill-rule:nonzero;stroke:none;font-family:Helvetica;-inkscape-font-specification:Helvetica">0.6</tspan></text>
<path
         d="m 51.0832,116.333 3,0"
         style="fill:none;stroke:#000000;stroke-width:0.5;stroke-linecap:butt;stroke-linejoin:round;stroke-miterlimit:10;stroke-opacity:1;stroke-dasharray:none"
         id="path186"
         inkscape:connector-curvature="0" /><path
         d="m 355.417,116.333 -3.084,0"
         style="fill:none;stroke:#000000;stroke-width:0.5;stroke-linecap:butt;stroke-linejoin:round;stroke-miterlimit:10;stroke-opacity:1;stroke-dasharray:none"
         id="path188"
         inkscape:connector-curvature="0" /><text
         y="-112.667"
         x="34.333199"
         id="text192"
         transform="scale(1,-1)"><tspan
           id="tspan194"
           sodipodi:role="line"
           y="-112.667"
           x="34.333199 39.8932 42.673199"
           style="font-size:10px;font-variant:normal;font-weight:normal;writing-mode:lr-tb;fill:#000000;fill-opacity:1;fill-rule:nonzero;stroke:none;font-family:Helvetica;-inkscape-font-specification:Helvetica">0.8</tspan></text>
<path
         d="m 51.0832,137.833 3,0"
         style="fill:none;stroke:#000000;stroke-width:0.5;stroke-linecap:butt;stroke-linejoin:round;stroke-miterlimit:10;stroke-opacity:1;stroke-dasharray:none"
         id="path196"
         inkscape:connector-curvature="0" /><path
         d="m 355.417,137.833 -3.084,0"
         style="fill:none;stroke:#000000;stroke-width:0.5;stroke-linecap:butt;stroke-linejoin:round;stroke-miterlimit:10;stroke-opacity:1;stroke-dasharray:none"
         id="path198"
         inkscape:connector-curvature="0" /><text
         y="-134.16701"
         x="42.666801"
         id="text202"
         transform="scale(1,-1)"><tspan
           id="tspan204"
           y="-134.16701"
           x="42.666801"
           style="font-size:10px;font-variant:normal;font-weight:normal;writing-mode:lr-tb;fill:#000000;fill-opacity:1;fill-rule:nonzero;stroke:none;font-family:Helvetica;-inkscape-font-specification:Helvetica">1</tspan></text>
<path
         d="m 51.0832,30.0832 304.3338,0"
         style="fill:none;stroke:#000000;stroke-width:0.5;stroke-linecap:butt;stroke-linejoin:round;stroke-miterlimit:10;stroke-opacity:1;stroke-dasharray:none"
         id="path206"
         inkscape:connector-curvature="0" /><path
         d="m 51.0832,137.833 304.3338,0"
         style="fill:none;stroke:#000000;stroke-width:0.5;stroke-linecap:butt;stroke-linejoin:round;stroke-miterlimit:10;stroke-opacity:1;stroke-dasharray:none"
         id="path208"
         inkscape:connector-curvature="0" /><path
         d="m 51.0832,30.0832 0,107.7498"
         style="fill:none;stroke:#000000;stroke-width:0.5;stroke-linecap:butt;stroke-linejoin:round;stroke-miterlimit:10;stroke-opacity:1;stroke-dasharray:none"
         id="path210"
         inkscape:connector-curvature="0" /><path
         d="m 355.417,30.0832 0,107.7498"
         style="fill:none;stroke:#000000;stroke-width:0.5;stroke-linecap:butt;stroke-linejoin:round;stroke-miterlimit:10;stroke-opacity:1;stroke-dasharray:none"
         id="path212"
         inkscape:connector-curvature="0" /><path
         d="m 124.417,30.0832 0,0.5836 3.25,0 0,0.5832 3.166,0 0,0.5832 13.334,0 0,0.5836 7.666,0 0,0.5832 0.917,0 0,0.5832 0.917,0 0,1.1668 2.75,0 0,0.5832 2.75,0 0,0.5836 5.333,0 0,0.5832 1.667,0 0,0.5832 0.916,0 0,1.1668 1.667,0 0,1.1668 0.833,0 0,0.5832 1.75,0 0,0.5832 0.834,0 0,1.1668 0.833,0 0,1.6668 1.583,0 0,1.1664 1.667,0 0,1.75 0.833,0 0,1.75 1.584,0 0,0.5836 0.833,0 0,0.5832 3.167,0 0,0.5832 0.75,0 0,0.5836 0.75,0 0,2.9164 0.833,0 0,0.5836 0.75,0 0,0.5 0.75,0 0,0.5832 0.75,0 0,2.3332 0.75,0 0,1.1668 1.5,0 0,0.5832 1.5,0 0,1.1668 0.75,0 0,2.3332 0.75,0 0,0.5836 0.75,0 0,0.5832 0.75,0 0,0.5832 0.75,0 0,1.6668 1.417,0 0,0.5832 0.75,0 0,1.75 0.666,0 0,1.1668 0.75,0 0,0.5832 1.417,0 0,0.5836 0.667,0 0,0.5832 1.416,0 0,1.1668 0.75,0 0,1.1664 0.667,0 0,1.75 0.667,0 0,0.5836 0.666,0 0,2.8332 0.75,0 0,0.5832 0.667,0 0,0.5836 0.667,0 0,1.1664 0.666,0 0,0.5836 2,0 0,1.1664 0.667,0 0,0.5836 0.667,0 0,1.1664 0.666,0 0,2.3336 1.334,0 0,1.75 1.333,0 0,1.1664 0.667,0 0,1.0836 0.583,0 0,0.5832 1.333,0 0,1.75 0.667,0 0,0.5832 0.583,0 0,0.5836 0.667,0 0,0.5832 0.583,0 0,0.5832 0.667,0 0,0.5836 0.667,0 0,0.5832 0.583,0 0,0.5832 0.583,0 0,1.75 0.667,0 0,1.7498 1.25,0 0,1.084 0.583,0 0,1.166 0.584,0 0,1.167 0.666,0 0,1.75 0.584,0 0,1.167 0.583,0 0,0.583 1.833,0 0,0.583 0.584,0 0,1.167 0.583,0 0,0.583 0.583,0 0,0.584 0.667,0 0,0.583 1.75,0 0,1.167 1.75,0 0,1.666 0.5,0 0,0.584 0.583,0 0,0.583 1.167,0 0,0.583 0.583,0 0,0.584 0.584,0 0,0.583 1.666,0 0,0.583 2.25,0 0,0.584 0.5,0 0,0.583 0.584,0 0,1.167 0.583,0 0,0.583 0.5,0 0,1.167 1.083,0 0,0.583 1.084,0 0,1.167 0.583,0 0,0.583 0.5,0 0,0.583 1.083,0 0,0.584 0.5,0 0,1.083 2.167,0 0,1.167 1,0 0,0.583 2.083,0 0,1.167 0.5,0 0,0.583 3.084,0 0,0.583 0.5,0 0,0.584 0.5,0 0,1.166 3.416,0 0,0.584 0.5,0 0,0.583 1.5,0 0,1.167 3.834,0 0,0.583 2.333,0 0,0.583 1.917,0 0,0.584 8.083,0 0,0.583 1.333,0 0,0.583 11.417,0 0,0.5"
         style="fill:none;stroke:#000000;stroke-width:0.80000001;stroke-linecap:butt;stroke-linejoin:round;stroke-miterlimit:10;stroke-opacity:1;stroke-dasharray:none"
         id="path222"
         inkscape:connector-curvature="0" /><text
         y="-3"
         x="154.08299"
         id="text234"
         transform="scale(1,-1)"><tspan
           id="tspan236"
           sodipodi:role="line"
           y="-3"
           x="154.08299 160.19299 162.41299 167.97301 175.19299 177.97299 180.75301 186.313 189.64301 195.203 200.763 206.323 211.883 217.44299 223.00299 225.78299 228.563 231.89299 238.563 244.123 249.123"
           style="font-size:10px;font-variant:normal;font-weight:normal;writing-mode:lr-tb;fill:#000000;fill-opacity:1;fill-rule:nonzero;stroke:none;font-family:Helvetica;-inkscape-font-specification:Helvetica">Flow throughput (Bps)</tspan></text>
<text
         y="27.5"
         x="73.666801"
         id="text238"
         transform="matrix(0,1,1,0,0,0)"><tspan
           id="tspan240"
           sodipodi:role="line"
           y="27.5"
           x="73.666801 80.886803 88.106796"
           style="font-size:10px;font-variant:normal;font-weight:normal;writing-mode:lr-tb;fill:#000000;fill-opacity:1;fill-rule:nonzero;stroke:none;font-family:Helvetica;-inkscape-font-specification:Helvetica">CDF</tspan></text>
<path
         d="m 147.083,30.0832 0,0.8336 5.667,0 0,0.75 2.75,0 0,1.5 1.833,0 0,0.8332 2.75,0 0,1.5 0.834,0 0,1.5832 1.833,0 0,1.5 5.167,0 0,0.75 2.583,0 0,0.8336 0.833,0 0,0.75 0.834,0 0,1.5 0.833,0 0,3.0832 2.417,0 0,1.5832 0.833,0 0,0.75 3.25,0 0,0.75 0.75,0 0,0.75 1.583,0 0,0.8336 2.334,0 0,1.5 0.833,0 0,1.5832 0.75,0 0,3.0832 0.75,0 0,0.75 3,0 0,1.5 3,0 0,3.0836 1.5,0 0,0.75 0.75,0 0,0.8332 0.667,0 0,0.75 0.75,0 0,0.75 0.75,0 0,0.75 0.666,0 0,1.5832 0.75,0 0,2.3336 0.667,0 0,1.5 0.75,0 0,0.75 0.667,0 0,0.75 0.75,0 0,0.8332 0.666,0 0,0.75 1.417,0 0,0.75 1.333,0 0,2.3332 1.417,0 0,0.75 1.333,0 0,0.75 0.667,0 0,0.8336 0.667,0 0,0.75 0.666,0 0,0.75 0.667,0 0,1.5832 1.333,0 0,1.5 0.667,0 0,0.75 1.333,0 0,0.75 0.667,0 0,1.5832 0.667,0 0,3.0836 0.583,0 0,0.75 1.333,0 0,2.3332 0.667,0 0,0.75 1.833,0 0,0.75 0.667,0 0,1.5832 0.667,0 0,1.5 0.583,0 0,1.5836 0.583,0 0,0.7502 0.667,0 0,0.75 0.583,0 0,0.75 0.667,0 0,2.333 0.583,0 0,1.583 1.25,0 0,0.75 1.834,0 0,3.084 0.583,0 0,0.75 0.583,0 0,0.75 0.584,0 0,0.75 0.583,0 0,0.833 0.583,0 0,2.25 0.667,0 0,0.833 0.583,0 0,1.5 1.167,0 0,0.75 0.583,0 0,0.834 0.584,0 0,0.75 0.583,0 0,1.5 0.5,0 0,0.833 1.167,0 0,0.75 0.583,0 0,0.75 0.583,0 0,0.75 1.084,0 0,0.75 2.833,0 0,2.333 0.583,0 0,1.584 1.667,0 0,1.5 0.5,0 0,0.75 1.667,0 0,0.833 1.583,0 0,0.75 2.167,0 0,0.75 4.666,0 0,0.75 3.084,0 0,1.583 4.5,0 0,0.75 2.916,0 0,0.75 1.417,0 0,0.75"
         style="fill:none;stroke:#0000ff;stroke-width:0.80000001;stroke-linecap:butt;stroke-linejoin:round;stroke-miterlimit:10;stroke-opacity:1;stroke-dasharray:1.6, 0.8;stroke-dashoffset:0"
         id="path254"
         inkscape:connector-curvature="0" /><path
         d="m 189,38.6668 163.583,0 0,28.5 -163.583,0 0,-28.5 z"
         style="fill:#ffffff;fill-opacity:1;fill-rule:evenodd;stroke:none"
         id="path266"
         inkscape:connector-curvature="0" /><path
         d="m 189,38.6668 0,28.5 163.583,0 0,-28.5 -163.583,0"
         style="fill:none;stroke:#ffffff;stroke-width:0.5;stroke-linecap:butt;stroke-linejoin:round;stroke-miterlimit:10;stroke-opacity:1;stroke-dasharray:none"
         id="path268"
         inkscape:connector-curvature="0" /><path
         d="m 189,38.6668 163.583,0"
         style="fill:none;stroke:#000000;stroke-width:0.5;stroke-linecap:butt;stroke-linejoin:round;stroke-miterlimit:10;stroke-opacity:1;stroke-dasharray:none"
         id="path270"
         inkscape:connector-curvature="0" /><path
         d="m 189,67.1668 163.583,0"
         style="fill:none;stroke:#000000;stroke-width:0.5;stroke-linecap:butt;stroke-linejoin:round;stroke-miterlimit:10;stroke-opacity:1;stroke-dasharray:none"
         id="path272"
         inkscape:connector-curvature="0" /><path
         d="m 189,38.6668 0,28.5"
         style="fill:none;stroke:#000000;stroke-width:0.5;stroke-linecap:butt;stroke-linejoin:round;stroke-miterlimit:10;stroke-opacity:1;stroke-dasharray:none"
         id="path274"
         inkscape:connector-curvature="0" /><path
         d="m 352.583,38.6668 0,28.5"
         style="fill:none;stroke:#000000;stroke-width:0.5;stroke-linecap:butt;stroke-linejoin:round;stroke-miterlimit:10;stroke-opacity:1;stroke-dasharray:none"
         id="path276"
         inkscape:connector-curvature="0" /><path
         d="m 189,38.6668 163.583,0"
         style="fill:none;stroke:#000000;stroke-width:0.5;stroke-linecap:butt;stroke-linejoin:round;stroke-miterlimit:10;stroke-opacity:1;stroke-dasharray:none"
         id="path278"
         inkscape:connector-curvature="0" /><path
         d="m 189,38.6668 0,28.5"
         style="fill:none;stroke:#000000;stroke-width:0.5;stroke-linecap:butt;stroke-linejoin:round;stroke-miterlimit:10;stroke-opacity:1;stroke-dasharray:none"
         id="path280"
         inkscape:connector-curvature="0" /><path
         d="m 189,38.6668 163.583,0"
         style="fill:none;stroke:#000000;stroke-width:0.5;stroke-linecap:butt;stroke-linejoin:round;stroke-miterlimit:10;stroke-opacity:1;stroke-dasharray:none"
         id="path282"
         inkscape:connector-curvature="0" /><path
         d="m 189,67.1668 163.583,0"
         style="fill:none;stroke:#000000;stroke-width:0.5;stroke-linecap:butt;stroke-linejoin:round;stroke-miterlimit:10;stroke-opacity:1;stroke-dasharray:none"
         id="path284"
         inkscape:connector-curvature="0" /><path
         d="m 189,38.6668 0,28.5"
         style="fill:none;stroke:#000000;stroke-width:0.5;stroke-linecap:butt;stroke-linejoin:round;stroke-miterlimit:10;stroke-opacity:1;stroke-dasharray:none"
         id="path286"
         inkscape:connector-curvature="0" /><path
         d="m 352.583,38.6668 0,28.5"
         style="fill:none;stroke:#000000;stroke-width:0.5;stroke-linecap:butt;stroke-linejoin:round;stroke-miterlimit:10;stroke-opacity:1;stroke-dasharray:none"
         id="path288"
         inkscape:connector-curvature="0" /><text
         y="-55.666801"
         x="228"
         id="text292"
         transform="scale(1,-1)"><tspan
           id="tspan294"
           sodipodi:role="line"
           y="-55.666801"
           x="228 234.67 240.23 243.00999 245.79001 251.35001 254.67999 257.45999 263.29999 266.08002 271.64001 277.20001 279.98001 283.31 289.98001 298.31 303.87 306.09 308.31 311.09 313.87 316.09 321.64999 328.87"
           style="font-size:10px;font-variant:normal;font-weight:normal;writing-mode:lr-tb;fill:#000000;fill-opacity:1;fill-rule:nonzero;stroke:none;font-family:Helvetica;-inkscape-font-specification:Helvetica">Buffer = 18 (Small flow)</tspan></text>
<path
         d="m 194.917,59.1668 30,0"
         style="fill:none;stroke:#000000;stroke-width:0.80000001;stroke-linecap:butt;stroke-linejoin:round;stroke-miterlimit:10;stroke-opacity:1;stroke-dasharray:none"
         id="path304"
         inkscape:connector-curvature="0" /><text
         y="-43.083199"
         x="228"
         id="text316"
         transform="scale(1,-1)"><tspan
           id="tspan318"
           sodipodi:role="line"
           y="-43.083199"
           x="228 234.67 240.23 243.00999 245.79001 251.35001 254.67999 257.45999 263.29999 266.08002 271.64001 277.20001 282.76001 285.54001 288.87 295.54001 303.87 309.42999 311.64999 313.87 316.64999 319.42999 321.64999 327.20999 334.42999"
           style="font-size:10px;font-variant:normal;font-weight:normal;writing-mode:lr-tb;fill:#000000;fill-opacity:1;fill-rule:nonzero;stroke:none;font-family:Helvetica;-inkscape-font-specification:Helvetica">Buffer = 500 (Small flow)</tspan></text>
<path
         d="m 194.917,46.6668 30,0"
         style="fill:none;stroke:#0000ff;stroke-width:0.80000001;stroke-linecap:butt;stroke-linejoin:round;stroke-miterlimit:10;stroke-opacity:1;stroke-dasharray:1.6, 0.8;stroke-dashoffset:0"
         id="path328"
         inkscape:connector-curvature="0" /></g></g></svg>