%!PS-Adobe-3.0 EPSF-3.0
%%Creator: MATLAB, The MathWorks, Inc. Version 8.1.0.604 (R2013a). Operating System: Linux 3.19.0-59-generic #65~14.04.1-Ubuntu SMP Tue Apr 19 18:57:09 UTC 2016 x86_64.
%%Title: /home/rajeevpnj/el7353finalproject/Persistent/persistentMatlab/miceThr.eps
%%CreationDate: 05/05/2016  21:06:01
%%DocumentNeededFonts: Helvetica
%%DocumentProcessColors: Cyan Magenta Yellow Black
%%LanguageLevel: 2
%%Pages: 1
%%BoundingBox:   109   318   501   473
%%EndComments

%%BeginProlog
% MathWorks dictionary
/MathWorks 160 dict begin
% definition operators
/bdef {bind def} bind def
/ldef {load def} bind def
/xdef {exch def} bdef
/xstore {exch store} bdef
% operator abbreviations
/c  /clip ldef
/cc /concat ldef
/cp /closepath ldef
/gr /grestore ldef
/gs /gsave ldef
/mt /moveto ldef
/np /newpath ldef
/cm /currentmatrix ldef
/sm /setmatrix ldef
/rm /rmoveto ldef
/rl /rlineto ldef
/s {show newpath} bdef
/sc {setcmykcolor} bdef
/sr /setrgbcolor ldef
/sg /setgray ldef
/w /setlinewidth ldef
/j /setlinejoin ldef
/cap /setlinecap ldef
/rc {rectclip} bdef
/rf {rectfill} bdef
% page state control
/pgsv () def
/bpage {/pgsv save def} bdef
/epage {pgsv restore} bdef
/bplot /gsave ldef
/eplot {stroke grestore} bdef
% orientation switch
/portraitMode 0 def /landscapeMode 1 def /rotateMode 2 def
% coordinate system mappings
/dpi2point 0 def
% font control
/FontSize 0 def
/FMS {/FontSize xstore findfont [FontSize 0 0 FontSize neg 0 0]
  makefont setfont} bdef
/reencode {exch dup where {pop load} {pop StandardEncoding} ifelse
  exch dup 3 1 roll findfont dup length dict begin
  { 1 index /FID ne {def}{pop pop} ifelse } forall
  /Encoding exch def currentdict end definefont pop} bdef
/isroman {findfont /CharStrings get /Agrave known} bdef
/FMSR {3 1 roll 1 index dup isroman {reencode} {pop pop} ifelse
  exch FMS} bdef
/csm {1 dpi2point div -1 dpi2point div scale neg translate
 dup landscapeMode eq {pop -90 rotate}
  {rotateMode eq {90 rotate} if} ifelse} bdef
% line types: solid, dotted, dashed, dotdash
/SO { [] 0 setdash } bdef
/DO { [.5 dpi2point mul 4 dpi2point mul] 0 setdash } bdef
/DA { [6 dpi2point mul] 0 setdash } bdef
/DD { [.5 dpi2point mul 4 dpi2point mul 6 dpi2point mul 4
  dpi2point mul] 0 setdash } bdef
% macros for lines and objects
/L {lineto stroke} bdef
/MP {3 1 roll moveto 1 sub {rlineto} repeat} bdef
/AP {{rlineto} repeat} bdef
/PDlw -1 def
/W {/PDlw currentlinewidth def setlinewidth} def
/PP {closepath eofill} bdef
/DP {closepath stroke} bdef
/MR {4 -2 roll moveto dup  0 exch rlineto exch 0 rlineto
  neg 0 exch rlineto closepath} bdef
/FR {MR stroke} bdef
/PR {MR fill} bdef
/L1i {{currentfile picstr readhexstring pop} image} bdef
/tMatrix matrix def
/MakeOval {newpath tMatrix currentmatrix pop translate scale
0 0 1 0 360 arc tMatrix setmatrix} bdef
/FO {MakeOval stroke} bdef
/PO {MakeOval fill} bdef
/PD {currentlinewidth 2 div 0 360 arc fill
   PDlw -1 eq not {PDlw w /PDlw -1 def} if} def
/FA {newpath tMatrix currentmatrix pop translate scale
  0 0 1 5 -2 roll arc tMatrix setmatrix stroke} bdef
/PA {newpath tMatrix currentmatrix pop	translate 0 0 moveto scale
  0 0 1 5 -2 roll arc closepath tMatrix setmatrix fill} bdef
/FAn {newpath tMatrix currentmatrix pop translate scale
  0 0 1 5 -2 roll arcn tMatrix setmatrix stroke} bdef
/PAn {newpath tMatrix currentmatrix pop translate 0 0 moveto scale
  0 0 1 5 -2 roll arcn closepath tMatrix setmatrix fill} bdef
/vradius 0 def /hradius 0 def /lry 0 def
/lrx 0 def /uly 0 def /ulx 0 def /rad 0 def
/MRR {/vradius xdef /hradius xdef /lry xdef /lrx xdef /uly xdef
  /ulx xdef newpath tMatrix currentmatrix pop ulx hradius add uly
  vradius add translate hradius vradius scale 0 0 1 180 270 arc 
  tMatrix setmatrix lrx hradius sub uly vradius add translate
  hradius vradius scale 0 0 1 270 360 arc tMatrix setmatrix
  lrx hradius sub lry vradius sub translate hradius vradius scale
  0 0 1 0 90 arc tMatrix setmatrix ulx hradius add lry vradius sub
  translate hradius vradius scale 0 0 1 90 180 arc tMatrix setmatrix
  closepath} bdef
/FRR {MRR stroke } bdef
/PRR {MRR fill } bdef
/MlrRR {/lry xdef /lrx xdef /uly xdef /ulx xdef /rad lry uly sub 2 div def
  newpath tMatrix currentmatrix pop ulx rad add uly rad add translate
  rad rad scale 0 0 1 90 270 arc tMatrix setmatrix lrx rad sub lry rad
  sub translate rad rad scale 0 0 1 270 90 arc tMatrix setmatrix
  closepath} bdef
/FlrRR {MlrRR stroke } bdef
/PlrRR {MlrRR fill } bdef
/MtbRR {/lry xdef /lrx xdef /uly xdef /ulx xdef /rad lrx ulx sub 2 div def
  newpath tMatrix currentmatrix pop ulx rad add uly rad add translate
  rad rad scale 0 0 1 180 360 arc tMatrix setmatrix lrx rad sub lry rad
  sub translate rad rad scale 0 0 1 0 180 arc tMatrix setmatrix
  closepath} bdef
/FtbRR {MtbRR stroke } bdef
/PtbRR {MtbRR fill } bdef
/stri 6 array def /dtri 6 array def
/smat 6 array def /dmat 6 array def
/tmat1 6 array def /tmat2 6 array def /dif 3 array def
/asub {/ind2 exch def /ind1 exch def dup dup
  ind1 get exch ind2 get sub exch } bdef
/tri_to_matrix {
  2 0 asub 3 1 asub 4 0 asub 5 1 asub
  dup 0 get exch 1 get 7 -1 roll astore } bdef
/compute_transform {
  dmat dtri tri_to_matrix tmat1 invertmatrix 
  smat stri tri_to_matrix tmat2 concatmatrix } bdef
/ds {stri astore pop} bdef
/dt {dtri astore pop} bdef
/db {2 copy /cols xdef /rows xdef mul dup 3 mul string
  currentfile 
  3 index 0 eq {/ASCIIHexDecode filter}
  {/ASCII85Decode filter 3 index 2 eq {/RunLengthDecode filter} if }
  ifelse exch readstring pop
  dup 0 3 index getinterval /rbmap xdef
  dup 2 index dup getinterval /gbmap xdef
  1 index dup 2 mul exch getinterval /bbmap xdef pop pop}bdef
/it {gs np dtri aload pop moveto lineto lineto cp c
  cols rows 8 compute_transform 
  rbmap gbmap bbmap true 3 colorimage gr}bdef
/il {newpath moveto lineto stroke}bdef
currentdict end def
%%EndProlog

%%BeginSetup
MathWorks begin

0 cap

end
%%EndSetup

%%Page: 1 1
%%BeginPageSetup
%%PageBoundingBox:   109   318   501   473
MathWorks begin
bpage
%%EndPageSetup

%%BeginObject: obj1
bplot

/dpi2point 12 def
portraitMode 1308 5676 csm

    0     0  4713  1853 rc
85 dict begin %Colortable dictionary
/c0 { 0.000000 0.000000 0.000000 sr} bdef
/c1 { 1.000000 1.000000 1.000000 sr} bdef
/c2 { 0.900000 0.000000 0.000000 sr} bdef
/c3 { 0.000000 0.820000 0.000000 sr} bdef
/c4 { 0.000000 0.000000 0.800000 sr} bdef
/c5 { 0.910000 0.820000 0.320000 sr} bdef
/c6 { 1.000000 0.260000 0.820000 sr} bdef
/c7 { 0.000000 0.820000 0.820000 sr} bdef
c0
1 j
1 sg
   0    0 4714 1854 rf
6 w
0 1293 3652 0 0 -1293 613 1499 4 MP
PP
-3652 0 0 1293 3652 0 0 -1293 613 1499 5 MP stroke
4 w
DO
0 sg
3438 1499 mt 3438  206 L
3438  206 mt 3438  206 L
 613 1499 mt 4265 1499 L
4265 1499 mt 4265 1499 L
 613 1240 mt 4265 1240 L
4265 1240 mt 4265 1240 L
 613  981 mt 4265  981 L
4265  981 mt 4265  981 L
 613  723 mt 4265  723 L
4265  723 mt 4265  723 L
 613  464 mt 4265  464 L
4265  464 mt 4265  464 L
 613  206 mt 4265  206 L
4265  206 mt 4265  206 L
SO
6 w
 613 1499 mt 4265 1499 L
 613  206 mt 4265  206 L
 613 1499 mt  613  206 L
4265 1499 mt 4265  206 L
 613 1499 mt 4265 1499 L
 613 1499 mt  613  206 L
3438 1499 mt 3438 1480 L
3438  206 mt 3438  224 L
DO
3438 1499 mt 3438  206 L
3438  206 mt 3438  206 L
SO
3223 1499 mt 3223 1480 L
3223  206 mt 3223  224 L
DO
3223 1499 mt 3223  206 L
3223  206 mt 3223  206 L
SO
2983 1499 mt 2983 1480 L
2983  206 mt 2983  224 L
DO
2983 1499 mt 2983  206 L
2983  206 mt 2983  206 L
SO
2711 1499 mt 2711 1480 L
2711  206 mt 2711  224 L
DO
2711 1499 mt 2711  206 L
2711  206 mt 2711  206 L
SO
2397 1499 mt 2397 1480 L
2397  206 mt 2397  224 L
DO
2397 1499 mt 2397  206 L
2397  206 mt 2397  206 L
SO
2025 1499 mt 2025 1480 L
2025  206 mt 2025  224 L
DO
2025 1499 mt 2025  206 L
2025  206 mt 2025  206 L
SO
1570 1499 mt 1570 1480 L
1570  206 mt 1570  224 L
DO
1570 1499 mt 1570  206 L
1570  206 mt 1570  206 L
SO
 984 1499 mt  984 1480 L
 984  206 mt  984  224 L
DO
 984 1499 mt  984  206 L
 984  206 mt  984  206 L
SO
3438 1499 mt 3438 1462 L
3438  206 mt 3438  242 L
%%IncludeResource: font Helvetica
/Helvetica /ISOLatin1Encoding 120 FMSR

3350 1681 mt 
(10) s
%%IncludeResource: font Helvetica
/Helvetica /ISOLatin1Encoding 80 FMSR

3483 1607 mt 
(5) s
 613 1499 mt  649 1499 L
4265 1499 mt 4228 1499 L
%%IncludeResource: font Helvetica
/Helvetica /ISOLatin1Encoding 120 FMSR

 512 1543 mt 
(0) s
 613 1240 mt  649 1240 L
4265 1240 mt 4228 1240 L
 412 1284 mt 
(0.2) s
 613  981 mt  649  981 L
4265  981 mt 4228  981 L
 412 1025 mt 
(0.4) s
 613  723 mt  649  723 L
4265  723 mt 4228  723 L
 412  767 mt 
(0.6) s
 613  464 mt  649  464 L
4265  464 mt 4228  464 L
 412  508 mt 
(0.8) s
 613  206 mt  649  206 L
4265  206 mt 4228  206 L
 512  250 mt 
(1) s
 613 1499 mt 4265 1499 L
 613  206 mt 4265  206 L
 613 1499 mt  613  206 L
4265 1499 mt 4265  206 L
gs 613 206 3653 1294 rc
0 -6 137 0 0 -7 16 0 0 -7 97 0 0 -7 23 0 
0 -7 28 0 0 -7 46 0 0 -14 18 0 0 -7 6 0 
0 -7 41 0 0 -14 6 0 0 -7 6 0 0 -7 37 0 
0 -7 6 0 0 -14 25 0 0 -7 12 0 0 -14 26 0 
0 -13 6 0 0 -7 13 0 0 -7 6 0 0 -7 7 0 
0 -14 13 0 0 -7 13 0 0 -14 6 0 0 -7 7 0 
0 -14 7 0 0 -7 6 0 0 -7 27 0 0 -7 20 0 
0 -7 7 0 0 -7 7 0 0 -7 14 0 0 -7 7 0 
0 -7 6 0 0 -20 21 0 0 -14 21 0 0 -7 8 0 
0 -7 7 0 0 -7 7 0 0 -14 7 0 0 -7 22 0 
0 -7 7 0 0 -14 7 0 0 -21 8 0 0 -14 7 0 
0 -14 7 0 0 -13 15 0 0 -21 8 0 0 -21 7 0 
0 -7 7 0 0 -7 8 0 0 -7 8 0 0 -7 7 0 
0 -7 8 0 0 -7 7 0 0 -7 8 0 0 -21 16 0 
0 -7 7 0 0 -13 8 0 0 -14 16 0 0 -21 16 0 
0 -28 8 0 0 -14 8 0 0 -7 8 0 0 -14 24 0 
0 -7 8 0 0 -14 8 0 0 -7 8 0 0 -7 9 0 
0 -34 8 0 0 -7 8 0 0 -21 8 0 0 -14 9 0 
0 -14 17 0 0 -7 8 0 0 -7 17 0 0 -7 9 0 
0 -14 8 0 0 -21 9 0 0 -7 17 0 0 -20 9 0 
0 -7 9 0 0 -7 9 0 0 -7 9 0 0 -28 9 0 
0 -14 18 0 0 -7 18 0 0 -14 9 0 0 -28 9 0 
0 -7 9 0 0 -6 9 0 0 -7 10 0 0 -35 9 0 
0 -7 9 0 0 -7 38 0 0 -7 10 0 0 -7 19 0 
0 -21 10 0 0 -21 20 0 0 -14 19 0 0 -20 10 0 
0 -14 10 0 0 -7 21 0 0 -7 10 0 0 -14 20 0 
0 -14 11 0 0 -7 20 0 0 -7 64 0 0 -7 33 0 
0 -7 33 0 0 -14 11 0 0 -7 11 0 0 -7 92 0 
0 -7 160 0 0 -7 38 0 0 -7 39 0 0 -7 1493 1499 232 MP stroke
gr

1849 1824 mt 
(Flow throughput \(Bps\)) s
 330  976 mt  -90 rotate
(CDF) s
90 rotate
2050  111 mt 
(Empirical CDF) s
gs 613 206 3653 1294 rc
DA
/c8 { 0.000000 0.000000 1.000000 sr} bdef
c8
0 -9 17 0 0 -9 35 0 0 -9 54 0 0 -19 37 0 
0 -9 56 0 0 -9 26 0 0 -9 19 0 0 -10 20 0 
0 -9 6 0 0 -18 20 0 0 -19 7 0 0 -28 34 0 
0 -9 13 0 0 -9 7 0 0 -9 7 0 0 -9 14 0 
0 -10 6 0 0 -18 7 0 0 -9 7 0 0 -10 7 0 
0 -9 14 0 0 -18 7 0 0 -10 8 0 0 -27 7 0 
0 -10 7 0 0 -9 7 0 0 -9 7 0 0 -9 7 0 
0 -37 22 0 0 -9 15 0 0 -19 7 0 0 -28 8 0 
0 -9 7 0 0 -9 8 0 0 -9 7 0 0 -19 7 0 
0 -18 8 0 0 -19 8 0 0 -9 22 0 0 -9 8 0 
0 -28 16 0 0 -9 7 0 0 -37 8 0 0 -19 8 0 
0 -9 16 0 0 -9 8 0 0 -18 16 0 0 -19 8 0 
0 -9 8 0 0 -9 8 0 0 -10 8 0 0 -9 16 0 
0 -9 17 0 0 -28 16 0 0 -9 17 0 0 -9 8 0 
0 -10 9 0 0 -9 8 0 0 -9 9 0 0 -18 8 0 
0 -28 9 0 0 -19 8 0 0 -9 9 0 0 -9 9 0 
0 -9 8 0 0 -10 9 0 0 -9 18 0 0 -37 36 0 
0 -18 36 0 0 -9 9 0 0 -37 9 0 0 -19 10 0 
0 -18 28 0 0 -10 19 0 0 -9 9 0 0 -9 39 0 
0 -9 10 0 0 -19 29 0 0 -37 10 0 0 -18 10 0 
0 -9 10 0 0 -10 31 0 0 -9 62 0 0 -18 22 0 
0 -19 10 0 0 -18 33 0 0 -10 22 0 0 -18 33 0 
0 -9 68 0 0 -10 1765 1499 180 MP stroke
gr

c8
DA
0 sg
 596 1542 mt 
( ) s
4249  248 mt 
( ) s
SO
1 sg
0 342 1963 0 0 -342 2268 1396 4 MP
PP
-1963 0 0 342 1963 0 0 -342 2268 1396 5 MP stroke
4 w
DO
SO
6 w
0 sg
2268 1396 mt 4231 1396 L
2268 1054 mt 4231 1054 L
2268 1396 mt 2268 1054 L
4231 1396 mt 4231 1054 L
2268 1396 mt 4231 1396 L
2268 1396 mt 2268 1054 L
2268 1396 mt 4231 1396 L
2268 1054 mt 4231 1054 L
2268 1396 mt 2268 1054 L
4231 1396 mt 4231 1054 L
2736 1192 mt 
(Buffer = 18 \(Small flow\)) s
gs 2268 1054 1964 343 rc
360 0 2339 1150 2 MP stroke
gr

2736 1343 mt 
(Buffer = 500 \(Small flow\)) s
gs 2268 1054 1964 343 rc
DA
c8
360 0 2339 1300 2 MP stroke
SO
gr

c8

end %%Color Dict

eplot
%%EndObject

epage
end

showpage

%%Trailer
%%EOF
