<?xml version="1.0" encoding="UTF-8" standalone="no"?>
<!-- Created with Inkscape (http://www.inkscape.org/) -->

<svg
   xmlns:dc="http://purl.org/dc/elements/1.1/"
   xmlns:cc="http://creativecommons.org/ns#"
   xmlns:rdf="http://www.w3.org/1999/02/22-rdf-syntax-ns#"
   xmlns:svg="http://www.w3.org/2000/svg"
   xmlns="http://www.w3.org/2000/svg"
   xmlns:sodipodi="http://sodipodi.sourceforge.net/DTD/sodipodi-0.dtd"
   xmlns:inkscape="http://www.inkscape.org/namespaces/inkscape"
   id="svg2"
   version="1.1"
   inkscape:version="0.48.4 r9939"
   width="438.22025"
   height="208.38724"
   xml:space="preserve"
   sodipodi:docname="largeLoss.svg"><metadata
     id="metadata8"><rdf:RDF><cc:Work
         rdf:about=""><dc:format>image/svg+xml</dc:format><dc:type
           rdf:resource="http://purl.org/dc/dcmitype/StillImage" /><dc:title /></cc:Work></rdf:RDF></metadata><defs
     id="defs6"><clipPath
       clipPathUnits="userSpaceOnUse"
       id="clipPath18"><path
         d="m 0,1 4050,0 0,1769 L 0,1770 0,1 z"
         id="path20"
         inkscape:connector-curvature="0" /></clipPath><clipPath
       clipPathUnits="userSpaceOnUse"
       id="clipPath248"><path
         d="m 527.5,265 3144.17,0 0,1372.5 -3144.17,0 0,-1372.5 z"
         id="path250"
         inkscape:connector-curvature="0" /></clipPath><clipPath
       clipPathUnits="userSpaceOnUse"
       id="clipPath266"><path
         d="m 0,1 4050,0 0,1769 L 0,1770 0,1 z"
         id="path268"
         inkscape:connector-curvature="0" /></clipPath><clipPath
       clipPathUnits="userSpaceOnUse"
       id="clipPath284"><path
         d="m 527.5,265 3144.17,0 0,1372.5 -3144.17,0 0,-1372.5 z"
         id="path286"
         inkscape:connector-curvature="0" /></clipPath><clipPath
       clipPathUnits="userSpaceOnUse"
       id="clipPath298"><path
         d="m 0,1 4050,0 0,1769 L 0,1770 0,1 z"
         id="path300"
         inkscape:connector-curvature="0" /></clipPath><clipPath
       clipPathUnits="userSpaceOnUse"
       id="clipPath338"><path
         d="m 1945.83,363.332 1636.67,0 0,285.836 -1636.67,0 0,-285.836 z"
         id="path340"
         inkscape:connector-curvature="0" /></clipPath><clipPath
       clipPathUnits="userSpaceOnUse"
       id="clipPath348"><path
         d="m 0,1 4050,0 0,1769 L 0,1770 0,1 z"
         id="path350"
         inkscape:connector-curvature="0" /></clipPath><clipPath
       clipPathUnits="userSpaceOnUse"
       id="clipPath362"><path
         d="m 1945.83,363.332 1636.67,0 0,285.836 -1636.67,0 0,-285.836 z"
         id="path364"
         inkscape:connector-curvature="0" /></clipPath></defs><sodipodi:namedview
     pagecolor="#ffffff"
     bordercolor="#666666"
     borderopacity="1"
     objecttolerance="10"
     gridtolerance="10"
     guidetolerance="10"
     inkscape:pageopacity="0"
     inkscape:pageshadow="2"
     inkscape:window-width="1301"
     inkscape:window-height="744"
     id="namedview4"
     showgrid="false"
     fit-margin-top="0"
     fit-margin-left="0"
     fit-margin-right="0"
     fit-margin-bottom="0"
     inkscape:zoom="2.016913"
     inkscape:cx="203.84191"
     inkscape:cy="98.062012"
     inkscape:window-x="65"
     inkscape:window-y="24"
     inkscape:window-maximized="1"
     inkscape:current-layer="g10" /><g
     id="g10"
     inkscape:groupmode="layer"
     inkscape:label="ink_ext_XXXXXX"
     transform="matrix(1.25,0,0,-1.25,-27.120999,208.96624)"><path
       inkscape:connector-curvature="0"
       id="path24"
       style="fill:#ffffff;fill-opacity:1;fill-rule:evenodd;stroke:none"
       d="m 52.75,26.5832 314.333,0 0,137.167 -314.333,0 0,-137.167 z" /><path
       inkscape:connector-curvature="0"
       id="path26"
       style="fill:none;stroke:#ffffff;stroke-width:0.5;stroke-linecap:butt;stroke-linejoin:round;stroke-miterlimit:10;stroke-opacity:1;stroke-dasharray:none"
       d="m 52.75,26.5832 0,137.1668 314.333,0 0,-137.1668 -314.333,0" /><path
       inkscape:connector-curvature="0"
       id="path28"
       style="fill:none;stroke:#000000;stroke-width:0.33333299;stroke-linecap:butt;stroke-linejoin:round;stroke-miterlimit:10;stroke-opacity:1;stroke-dasharray:0.5, 4;stroke-dashoffset:0"
       d="m 52.75,26.5832 0,137.1668" /><path
       inkscape:connector-curvature="0"
       id="path30"
       style="fill:none;stroke:#000000;stroke-width:0.33333299;stroke-linecap:butt;stroke-linejoin:round;stroke-miterlimit:10;stroke-opacity:1;stroke-dasharray:0.5, 4;stroke-dashoffset:0"
       d="m 52.75,163.75 0,0" /><path
       inkscape:connector-curvature="0"
       id="path32"
       style="fill:none;stroke:#000000;stroke-width:0.33333299;stroke-linecap:butt;stroke-linejoin:round;stroke-miterlimit:10;stroke-opacity:1;stroke-dasharray:0.5, 4;stroke-dashoffset:0"
       d="m 97.5832,26.5832 0,137.1668" /><path
       inkscape:connector-curvature="0"
       id="path34"
       style="fill:none;stroke:#000000;stroke-width:0.33333299;stroke-linecap:butt;stroke-linejoin:round;stroke-miterlimit:10;stroke-opacity:1;stroke-dasharray:0.5, 4;stroke-dashoffset:0"
       d="m 97.5832,163.75 0,0" /><path
       inkscape:connector-curvature="0"
       id="path36"
       style="fill:none;stroke:#000000;stroke-width:0.33333299;stroke-linecap:butt;stroke-linejoin:round;stroke-miterlimit:10;stroke-opacity:1;stroke-dasharray:0.5, 4;stroke-dashoffset:0"
       d="m 142.5,26.5832 0,137.1668" /><path
       inkscape:connector-curvature="0"
       id="path38"
       style="fill:none;stroke:#000000;stroke-width:0.33333299;stroke-linecap:butt;stroke-linejoin:round;stroke-miterlimit:10;stroke-opacity:1;stroke-dasharray:0.5, 4;stroke-dashoffset:0"
       d="m 142.5,163.75 0,0" /><path
       inkscape:connector-curvature="0"
       id="path40"
       style="fill:none;stroke:#000000;stroke-width:0.33333299;stroke-linecap:butt;stroke-linejoin:round;stroke-miterlimit:10;stroke-opacity:1;stroke-dasharray:0.5, 4;stroke-dashoffset:0"
       d="m 187.417,26.5832 0,137.1668" /><path
       inkscape:connector-curvature="0"
       id="path42"
       style="fill:none;stroke:#000000;stroke-width:0.33333299;stroke-linecap:butt;stroke-linejoin:round;stroke-miterlimit:10;stroke-opacity:1;stroke-dasharray:0.5, 4;stroke-dashoffset:0"
       d="m 187.417,163.75 0,0" /><path
       inkscape:connector-curvature="0"
       id="path44"
       style="fill:none;stroke:#000000;stroke-width:0.33333299;stroke-linecap:butt;stroke-linejoin:round;stroke-miterlimit:10;stroke-opacity:1;stroke-dasharray:0.5, 4;stroke-dashoffset:0"
       d="m 232.333,26.5832 0,137.1668" /><path
       inkscape:connector-curvature="0"
       id="path46"
       style="fill:none;stroke:#000000;stroke-width:0.33333299;stroke-linecap:butt;stroke-linejoin:round;stroke-miterlimit:10;stroke-opacity:1;stroke-dasharray:0.5, 4;stroke-dashoffset:0"
       d="m 232.333,163.75 0,0" /><path
       inkscape:connector-curvature="0"
       id="path48"
       style="fill:none;stroke:#000000;stroke-width:0.33333299;stroke-linecap:butt;stroke-linejoin:round;stroke-miterlimit:10;stroke-opacity:1;stroke-dasharray:0.5, 4;stroke-dashoffset:0"
       d="m 277.25,26.5832 0,137.1668" /><path
       inkscape:connector-curvature="0"
       id="path50"
       style="fill:none;stroke:#000000;stroke-width:0.33333299;stroke-linecap:butt;stroke-linejoin:round;stroke-miterlimit:10;stroke-opacity:1;stroke-dasharray:0.5, 4;stroke-dashoffset:0"
       d="m 277.25,163.75 0,0" /><path
       inkscape:connector-curvature="0"
       id="path52"
       style="fill:none;stroke:#000000;stroke-width:0.33333299;stroke-linecap:butt;stroke-linejoin:round;stroke-miterlimit:10;stroke-opacity:1;stroke-dasharray:0.5, 4;stroke-dashoffset:0"
       d="m 322.167,26.5832 0,137.1668" /><path
       inkscape:connector-curvature="0"
       id="path54"
       style="fill:none;stroke:#000000;stroke-width:0.33333299;stroke-linecap:butt;stroke-linejoin:round;stroke-miterlimit:10;stroke-opacity:1;stroke-dasharray:0.5, 4;stroke-dashoffset:0"
       d="m 322.167,163.75 0,0" /><path
       inkscape:connector-curvature="0"
       id="path56"
       style="fill:none;stroke:#000000;stroke-width:0.33333299;stroke-linecap:butt;stroke-linejoin:round;stroke-miterlimit:10;stroke-opacity:1;stroke-dasharray:0.5, 4;stroke-dashoffset:0"
       d="m 367.083,26.5832 0,137.1668" /><path
       inkscape:connector-curvature="0"
       id="path58"
       style="fill:none;stroke:#000000;stroke-width:0.33333299;stroke-linecap:butt;stroke-linejoin:round;stroke-miterlimit:10;stroke-opacity:1;stroke-dasharray:0.5, 4;stroke-dashoffset:0"
       d="m 367.083,163.75 0,0" /><path
       inkscape:connector-curvature="0"
       id="path60"
       style="fill:none;stroke:#000000;stroke-width:0.33333299;stroke-linecap:butt;stroke-linejoin:round;stroke-miterlimit:10;stroke-opacity:1;stroke-dasharray:0.5, 4;stroke-dashoffset:0"
       d="m 52.75,26.5832 314.333,0" /><path
       inkscape:connector-curvature="0"
       id="path62"
       style="fill:none;stroke:#000000;stroke-width:0.33333299;stroke-linecap:butt;stroke-linejoin:round;stroke-miterlimit:10;stroke-opacity:1;stroke-dasharray:0.5, 4;stroke-dashoffset:0"
       d="m 367.083,26.5832 0,0" /><path
       inkscape:connector-curvature="0"
       id="path64"
       style="fill:none;stroke:#000000;stroke-width:0.33333299;stroke-linecap:butt;stroke-linejoin:round;stroke-miterlimit:10;stroke-opacity:1;stroke-dasharray:0.5, 4;stroke-dashoffset:0"
       d="m 52.75,54.0832 314.333,0" /><path
       inkscape:connector-curvature="0"
       id="path66"
       style="fill:none;stroke:#000000;stroke-width:0.33333299;stroke-linecap:butt;stroke-linejoin:round;stroke-miterlimit:10;stroke-opacity:1;stroke-dasharray:0.5, 4;stroke-dashoffset:0"
       d="m 367.083,54.0832 0,0" /><path
       inkscape:connector-curvature="0"
       id="path68"
       style="fill:none;stroke:#000000;stroke-width:0.33333299;stroke-linecap:butt;stroke-linejoin:round;stroke-miterlimit:10;stroke-opacity:1;stroke-dasharray:0.5, 4;stroke-dashoffset:0"
       d="m 52.75,81.5 314.333,0" /><path
       inkscape:connector-curvature="0"
       id="path70"
       style="fill:none;stroke:#000000;stroke-width:0.33333299;stroke-linecap:butt;stroke-linejoin:round;stroke-miterlimit:10;stroke-opacity:1;stroke-dasharray:0.5, 4;stroke-dashoffset:0"
       d="m 367.083,81.5 0,0" /><path
       inkscape:connector-curvature="0"
       id="path72"
       style="fill:none;stroke:#000000;stroke-width:0.33333299;stroke-linecap:butt;stroke-linejoin:round;stroke-miterlimit:10;stroke-opacity:1;stroke-dasharray:0.5, 4;stroke-dashoffset:0"
       d="m 52.75,108.917 314.333,0" /><path
       inkscape:connector-curvature="0"
       id="path74"
       style="fill:none;stroke:#000000;stroke-width:0.33333299;stroke-linecap:butt;stroke-linejoin:round;stroke-miterlimit:10;stroke-opacity:1;stroke-dasharray:0.5, 4;stroke-dashoffset:0"
       d="m 367.083,108.917 0,0" /><path
       inkscape:connector-curvature="0"
       id="path76"
       style="fill:none;stroke:#000000;stroke-width:0.33333299;stroke-linecap:butt;stroke-linejoin:round;stroke-miterlimit:10;stroke-opacity:1;stroke-dasharray:0.5, 4;stroke-dashoffset:0"
       d="m 52.75,136.333 314.333,0" /><path
       inkscape:connector-curvature="0"
       id="path78"
       style="fill:none;stroke:#000000;stroke-width:0.33333299;stroke-linecap:butt;stroke-linejoin:round;stroke-miterlimit:10;stroke-opacity:1;stroke-dasharray:0.5, 4;stroke-dashoffset:0"
       d="m 367.083,136.333 0,0" /><path
       inkscape:connector-curvature="0"
       id="path80"
       style="fill:none;stroke:#000000;stroke-width:0.33333299;stroke-linecap:butt;stroke-linejoin:round;stroke-miterlimit:10;stroke-opacity:1;stroke-dasharray:0.5, 4;stroke-dashoffset:0"
       d="m 52.75,163.75 314.333,0" /><path
       inkscape:connector-curvature="0"
       id="path82"
       style="fill:none;stroke:#000000;stroke-width:0.33333299;stroke-linecap:butt;stroke-linejoin:round;stroke-miterlimit:10;stroke-opacity:1;stroke-dasharray:0.5, 4;stroke-dashoffset:0"
       d="m 367.083,163.75 0,0" /><path
       inkscape:connector-curvature="0"
       id="path84"
       style="fill:none;stroke:#000000;stroke-width:0.5;stroke-linecap:butt;stroke-linejoin:round;stroke-miterlimit:10;stroke-opacity:1;stroke-dasharray:none"
       d="m 52.75,26.5832 314.333,0" /><path
       inkscape:connector-curvature="0"
       id="path86"
       style="fill:none;stroke:#000000;stroke-width:0.5;stroke-linecap:butt;stroke-linejoin:round;stroke-miterlimit:10;stroke-opacity:1;stroke-dasharray:none"
       d="m 52.75,163.75 314.333,0" /><path
       inkscape:connector-curvature="0"
       id="path88"
       style="fill:none;stroke:#000000;stroke-width:0.5;stroke-linecap:butt;stroke-linejoin:round;stroke-miterlimit:10;stroke-opacity:1;stroke-dasharray:none"
       d="m 52.75,26.5832 0,137.1668" /><path
       inkscape:connector-curvature="0"
       id="path90"
       style="fill:none;stroke:#000000;stroke-width:0.5;stroke-linecap:butt;stroke-linejoin:round;stroke-miterlimit:10;stroke-opacity:1;stroke-dasharray:none"
       d="m 367.083,26.5832 0,137.1668" /><path
       inkscape:connector-curvature="0"
       id="path92"
       style="fill:none;stroke:#000000;stroke-width:0.5;stroke-linecap:butt;stroke-linejoin:round;stroke-miterlimit:10;stroke-opacity:1;stroke-dasharray:none"
       d="m 52.75,26.5832 314.333,0" /><path
       inkscape:connector-curvature="0"
       id="path94"
       style="fill:none;stroke:#000000;stroke-width:0.5;stroke-linecap:butt;stroke-linejoin:round;stroke-miterlimit:10;stroke-opacity:1;stroke-dasharray:none"
       d="m 52.75,26.5832 0,137.1668" /><path
       inkscape:connector-curvature="0"
       id="path96"
       style="fill:none;stroke:#000000;stroke-width:0.5;stroke-linecap:butt;stroke-linejoin:round;stroke-miterlimit:10;stroke-opacity:1;stroke-dasharray:none"
       d="m 52.75,26.5832 0,3.1668" /><path
       inkscape:connector-curvature="0"
       id="path98"
       style="fill:none;stroke:#000000;stroke-width:0.5;stroke-linecap:butt;stroke-linejoin:round;stroke-miterlimit:10;stroke-opacity:1;stroke-dasharray:none"
       d="m 52.75,163.75 0,-3.083" /><text
       transform="scale(1,-1)"
       id="text102"
       x="50"
       y="-14.5"><tspan
         style="font-size:10px;font-variant:normal;font-weight:normal;writing-mode:lr-tb;fill:#000000;fill-opacity:1;fill-rule:nonzero;stroke:none;font-family:Helvetica;-inkscape-font-specification:Helvetica"
         x="50"
         y="-14.5"
         id="tspan104">0</tspan></text>
<path
       inkscape:connector-curvature="0"
       id="path106"
       style="fill:none;stroke:#000000;stroke-width:0.5;stroke-linecap:butt;stroke-linejoin:round;stroke-miterlimit:10;stroke-opacity:1;stroke-dasharray:none"
       d="m 97.5832,26.5832 0,3.1668" /><path
       inkscape:connector-curvature="0"
       id="path108"
       style="fill:none;stroke:#000000;stroke-width:0.5;stroke-linecap:butt;stroke-linejoin:round;stroke-miterlimit:10;stroke-opacity:1;stroke-dasharray:none"
       d="m 97.5832,163.75 0,-3.083" /><text
       transform="scale(1,-1)"
       id="text112"
       x="94.833199"
       y="-14.5"><tspan
         style="font-size:10px;font-variant:normal;font-weight:normal;writing-mode:lr-tb;fill:#000000;fill-opacity:1;fill-rule:nonzero;stroke:none;font-family:Helvetica;-inkscape-font-specification:Helvetica"
         x="94.833199"
         y="-14.5"
         id="tspan114">5</tspan></text>
<path
       inkscape:connector-curvature="0"
       id="path116"
       style="fill:none;stroke:#000000;stroke-width:0.5;stroke-linecap:butt;stroke-linejoin:round;stroke-miterlimit:10;stroke-opacity:1;stroke-dasharray:none"
       d="m 142.5,26.5832 0,3.1668" /><path
       inkscape:connector-curvature="0"
       id="path118"
       style="fill:none;stroke:#000000;stroke-width:0.5;stroke-linecap:butt;stroke-linejoin:round;stroke-miterlimit:10;stroke-opacity:1;stroke-dasharray:none"
       d="m 142.5,163.75 0,-3.083" /><text
       transform="scale(1,-1)"
       id="text122"
       x="137"
       y="-14.5"><tspan
         style="font-size:10px;font-variant:normal;font-weight:normal;writing-mode:lr-tb;fill:#000000;fill-opacity:1;fill-rule:nonzero;stroke:none;font-family:Helvetica;-inkscape-font-specification:Helvetica"
         x="137 142.56"
         y="-14.5"
         sodipodi:role="line"
         id="tspan124">10</tspan></text>
<path
       inkscape:connector-curvature="0"
       id="path126"
       style="fill:none;stroke:#000000;stroke-width:0.5;stroke-linecap:butt;stroke-linejoin:round;stroke-miterlimit:10;stroke-opacity:1;stroke-dasharray:none"
       d="m 187.417,26.5832 0,3.1668" /><path
       inkscape:connector-curvature="0"
       id="path128"
       style="fill:none;stroke:#000000;stroke-width:0.5;stroke-linecap:butt;stroke-linejoin:round;stroke-miterlimit:10;stroke-opacity:1;stroke-dasharray:none"
       d="m 187.417,163.75 0,-3.083" /><text
       transform="scale(1,-1)"
       id="text132"
       x="181.91701"
       y="-14.5"><tspan
         style="font-size:10px;font-variant:normal;font-weight:normal;writing-mode:lr-tb;fill:#000000;fill-opacity:1;fill-rule:nonzero;stroke:none;font-family:Helvetica;-inkscape-font-specification:Helvetica"
         x="181.91701 187.47701"
         y="-14.5"
         sodipodi:role="line"
         id="tspan134">15</tspan></text>
<path
       inkscape:connector-curvature="0"
       id="path136"
       style="fill:none;stroke:#000000;stroke-width:0.5;stroke-linecap:butt;stroke-linejoin:round;stroke-miterlimit:10;stroke-opacity:1;stroke-dasharray:none"
       d="m 232.333,26.5832 0,3.1668" /><path
       inkscape:connector-curvature="0"
       id="path138"
       style="fill:none;stroke:#000000;stroke-width:0.5;stroke-linecap:butt;stroke-linejoin:round;stroke-miterlimit:10;stroke-opacity:1;stroke-dasharray:none"
       d="m 232.333,163.75 0,-3.083" /><text
       transform="scale(1,-1)"
       id="text142"
       x="226.83299"
       y="-14.5"><tspan
         style="font-size:10px;font-variant:normal;font-weight:normal;writing-mode:lr-tb;fill:#000000;fill-opacity:1;fill-rule:nonzero;stroke:none;font-family:Helvetica;-inkscape-font-specification:Helvetica"
         x="226.83299 232.39301"
         y="-14.5"
         sodipodi:role="line"
         id="tspan144">20</tspan></text>
<path
       inkscape:connector-curvature="0"
       id="path146"
       style="fill:none;stroke:#000000;stroke-width:0.5;stroke-linecap:butt;stroke-linejoin:round;stroke-miterlimit:10;stroke-opacity:1;stroke-dasharray:none"
       d="m 277.25,26.5832 0,3.1668" /><path
       inkscape:connector-curvature="0"
       id="path148"
       style="fill:none;stroke:#000000;stroke-width:0.5;stroke-linecap:butt;stroke-linejoin:round;stroke-miterlimit:10;stroke-opacity:1;stroke-dasharray:none"
       d="m 277.25,163.75 0,-3.083" /><text
       transform="scale(1,-1)"
       id="text152"
       x="271.75"
       y="-14.5"><tspan
         style="font-size:10px;font-variant:normal;font-weight:normal;writing-mode:lr-tb;fill:#000000;fill-opacity:1;fill-rule:nonzero;stroke:none;font-family:Helvetica;-inkscape-font-specification:Helvetica"
         x="271.75 277.31"
         y="-14.5"
         sodipodi:role="line"
         id="tspan154">25</tspan></text>
<path
       inkscape:connector-curvature="0"
       id="path156"
       style="fill:none;stroke:#000000;stroke-width:0.5;stroke-linecap:butt;stroke-linejoin:round;stroke-miterlimit:10;stroke-opacity:1;stroke-dasharray:none"
       d="m 322.167,26.5832 0,3.1668" /><path
       inkscape:connector-curvature="0"
       id="path158"
       style="fill:none;stroke:#000000;stroke-width:0.5;stroke-linecap:butt;stroke-linejoin:round;stroke-miterlimit:10;stroke-opacity:1;stroke-dasharray:none"
       d="m 322.167,163.75 0,-3.083" /><text
       transform="scale(1,-1)"
       id="text162"
       x="316.66699"
       y="-14.5"><tspan
         style="font-size:10px;font-variant:normal;font-weight:normal;writing-mode:lr-tb;fill:#000000;fill-opacity:1;fill-rule:nonzero;stroke:none;font-family:Helvetica;-inkscape-font-specification:Helvetica"
         x="316.66699 322.22699"
         y="-14.5"
         sodipodi:role="line"
         id="tspan164">30</tspan></text>
<path
       inkscape:connector-curvature="0"
       id="path166"
       style="fill:none;stroke:#000000;stroke-width:0.5;stroke-linecap:butt;stroke-linejoin:round;stroke-miterlimit:10;stroke-opacity:1;stroke-dasharray:none"
       d="m 367.083,26.5832 0,3.1668" /><path
       inkscape:connector-curvature="0"
       id="path168"
       style="fill:none;stroke:#000000;stroke-width:0.5;stroke-linecap:butt;stroke-linejoin:round;stroke-miterlimit:10;stroke-opacity:1;stroke-dasharray:none"
       d="m 367.083,163.75 0,-3.083" /><text
       transform="scale(1,-1)"
       id="text172"
       x="361.58301"
       y="-14.5"><tspan
         style="font-size:10px;font-variant:normal;font-weight:normal;writing-mode:lr-tb;fill:#000000;fill-opacity:1;fill-rule:nonzero;stroke:none;font-family:Helvetica;-inkscape-font-specification:Helvetica"
         x="361.58301 367.14301"
         y="-14.5"
         sodipodi:role="line"
         id="tspan174">35</tspan></text>
<path
       inkscape:connector-curvature="0"
       id="path176"
       style="fill:none;stroke:#000000;stroke-width:0.5;stroke-linecap:butt;stroke-linejoin:round;stroke-miterlimit:10;stroke-opacity:1;stroke-dasharray:none"
       d="m 52.75,26.5832 3.0832,0" /><path
       inkscape:connector-curvature="0"
       id="path178"
       style="fill:none;stroke:#000000;stroke-width:0.5;stroke-linecap:butt;stroke-linejoin:round;stroke-miterlimit:10;stroke-opacity:1;stroke-dasharray:none"
       d="m 367.083,26.5832 -3.166,0" /><text
       transform="scale(1,-1)"
       id="text182"
       x="44.333199"
       y="-22.9168"><tspan
         style="font-size:10px;font-variant:normal;font-weight:normal;writing-mode:lr-tb;fill:#000000;fill-opacity:1;fill-rule:nonzero;stroke:none;font-family:Helvetica;-inkscape-font-specification:Helvetica"
         x="44.333199"
         y="-22.9168"
         id="tspan184">0</tspan></text>
<path
       inkscape:connector-curvature="0"
       id="path186"
       style="fill:none;stroke:#000000;stroke-width:0.5;stroke-linecap:butt;stroke-linejoin:round;stroke-miterlimit:10;stroke-opacity:1;stroke-dasharray:none"
       d="m 52.75,54.0832 3.0832,0" /><path
       inkscape:connector-curvature="0"
       id="path188"
       style="fill:none;stroke:#000000;stroke-width:0.5;stroke-linecap:butt;stroke-linejoin:round;stroke-miterlimit:10;stroke-opacity:1;stroke-dasharray:none"
       d="m 367.083,54.0832 -3.166,0" /><text
       transform="scale(1,-1)"
       id="text192"
       x="36"
       y="-50.416801"><tspan
         style="font-size:10px;font-variant:normal;font-weight:normal;writing-mode:lr-tb;fill:#000000;fill-opacity:1;fill-rule:nonzero;stroke:none;font-family:Helvetica;-inkscape-font-specification:Helvetica"
         x="36 41.560001 44.34"
         y="-50.416801"
         sodipodi:role="line"
         id="tspan194">0.2</tspan></text>
<path
       inkscape:connector-curvature="0"
       id="path196"
       style="fill:none;stroke:#000000;stroke-width:0.5;stroke-linecap:butt;stroke-linejoin:round;stroke-miterlimit:10;stroke-opacity:1;stroke-dasharray:none"
       d="m 52.75,81.5 3.0832,0" /><path
       inkscape:connector-curvature="0"
       id="path198"
       style="fill:none;stroke:#000000;stroke-width:0.5;stroke-linecap:butt;stroke-linejoin:round;stroke-miterlimit:10;stroke-opacity:1;stroke-dasharray:none"
       d="m 367.083,81.5 -3.166,0" /><text
       transform="scale(1,-1)"
       id="text202"
       x="36"
       y="-77.833199"><tspan
         style="font-size:10px;font-variant:normal;font-weight:normal;writing-mode:lr-tb;fill:#000000;fill-opacity:1;fill-rule:nonzero;stroke:none;font-family:Helvetica;-inkscape-font-specification:Helvetica"
         x="36 41.560001 44.34"
         y="-77.833199"
         sodipodi:role="line"
         id="tspan204">0.4</tspan></text>
<path
       inkscape:connector-curvature="0"
       id="path206"
       style="fill:none;stroke:#000000;stroke-width:0.5;stroke-linecap:butt;stroke-linejoin:round;stroke-miterlimit:10;stroke-opacity:1;stroke-dasharray:none"
       d="m 52.75,108.917 3.0832,0" /><path
       inkscape:connector-curvature="0"
       id="path208"
       style="fill:none;stroke:#000000;stroke-width:0.5;stroke-linecap:butt;stroke-linejoin:round;stroke-miterlimit:10;stroke-opacity:1;stroke-dasharray:none"
       d="m 367.083,108.917 -3.166,0" /><text
       transform="scale(1,-1)"
       id="text212"
       x="36"
       y="-105.25"><tspan
         style="font-size:10px;font-variant:normal;font-weight:normal;writing-mode:lr-tb;fill:#000000;fill-opacity:1;fill-rule:nonzero;stroke:none;font-family:Helvetica;-inkscape-font-specification:Helvetica"
         x="36 41.560001 44.34"
         y="-105.25"
         sodipodi:role="line"
         id="tspan214">0.6</tspan></text>
<path
       inkscape:connector-curvature="0"
       id="path216"
       style="fill:none;stroke:#000000;stroke-width:0.5;stroke-linecap:butt;stroke-linejoin:round;stroke-miterlimit:10;stroke-opacity:1;stroke-dasharray:none"
       d="m 52.75,136.333 3.0832,0" /><path
       inkscape:connector-curvature="0"
       id="path218"
       style="fill:none;stroke:#000000;stroke-width:0.5;stroke-linecap:butt;stroke-linejoin:round;stroke-miterlimit:10;stroke-opacity:1;stroke-dasharray:none"
       d="m 367.083,136.333 -3.166,0" /><text
       transform="scale(1,-1)"
       id="text222"
       x="36"
       y="-132.66701"><tspan
         style="font-size:10px;font-variant:normal;font-weight:normal;writing-mode:lr-tb;fill:#000000;fill-opacity:1;fill-rule:nonzero;stroke:none;font-family:Helvetica;-inkscape-font-specification:Helvetica"
         x="36 41.560001 44.34"
         y="-132.66701"
         sodipodi:role="line"
         id="tspan224">0.8</tspan></text>
<path
       inkscape:connector-curvature="0"
       id="path226"
       style="fill:none;stroke:#000000;stroke-width:0.5;stroke-linecap:butt;stroke-linejoin:round;stroke-miterlimit:10;stroke-opacity:1;stroke-dasharray:none"
       d="m 52.75,163.75 3.0832,0" /><path
       inkscape:connector-curvature="0"
       id="path228"
       style="fill:none;stroke:#000000;stroke-width:0.5;stroke-linecap:butt;stroke-linejoin:round;stroke-miterlimit:10;stroke-opacity:1;stroke-dasharray:none"
       d="m 367.083,163.75 -3.166,0" /><text
       transform="scale(1,-1)"
       id="text232"
       x="44.333199"
       y="-160.08299"><tspan
         style="font-size:10px;font-variant:normal;font-weight:normal;writing-mode:lr-tb;fill:#000000;fill-opacity:1;fill-rule:nonzero;stroke:none;font-family:Helvetica;-inkscape-font-specification:Helvetica"
         x="44.333199"
         y="-160.08299"
         id="tspan234">1</tspan></text>
<path
       inkscape:connector-curvature="0"
       id="path236"
       style="fill:none;stroke:#000000;stroke-width:0.5;stroke-linecap:butt;stroke-linejoin:round;stroke-miterlimit:10;stroke-opacity:1;stroke-dasharray:none"
       d="m 52.75,26.5832 314.333,0" /><path
       inkscape:connector-curvature="0"
       id="path238"
       style="fill:none;stroke:#000000;stroke-width:0.5;stroke-linecap:butt;stroke-linejoin:round;stroke-miterlimit:10;stroke-opacity:1;stroke-dasharray:none"
       d="m 52.75,163.75 314.333,0" /><path
       inkscape:connector-curvature="0"
       id="path240"
       style="fill:none;stroke:#000000;stroke-width:0.5;stroke-linecap:butt;stroke-linejoin:round;stroke-miterlimit:10;stroke-opacity:1;stroke-dasharray:none"
       d="m 52.75,26.5832 0,137.1668" /><path
       inkscape:connector-curvature="0"
       id="path242"
       style="fill:none;stroke:#000000;stroke-width:0.5;stroke-linecap:butt;stroke-linejoin:round;stroke-miterlimit:10;stroke-opacity:1;stroke-dasharray:none"
       d="m 367.083,26.5832 0,137.1668" /><path
       inkscape:connector-curvature="0"
       id="path252"
       style="fill:none;stroke:#000000;stroke-width:0.8;stroke-linecap:butt;stroke-linejoin:round;stroke-miterlimit:10;stroke-opacity:1;stroke-dasharray:none"
       d="m 227.333,141.083 0.167,0 0,0.084 0.333,0 0,0.416 0.25,0 0,0.25 0.084,0.084 0.083,0.083 0.25,0 0.083,0.083 0.5,0 0,0.167 0.334,0 0,0.167 0.083,0.083 0.667,0 0,0.083 0.166,0 0,0.25 0.167,0 0,0.084 0.25,0 0,0.083 0.167,0 1.25,0.083 0,0.084 0.166,0 0,1.25 0.334,0 0,0.083 0.25,0 0,0.167 0.25,0 0,0.166 0.25,0 0,0.5 0.166,0 0,0.167 0.167,0 0,0.167 0.25,0 0,0.166 0.5,0 0,0.084 0.25,0 0,0.083 0.417,0 0,0.083 0.25,0 0,0.084 0.416,0.083 0,0.083 0.25,0 0,0.084 0.167,0 0,0.083 0.417,0.083 0,0.084 0.166,0 0,0.166 0.417,0 0,0.167 0.083,0 0,0.25 1,0 0,0.083 0.334,0 0,0.084 0.416,0 0,0.25 0.167,0 0,0.083 0.583,0 0,0.417 0.417,0.083 0,0.083 0.417,0 0,0.25 0.333,0 0,0.084 0.333,0 0,0.333 0.25,0 0,0.083 0.167,0 0,0.084 0.25,0 0.083,0.083 0.167,0 0,0.333 0.5,0 0,0.084 0.833,0.083 0,0.083 0.25,0 0,0.084 0.25,0.083 0,0.083 0.25,0 0,0.5 0.417,0 0,0.084 0.417,0 0,0.166 0.416,0 0,0.084 0.584,0 0,0.083 0.416,0 0,0.083 0.334,0 0,0.084 0.166,0 0,0.083 0.25,0 0,0.583 0.167,0 0,0.167 0.167,0 0,0.25 0.083,0.083 0.083,0.084 0,0.166 1,0 0,0.084 0.417,0.083 0,0.167 0.083,0.083 0.084,0.083 0.166,0 0,0.084 0.667,0 0,0.25 0.167,0 0,0.166 1,0 0,0.167 0.416,0 0,0.083 0.417,0 0,0.334 0.75,0 0,0.166 0.75,0 0,0.167 1,0.083 0,0.417 0.667,0 0,0.083 0.666,0 0,0.084 0.584,0 0,0.083 0.583,0 0,0.083 1.417,0 0,0.25 0.416,0 0,0.167 0.417,0 0,0.083 0.5,0 0,0.25 1.583,0 0,0.167 0.167,0 0,0.083 0.25,0 0,0.084 0.25,0 0,0.333 0.583,0 0,0.083 0.667,0 0,0.084 1.75,0 0,0.083 0.75,0.083 0,0.084 0.667,0 0,0.083 0.25,0 0,0.167 1.333,0 0,0.25 0.25,0 0,0.083 0.417,0 0,0.083 0.833,0 0,0.334 0.833,0 0,0.083 1.834,0 0,0.25 1.333,0 0,0.083 1.75,0 0,0.167 1.083,0.083 0,0.084 0.667,0 0,0.333 0.333,0 0,0.083 0.834,0 0,0.084 0.25,0 0,0.083 0.666,0 0,0.083 0.584,0 0,0.084 0.333,0 0,0.25 0.417,0 0,0.083 1.75,0 0,0.083 1,0 0,0.084 0.916,0 0,0.166 0.417,0 0,0.167 1.75,0 0,0.083 1.583,0 0,0.084 1.334,0 0,0.083 0.916,0 0,0.083 0.334,0 0,0.084 1,0 0,0.166 0.5,0 0,0.167 2.333,0 0,0.083 1.167,0 0,0.084 1.5,0 0,0.083 0.833,0 0,0.083 0.25,0.084 0,0.083 0.5,0 0,0.167 0.917,0 0,0.083 0.25,0 0,0.083 2.25,0 0,0.084 1.166,0 0,0.083 1,0 0,0.083 2.834,0 0,0.084 1,0 0,0.333 2.166,0 0,0.083 6,0 0,0.084 0.917,0.083 0,0.167 3,0 0,0.083 1.917,0 0,0.083 2.083,0 0,0.084 3.833,0 0,0.083 4.75,0 0,0.083 8.25,0 0,0.084 4,0 0,0.083 12.5,0" /><path
       inkscape:connector-curvature="0"
       id="path254"
       style="fill:none;stroke:#000000;stroke-width:0.8;stroke-linecap:butt;stroke-linejoin:round;stroke-miterlimit:10;stroke-opacity:1;stroke-dasharray:none"
       d="m 186.5,105.75 0,0.083 0.25,0 0,0.084 0.667,0 0,0.916 0.25,0 0,0.084 0.166,0 0,0.083 0.167,0 0,0.167 0.25,0 0,0.25 0.083,0.083 0.084,0 0,0.25 0.083,0.083 0.167,0 0,0.167 0.083,0 0.417,0.083 0,0.167 0.25,0 0,0.167 0.166,0 0,0.25 0.25,0.083 0,0.083 0.084,0.084 0.416,0 0,0.083 0.167,0 0,0.167 0.417,0 0,0.333 0.166,0 0,0.333 0.25,0 0,0.167 0.084,0.083 0.5,0 0,0.5 0.083,0.084 0.083,0.083 0.084,0.083 0.25,0.084 0,0.25 0.333,0.083 0,0.5 0.5,0 0,0.25 0.083,0 0,0.167 0.25,0 0,0.083 0.334,0.083 0,0.25 0.583,0 0,0.084 0.25,0.083 0,0.083 0.083,0 0,0.334 0.084,0 0,0.833 0.333,0 0,0.167 0.083,0.083 0.25,0 0,0.083 0.167,0 0,0.084 0.667,0.083 0,0.667 0.416,0.083 0,0.083 0.084,0.084 0.083,0 0,0.166 0.083,0 0.084,0.084 0.25,0 0,0.166 0.166,0 0,0.167 0.25,0 0.084,0.083 0.083,0.084 0.25,0.083 0,0.167 0.25,0.083 0,0.333 0.167,0 0,0.167 0.25,0 0,0.083 0.666,0 0,0.25 0.084,0.084 0.416,0.083 0,0.083 0.25,0 0,0.25 0.25,0.084 0,0.166 0.334,0 0,0.167 0.083,0 0,1.083 0.083,0 0.25,0.084 0,0.5 0.167,0 0,0.333 0.583,0 0,0.083 0.334,0 0,1.584 0.166,0 0,0.083 0.167,0 0,0.167 0.083,0 0.084,0.083 0.25,0 0,0.083 0.333,0 0,0.084 0.25,0 0,0.166 0.083,0.084 0.167,0 0.083,0.083 0.084,0.083 0.25,0 0,0.084 0.333,0.083 0,0.083 0.25,0 0,0.25 0.25,0.084 0,0.5 0.25,0.083 0,0.083 0.25,0 0,0.25 0.083,0 0,0.667 0.334,0 0,0.083 0.25,0 0,0.084 0.25,0 0,0.333 0.166,0 0,0.167 0.084,0.083 0.333,0 0,0.083 0.167,0 0,0.084 0.333,0 0,0.5 0.25,0 0,0.083 0.167,0 0,0.083 0.25,0 0,0.25 0.166,0 0,0.167 0.167,0 0,0.083 0.25,0.084 0,0.083 0.25,0 0,0.583 0.25,0 0.25,0.084 0,0.083 0.167,0 0,0.5 0.083,0.083 0.167,0 0,0.167 0.25,0 0,0.167 0.25,0 0,0.083 0.25,0.083 0,0.084 0.333,0 0,0.166 0.083,0.084 0.084,0.083 0.25,0.083 0,0.084 0.083,0.083 0.25,0.083 0,0.084 0.167,0 0,0.416 0.166,0 0,0.25 0.334,0 0,0.084 0.166,0 0,0.583 0.5,0 0,0.083 0.167,0 0,0.084 0.417,0 0,0.083 0.333,0 0,0.75 0.083,0.083 0,0.334 0.75,0.083 0,0.083 0.167,0 0,0.084 0.333,0 0,0.166 0.417,0 0,0.084 0.167,0 0,0.083 0.333,0 0,0.25 0.333,0.083 0,0.084 0.084,0.083 0.416,0 0,0.667 0.167,0 0,0.5 1.333,0 0,0.083 0.25,0 0,0.083 0.417,0 0,0.334 0.333,0 0,0.166 0.25,0 0,0.167 0.25,0 0,0.25 0.25,0 0,0.167 0.25,0 0,0.166 0.25,0 0.334,0.084 0,0.083 0.583,0.083 0,0.084 0.167,0.166 0,0.417 0.083,0.083 0.083,0 0,0.25 0.417,0 0,0.334 0.25,0 0,0.083 0.333,0 0,0.25 0.667,0.083 0,0.084 0.5,0 0,0.083 0.167,0 0,0.083 0.166,0 0,0.5 0.584,0.084 0,0 0.333,0.083 0,0.417 0.417,0.083 0,0.167 0.583,0 0,0.666 0.167,0 0,0.084 0.25,0.083 0,0.25 0.166,0 0,0.083" /><path
       inkscape:connector-curvature="0"
       id="path256"
       style="fill:none;stroke:#000000;stroke-width:0.8;stroke-linecap:butt;stroke-linejoin:round;stroke-miterlimit:10;stroke-opacity:1;stroke-dasharray:none"
       d="m 142.917,68.1668 0,0.0832 0.166,0 0,0.5 0.084,0 0,0.4168 0.083,0 0,0.1664 0.083,0 0,0.5836 1,0 0,0.1664 1,0 0,0.0836 0.167,0 0,0.0832 0.5,0.0832 0,0.0836 0.083,0.0832 0.417,0.0832 0.167,0 0,0.0836 0.166,0 0,0.3332 0.167,0 0,0.25 0.5,0 0,0.1668 0.25,0.0832 0,0.0832 0.583,0 0,0.3336 0.167,0 0,0.5 0.083,0.0832 0.167,0 0,0.0832 0.5,0.0836 0,0.1664 0.083,0.0836 0.084,0.0832 0.25,0 0,0.1668 0.333,0 0,0.8332 0.167,0 0,0.4168 0.166,0 0,0.1664 0.584,0 0,0.0836 0.166,0 0,0.1664 0.084,0 0,0.3336 0.083,0.0832 0.25,0 0,0.25 0.083,0 0,0.9168 0.25,0 0,0.1664 0.417,0 0,0.0836 0.25,0 0,0.4164 1,0.0836 0,0.0832 0.083,0 0.084,0.0832 0.083,0.0836 0.5,0 0,0.25 0.167,0 0,0.4164 0.083,0 0,0.5836 0.75,0 0,0.1664 0.083,0.0836 0.25,0 0,0.0832 0.417,0 0,0.1668 0.083,0 0,0.4164 0.084,0 0.25,0.0836 0,0.0832 0.75,0.0832 0,0.25 0.083,0 0,0.25 0.083,0.0836 0.167,0 0,0.4164 0.25,0.0836 0,0.0832 0.417,0 0,0.4168 0.833,0 0,0.0832 0.25,0 0,0.0832 0.333,0.0836 0,0.0832 0.25,0.0832 0,0.4168 0.167,0 0,0.5832 0.25,0 0,0.0836 0.25,0 0,0.4164 0.417,0 0,0.0836 0.416,0 0,0.0832 0.667,0.0832 0,0.0836 0.083,0.25 0,-0.0836 0,0.0836 0.084,0.0832 0.416,0 0,0.25 0.584,0 0,0.0832 0.25,0.0836 0,0.0832 0.5,0 0,0.1668 0.166,0 0,0.75 0.084,0.0832 0,0.1668 0.166,0 0,0.0832 0.167,0 0,0.0832 0.5,0 0,0.9168 0.667,0 0,0.4168 0.25,0 0,0.1664 0.166,0 0,0.0836 0.417,0 0,0.25 0.25,0 0,0.25 0.083,0.0832 0.25,0 0,0.0832 1,0 0,0.8336 0.5,0.0832 0,0.0832 0.084,0.0836 0.083,0.0832 0.083,0.0832 0.084,0.0836 0.083,0 0,0.25 0.25,0.0832 0,0.0832 0.25,0 0,0.1668 0.083,0.0832 0.25,0 0,0.0836 0.417,0.0832 0,0.0832 0.25,0.0836 0,0.0832 0.583,0 0,0.4168 0.25,0 0,0.5832 0.167,0 0,0.25 0.167,0 0,0.4168 0.25,0 0,0.1664 0.5,0 0,1.3336 0.333,0 0,0.0832 0.417,0 0.083,0.0832 0.167,0.1668 0,0.0832 0.083,0.0836 0.083,0.0832 1.167,0 0,0.0832 0.167,0 0,0.4168 0.25,0 0,0.0832 0.166,0 0,0.0836 0.167,0 0,0.0832 0.25,0 0,0.25 0.167,0 0,0.0832 0.25,0 0,0.3336 0.083,0 0,0.25 0.083,0 0,0.75 0.25,0 0.084,0.0832 0.333,0 0,0.1668 0.083,0.0832 0.167,0 0,0.0832 0.417,0 0,0.1668 0.083,0.0832 0.25,0 0,0.75 0.25,0 0,0.1668 0.167,0 0,0.5832 0.416,0 0,0.1668 0.167,0 0,0.25 0.833,0.0832 0,0.0836 0.084,0 0,0.5 0.083,0 0.25,0.0832 0,0.333 0.083,0.084 0.167,0 0,0.083 0.167,0 0,0.083 0.333,0 0,0.25 0.333,0 0,0.084 0.25,0 0,0.166 0.334,0 0,0.584 0.083,0.083 0.417,0 0,0.25 0.166,0 0,0.25 0.334,0 0,0.083 0.583,0 0,0.167 0.083,0.083 0.334,0 0,0.167 0.5,0 0,0.667 0.083,0 0,0.833 0.083,0.083 0.167,0 0,0.084 0.25,0 0,0.416 0.083,0 0,0.25 0.084,0.084 0.083,0.083 0.25,0 0,0.167 0.083,0.083 0.25,0 0,0.083 0.334,0 0,0.167 0.333,0" /><path
       inkscape:connector-curvature="0"
       id="path258"
       style="fill:none;stroke:#000000;stroke-width:0.8;stroke-linecap:butt;stroke-linejoin:round;stroke-miterlimit:10;stroke-opacity:1;stroke-dasharray:none"
       d="m 90.1668,35.25 0,0.4168 1.3332,0 0,0.1664 0.25,0 0,0.1668 0.5,0 0,0.0832 0.1668,0 0,0.0836 0.1664,0 0,0.25 0.1668,0 0,0.0832 1.1668,0.0832 0,0.4168 0.5832,0 0,0.25 0.0832,0 0,0.1668 0.5,0 0,0.0832 0.1668,0 0,0.0832 0.25,0 0,0.1668 0.4168,0 0,0.0832 1.6664,0 0,0.8336 0.1668,0 0,0.1664 0.0832,0.0836 0.0836,0 0,0.4164 1.1664,0 0,0.0836 0.5,0 0,0.1664 0.1668,0 0,0.1668 0.25,0 0,0.0832 0.583,0.0836 0,0.1664 0.5,0 0,0.0836 0.334,0 0,0.3332 0.5,0 0,0.0832 0.25,0 0,0.75 0.416,0 0,0.1668 0.5,0 0,0.0832 0.5,0 0,0.0836 0.25,0 0,0.0832 0.167,0 0.25,0.0832 0,0.1668 0.167,0 0,0.1668 0.166,0 0,0.0832 0.5,0 0,0.3332 0.75,0.0836 0,0.25 0.167,0 0,0.0832 0.417,0 0,0.0832 0.166,0 0,0.1668 0.5,0 0,0.0832 0.667,0 0,0.0836 0.167,0 0,0.1664 0.083,0.0836 0.333,0 0,0.3332 0.084,0.0832 0.5,0 0,0.0836 0.25,0 0,0.3332 0.666,0 0,0.0832 0.584,0 0,1 0.25,0.0836 0,0.0832 0.166,0 0,0.3332 0.25,0.0836 0,0.0832 0.084,0.0832 0.833,0 0,0.0836 0.583,0 0,1 0.167,0 1.083,0.0832 0,0.0832 0.167,0 0,0.0836 0.25,0 0,0.1664 0.417,0.0836 0,0 0.083,0.0832 0.083,0 0,0.3332 0.5,0 0,0.4168 0.25,0 0,0.0832 0.334,0.0836 0,0.0832 0.416,0 0,0.0832 0.167,0 0,0.25 0.333,0 0,0.0836 0.167,0 0,0.0832 0.333,0 0,0.1668 0.334,0.0832 0,0.0832 0.916,0 0,1.1668 0.167,0 0,0.1668 0.25,0 0,0.0832 0.583,0 0,0.0832 0.5,0 0,0.9168 0.25,0 0,0.0832 0.167,0 0,0.25 0.167,0 0,0.0836 0.166,0 0.084,0.0832 0.25,0 0,0.1668 0.083,0.0832 0.417,0.0832 0.166,0 0,0.3336 0.5,0 0,0.3332 0.084,0 0,0.1668 0.166,0 0,0.25 0.25,0 0,0.0832 0.25,0.0832 0,0.0836 0.417,0 0,0.0832 0.25,0.0832 0,0.5 0.083,0.0836 0.417,0 0,0.1664 0.333,0 0,0.25 1,0.0836 0,0.0832 0.084,0.0832 0.5,0 0,0.0836 0.333,0 0,0.1664 0.083,0.0836 0.25,0.0832 0,0.5832 0.084,0.0836 0.166,0 0,0.1664 0.5,0 0,0.4168 0.25,0 0,0.1668 0.5,0 0,0.0832 0.167,0 0,0.0832 0.417,0 0,0.0836 0.166,0 0,0.4164 0.167,0 0,0.5 0.25,0 0,0.0836 0.167,0 0,0.0832 0.166,0 0,0.0832 0.417,0 0,0.3336 0.083,0.0832 0.25,0 0,0.25 0.084,0.0832 0.5,0 0,0.0836 0.166,0 0,0.0832 0.417,0 0,0.1668 0.417,0.0832 0,0.0832 0.083,0.0836 0.167,0 0,0.25 0.083,0 0,0.25 0.25,0 0,0.1664 0.75,0 0,0.5 0.333,0 0,0.0836 0.25,0.0832 0,0.0832 0.5,0 0,0.0836 0.167,0 0,0.0832 0.25,0 0,0.5 0.083,0 0,0.5832 0.5,0 0.084,0.0836 0.583,0 0,0.25 0.083,0.0832 0.167,0 0,0.25 0.167,0 0,0.25 0.75,0 0,0.25 0.083,0 0,0.25 0.167,0 0.083,0.3332 0,-0.0832 0,0.0832 0.25,0 0,0.1668 0.25,0.0832 0,0.1668 0.583,0.0832 0,0.0836 0.084,0.0832 0.166,0 0,0.0832 0.167,0 0,0.1668 0.333,0 0,0.0832 0.334,0 0,0.0836 1.083,0 0,0.0832 0.25,0 0,0.0832 0.583,0 0,0.0836 0.667,0 0,1.5832 0.167,0 0.166,0.1668 0,0.1664 0.084,0.0836" /><path
       inkscape:connector-curvature="0"
       id="path260"
       style="fill:none;stroke:#000000;stroke-width:0.8;stroke-linecap:butt;stroke-linejoin:round;stroke-miterlimit:10;stroke-opacity:1;stroke-dasharray:none"
       d="m 52.75,26.5832 0,1.9168 7.4168,0 0,0.25 0.75,0 0,0.0832 0.3332,0 0,0.0836 0.4168,0 0,0.0832 2.3332,0 0,0.0832 0.75,0.0836 0,0.0832 0.9168,0 0,0.25 1,0 0,0.0832 1,0 0,0.3336 1.5,0 0,0.4164 0.5,0 0,0.1668 1,0 0,0.0832 1.4164,0 0,0.0836 0.6668,0.0832 0,0.0832 0.6668,0 0,0.0836 0.5832,0 0,0.0832 1.3332,0 0,0.0832 1.1668,0 0,0.0836 0.1668,0 0,0.1664 0.0832,0.0836 0.6668,0 0,0.1664 0.25,0 0,0.0836 0.6664,0 0,0.0832 0.25,0 0,0.0832 0.75,0 0,0.0836 0.3336,0 0,0.0832 0.6664,0 0,0.0832 0.25,0 0,0.25 1,0 0,0.0836 1.0836,0 0,0.8332 0.9164,0 0,0.0832 0.25,0 0,0.0836 0.4168,0.0832 0,0.0832 0.3332,0 0,0.1668 0.4168,0 0,0.0832 0.25,0 0,0.0836 0.4168,0 0,0.5 0.3332,0 0,0.0832 0.5832,0 0,0.0832 1,0.0836 0,0.0832 0.25,0 0,0.0832 0.8336,0 0,0.25 0.4164,0 0,0.0836 0.8336,0 0,0.0832 0.25,0" /><text
       transform="scale(1,-1)"
       id="text272"
       x="169.91701"
       y="-2.5832"><tspan
         style="font-size:10px;font-variant:normal;font-weight:normal;writing-mode:lr-tb;fill:#000000;fill-opacity:1;fill-rule:nonzero;stroke:none;font-family:Helvetica;-inkscape-font-specification:Helvetica"
         x="169.91701 176.02699 178.24699 183.80701 191.02701 193.80701 196.02701 201.58701 206.58701 211.58701 214.367 217.69701 223.257 226.037 231.597 234.377 237.707 246.597"
         y="-2.5832"
         sodipodi:role="line"
         id="tspan274">Flow loss rate (%)</tspan></text>
<text
       transform="matrix(0,1,1,0,0,0)"
       id="text276"
       x="84.833199"
       y="29.1668"><tspan
         style="font-size:10px;font-variant:normal;font-weight:normal;writing-mode:lr-tb;fill:#000000;fill-opacity:1;fill-rule:nonzero;stroke:none;font-family:Helvetica;-inkscape-font-specification:Helvetica"
         x="84.833199 92.0532 99.273201"
         y="29.1668"
         sodipodi:role="line"
         id="tspan278">CDF</tspan></text>
<path
       inkscape:connector-curvature="0"
       id="path288"
       style="fill:none;stroke:#0000ff;stroke-width:0.8;stroke-linecap:butt;stroke-linejoin:round;stroke-miterlimit:10;stroke-opacity:1;stroke-dasharray:1.6,0.8;stroke-dashoffset:0"
       d="m 87.5832,144.917 0.0836,0.083 0.0832,0.083 0.25,0 0,0.084 0.25,0.083 0,0.083 0.4168,0 0,0.334 0.0832,0.083 0.4168,0.083 0,0.167 0.6664,0 0,0.167 0.0836,0.083 0.25,0 0,0.083 0.25,0.084 0,0.083 0.0832,0.083 0.25,0 0,0.25 0.0832,0 0.0836,0.084 L 91,147 l 0.1668,0 0,0.25 0.3332,0.083 0,0.25 0.0832,0.084 0.1668,0 0,0.333 0.25,0.083 0,0 0.25,0.084 0.1668,0 0,0.166 0.1664,0 0,0.167 0.1668,0 0,0.083 0.3332,0.084 0,0.083 0.3336,0 0,0.083 0.3332,0.084 0,0.333 0.25,0.083 0,0 0.25,0.084 0,0.083 0.25,0 0,0.167 0.25,0 0,0.083 0.25,0 0.0832,0.083 0,0.084 0.1668,0 0,0.333 0.25,0 0,0.417 0.5832,0.083 0,0.083 0.1668,0 0.0832,0.084 0.0836,0.083 0.25,0 0,0.167 0.25,0 0,0.083 0.6664,0 0,0.5 0.0836,0.083 0.0832,0.084 0,0.166 0.1668,0 0,0.25 0.5,0 0,0.084 0.1664,0 0.3336,0.083 0.3332,0 0,0.083 0.3332,0.084 0,0.083 0.0836,0 0.0832,0.083 0.333,0 0,0.167 0.167,0 0.25,0.083 0,0.084 0.083,0.083 0,0.167 0.167,0 0.667,0.083 0,0.25 0.25,0 0,0.083 0.25,0 0,0.084 0.25,0.083 0,0.25 0.416,0 0,0.083 0.667,0 0.333,0.084 0.167,0 0,0.083 0.25,0 0,0.083 0.417,0 0,0.167 0.5,0 0,0.167 0.166,0 0,0.083 0.25,0 0,0.083 0.5,0 0,0.167 0.75,0 0,0.083 0.834,0 0,0.084 0.166,0 0,0.166 0.834,0 0,0.167 0.25,0 0,0.083 0.166,0 0,0.084 0.334,0 0,0.166 0.083,0 0.083,0.084 1.084,0 0,0.333 0.416,0 0,0.167 0.417,0.083 1.333,0 0,0.833 0.167,0 0,0.084 1.25,0 0,0.083 1.167,0 0,0.083 0.166,0 0,0.084 0.25,0 0,0.083 1.167,0.083 0,0.084 0.083,0.083 0.5,0 0,0.167 0.334,0 0,0.083 0.666,0 0,0.083 0.25,0 0,0.167 0.167,0 0,0.083 0.5,0 0,0.084 0.25,0 0,0.083 1,0 0,0.25 1.833,0 0,0.083 0.5,0 0,0.084 0.167,0 0,0.083 0.833,0 0,0.083 1.084,0 0,0.084 0.666,0 0,0.083 0.584,0 0,0.083 0.333,0 0,0.084 0.333,0 0,0.083 0.25,0 0,0.083 0.5,0 0,0.417 1.084,0 0,0.083 0.416,0 0.084,0.084 0.083,0.083 1.333,0 0,0.083 1.917,0 0,0.084 0.75,0 0,0.083 0.25,0 0,0.083 1.583,0.084 0.917,0 0,0.083 0.25,0 0,0.083 0.333,0.084 0,0 0.084,0.083 0.75,0 0,0.167 0.833,0 0,0.083 4.25,0 0,0.083 0.25,0 0.583,0.084 0,0.166 2.917,0 0,0.084 2.25,0 0,0.083 1.667,0.083 1.416,0 0,0.167 2.167,0 0,0.083 1.5,0 0,0.084 5.25,0 0,0.083 3.583,0 0,0.083 0.25,0 0,0.084 0.667,0 0,0.083 0.333,0 0,0.083 1.417,0 0,0.084 1.333,0 0,0.083 6.5,0 0,0.083 3.417,0 1.917,0.084 1.083,0 0,0.083 0.917,0 0,0.083 10.5,0 0,0.084 4,0 0,0.083 13.083,0" /><path
       inkscape:connector-curvature="0"
       id="path290"
       style="fill:none;stroke:#0000ff;stroke-width:0.8;stroke-linecap:butt;stroke-linejoin:round;stroke-miterlimit:10;stroke-opacity:1;stroke-dasharray:1.6,0.8;stroke-dashoffset:0"
       d="m 59.9168,115.833 0.0832,0.084 0.0832,0 0.0836,0.583 0,-0.083 0,0.083 0.3332,0 0,0.167 0.25,0.083 0,0.25 0.0832,0 0.0836,0.083 0,0.334 0.25,0.083 0,0 0.0832,0.583 0,-0.083 0,0.083 0.0832,0 0.0836,0.084 0.0832,0.083 0,0.083 0.1668,0 0,0.667 0.0832,0 0,0.25 0.1668,0 0.0832,0.083 0.25,0.084 0,0.333 0.1668,0.167 0,0.166 0.25,0 0,0.5 0.0832,0.084 0.0832,0.083 0.0836,0.083 0.0832,0.25 0,-0.083 0,0.083 0.0832,0.084 0.25,0 0,0.5 0.0836,0.083 0.0832,0.083 0,0.167 0.0832,0 0.0836,0.083 0.25,0.084 0,0.416 0.0832,0 0,0.167 0.0832,0.083 0.25,0 0,0.167 0.0836,0.083 0.1664,0 0,0.167 0.0836,0 0,0.25 0.1664,0.167 0,0 0.0836,0.083 0,0.167 L 65,124 l 0.0832,0 0,0.25 0.1668,0 0,0.167 0.0832,0.083 0.0836,0.083 0.1664,0 0,0.167 0.0836,0 0,0.417 0.25,0.083 0,0.083 0.0832,0 0,0.167 0.1668,0 0,0.167 0.1664,0 0.0836,0.083 0.0832,0.083 0.0832,0 0,0.167 0.0836,0 0,0.333 0.0832,0.084 0,0.083 0.25,0.083 0,0.084 0.1668,0 0,0.166 0.1664,0.167 0,0 0.0836,0.083 0.25,0 0,0.5 0.0832,0.084 0.1668,0 0,0.083 0.1664,0 0,0.167 0.0836,0.083 0,0.167 0.1664,0 0,0.25 0.0836,0.083 0.0832,0 0.0832,0.083 0.0836,0.084 0.0832,0 0,0.166 0.0832,0.084 0.0836,0.083 0.0832,0.083 0.0832,0.084 0,0.166 0.0836,0 0,0.5 0.25,0 0,0.167 0.0832,0.083 0.0832,0 0.0836,0.084 0.1664,0 0,0.25 0.0836,0.083 0.0832,0 0,0.167 0.25,0.083 0,0 0.0832,0.083 0.3336,0 0,0.417 0.0832,0.083 0,0.084 0.25,0.083 0,0.167 0.0832,0.083 0.1668,0 0,0.167 0.25,0.083 0,0.083 0.0832,0 0,0.167 0.1668,0 0,0.167 0.0832,0.083 0,0.083 0.1668,0 0,0.167 0.0832,0.083 0.0836,0 0,0.167 0.0832,0.083 0.1668,0 0,0.084 0.25,0 0,0.333 0.0832,0.083 0,0.084 0.1668,0 0,0.166 0.3332,0 0,0.167 0.0832,0.083 0.0836,0.084 0.0832,0.083 0.0832,0 0,0.167 0.0836,0.083 0.25,0 0,0.167 0.1664,0.166 0,0.167 0.5,0 0,0.167 0.0836,0.083 0.5,0 0,0.417 0.0832,0.083 0.0832,0.083 0,0.25 0.25,0.084 0,0.083 0.4168,0 0,0.083 0.1668,0 0,0.084 0.1664,0 0,0.166 0.1668,0 0,0.084 0.1668,0 0,0.333 0.0832,0.083 0.25,0 0,0.084 0.1668,0 0.0832,0.083 0.0832,0.083 0.0836,0 0,0.167 0.0832,0.083 0.25,0.084 0,0.083 0.25,0.083 0,0.084 0.0832,0.083 0.0836,0.083 0.1664,0 0,0.334 0.1668,0 0,0.166 0.0832,0 0,0.25 0.0836,0.084 0.25,0.083 0,0.083 0.0832,0.084 0.3332,0.083 0,0.167 0.3336,0 0,0.083 0.1664,0 0,0.083 0.25,0 0,0.084 0.25,0 0,0.083 0.25,0.083 0,0.25 0.1668,0 0,0.084 0.1668,0 0,0.083 0.4164,0.083 0,0 0.5,0.084 0,0.166 0.8336,0 0,0.834 0.0832,0.083 0,0.083 0.25,0 0,0.084 0.1668,0 0.0832,0.083 0.0832,0.083 0.0836,0.084 0.0832,0 0.0832,0.083 0.0836,0 0,0.167 0.25,0.083 0,0 0.0832,0.083 0.0832,0 0.0836,0.084 0.0832,0.083 0.3332,0 0,0.167 0.0836,0.083 0.25,0 0.0832,0.083 0.3332,0 0,0.25 0.1668,0 0,0.167 0.1668,0 0,0.417 0.0832,0.083 0.25,0 0.4168,0.083 0,0.167 0.1664,0 0,0.333 0.3336,0 0,0.167 0.0832,0.083 0,0.084 0.25,0 0,0.083 0.3332,0.083 0,0.084" /><path
       inkscape:connector-curvature="0"
       id="path292"
       style="fill:none;stroke:#0000ff;stroke-width:0.8;stroke-linecap:butt;stroke-linejoin:round;stroke-miterlimit:10;stroke-opacity:1;stroke-dasharray:1.6,0.8;stroke-dashoffset:0"
       d="m 52.75,26.5832 0,82.0838 1.1668,0 0,0.083 0.3332,0.083 0,0.084 0.0832,0.083 0,0.083 0.3336,0 0,0.167 0.0832,0.083 0.0832,0.084 0.1668,0 0,0.166 0.25,0.084 0,0.083 0.25,0 0,0.25 0.1668,0 0.0832,0.083 0.1668,0 0,0.167 0.0832,0.083 0.1668,0 0,0.084 0.1664,0 0,0.166 0.0836,0.084 0,0.166 0.0832,0 0,0.167 0.0832,0 0,0.167 0.25,0.083 0,0.083 0.0836,0 0,0.167 0.0832,0.25 0,-0.083 0,0.083 0.0832,0.083 0.0836,0 0,0.334 0.1664,0 0,0.166 0.0836,0.084 0.0832,0 0,0.166 0.25,0.084 0,0.083 0.0832,0.083 0.25,0.084 0,0.083 0.0836,0 0,0.25 0.1664,0 0,0.083 0.1668,0 0,0.25 0.0832,0.084 0.0836,0 0,0.25 0.0832,0.083 0.0832,0.083 0.0836,0.417 0,-0.083 0,0.083 0.25,0 0,0.5 0.1664,0 0,0.167 0.0836,0.083 0.0832,0.083 0.0832,0 0,0.167 0.0836,0 0,0.25 0.0832,0.083 0.1668,0" /><path
       inkscape:connector-curvature="0"
       id="path304"
       style="fill:#ffffff;fill-opacity:1;fill-rule:evenodd;stroke:none"
       d="m 194.583,36.4168 163.584,0 0,28.5 -163.584,0 0,-28.5 z" /><path
       inkscape:connector-curvature="0"
       id="path306"
       style="fill:none;stroke:#ffffff;stroke-width:0.5;stroke-linecap:butt;stroke-linejoin:round;stroke-miterlimit:10;stroke-opacity:1;stroke-dasharray:none"
       d="m 194.583,36.4168 0,28.5 163.584,0 0,-28.5 -163.584,0" /><path
       inkscape:connector-curvature="0"
       id="path308"
       style="fill:none;stroke:#000000;stroke-width:0.5;stroke-linecap:butt;stroke-linejoin:round;stroke-miterlimit:10;stroke-opacity:1;stroke-dasharray:none"
       d="m 194.583,36.4168 163.584,0" /><path
       inkscape:connector-curvature="0"
       id="path310"
       style="fill:none;stroke:#000000;stroke-width:0.5;stroke-linecap:butt;stroke-linejoin:round;stroke-miterlimit:10;stroke-opacity:1;stroke-dasharray:none"
       d="m 194.583,64.9168 163.584,0" /><path
       inkscape:connector-curvature="0"
       id="path312"
       style="fill:none;stroke:#000000;stroke-width:0.5;stroke-linecap:butt;stroke-linejoin:round;stroke-miterlimit:10;stroke-opacity:1;stroke-dasharray:none"
       d="m 194.583,36.4168 0,28.5" /><path
       inkscape:connector-curvature="0"
       id="path314"
       style="fill:none;stroke:#000000;stroke-width:0.5;stroke-linecap:butt;stroke-linejoin:round;stroke-miterlimit:10;stroke-opacity:1;stroke-dasharray:none"
       d="m 358.167,36.4168 0,28.5" /><path
       inkscape:connector-curvature="0"
       id="path316"
       style="fill:none;stroke:#000000;stroke-width:0.5;stroke-linecap:butt;stroke-linejoin:round;stroke-miterlimit:10;stroke-opacity:1;stroke-dasharray:none"
       d="m 194.583,36.4168 163.584,0" /><path
       inkscape:connector-curvature="0"
       id="path318"
       style="fill:none;stroke:#000000;stroke-width:0.5;stroke-linecap:butt;stroke-linejoin:round;stroke-miterlimit:10;stroke-opacity:1;stroke-dasharray:none"
       d="m 194.583,36.4168 0,28.5" /><path
       inkscape:connector-curvature="0"
       id="path320"
       style="fill:none;stroke:#000000;stroke-width:0.5;stroke-linecap:butt;stroke-linejoin:round;stroke-miterlimit:10;stroke-opacity:1;stroke-dasharray:none"
       d="m 194.583,36.4168 163.584,0" /><path
       inkscape:connector-curvature="0"
       id="path322"
       style="fill:none;stroke:#000000;stroke-width:0.5;stroke-linecap:butt;stroke-linejoin:round;stroke-miterlimit:10;stroke-opacity:1;stroke-dasharray:none"
       d="m 194.583,64.9168 163.584,0" /><path
       inkscape:connector-curvature="0"
       id="path324"
       style="fill:none;stroke:#000000;stroke-width:0.5;stroke-linecap:butt;stroke-linejoin:round;stroke-miterlimit:10;stroke-opacity:1;stroke-dasharray:none"
       d="m 194.583,36.4168 0,28.5" /><path
       inkscape:connector-curvature="0"
       id="path326"
       style="fill:none;stroke:#000000;stroke-width:0.5;stroke-linecap:butt;stroke-linejoin:round;stroke-miterlimit:10;stroke-opacity:1;stroke-dasharray:none"
       d="m 358.167,36.4168 0,28.5" /><text
       transform="scale(1,-1)"
       id="text330"
       x="233.58299"
       y="-53.416801"><tspan
         style="font-size:10px;font-variant:normal;font-weight:normal;writing-mode:lr-tb;fill:#000000;fill-opacity:1;fill-rule:nonzero;stroke:none;font-family:Helvetica;-inkscape-font-specification:Helvetica"
         x="233.58299 240.25301 245.813 248.593 251.373 256.93301 260.263 263.043 268.883 271.66299 277.22299 282.78299 285.56299 288.89301 294.453 300.013 303.34299 308.90298 314.46298 317.24301 320.02301 322.24301 327.80301 335.02301"
         y="-53.416801"
         sodipodi:role="line"
         id="tspan332">Buffer = 18 (Large flow)</tspan></text>
<path
       inkscape:connector-curvature="0"
       id="path342"
       style="fill:none;stroke:#000000;stroke-width:0.8;stroke-linecap:butt;stroke-linejoin:round;stroke-miterlimit:10;stroke-opacity:1;stroke-dasharray:none"
       d="m 200.5,56.9168 30,0" /><text
       transform="scale(1,-1)"
       id="text354"
       x="233.58299"
       y="-40.833199"><tspan
         style="font-size:10px;font-variant:normal;font-weight:normal;writing-mode:lr-tb;fill:#000000;fill-opacity:1;fill-rule:nonzero;stroke:none;font-family:Helvetica;-inkscape-font-specification:Helvetica"
         x="233.58299 240.25301 245.813 248.593 251.373 256.93301 260.263 263.043 268.883 271.66299 277.22299 282.78299 288.34299 291.12299 294.453 300.013 305.573 308.90298 314.46298 320.02301 322.80301 325.58301 327.80301 333.36301 340.58301"
         y="-40.833199"
         sodipodi:role="line"
         id="tspan356">Buffer = 500 (Large flow)</tspan></text>
<path
       inkscape:connector-curvature="0"
       id="path366"
       style="fill:none;stroke:#0000ff;stroke-width:0.8;stroke-linecap:butt;stroke-linejoin:round;stroke-miterlimit:10;stroke-opacity:1;stroke-dasharray:1.6,0.8;stroke-dashoffset:0"
       d="m 200.5,44.4168 30,0" /></g></svg>