%!PS-Adobe-3.0 EPSF-3.0
%%Creator: MATLAB, The MathWorks, Inc. Version 8.1.0.604 (R2013a). Operating System: Linux 3.19.0-59-generic #65~14.04.1-Ubuntu SMP Tue Apr 19 18:57:09 UTC 2016 x86_64.
%%Title: /home/rajeevpnj/Downloads/output/largeLoss.eps
%%CreationDate: 05/05/2016  18:53:17
%%DocumentNeededFonts: Helvetica
%%DocumentProcessColors: Cyan Magenta Yellow Black
%%LanguageLevel: 2
%%Pages: 1
%%BoundingBox:   103   307   508   484
%%EndComments

%%BeginProlog
% MathWorks dictionary
/MathWorks 160 dict begin
% definition operators
/bdef {bind def} bind def
/ldef {load def} bind def
/xdef {exch def} bdef
/xstore {exch store} bdef
% operator abbreviations
/c  /clip ldef
/cc /concat ldef
/cp /closepath ldef
/gr /grestore ldef
/gs /gsave ldef
/mt /moveto ldef
/np /newpath ldef
/cm /currentmatrix ldef
/sm /setmatrix ldef
/rm /rmoveto ldef
/rl /rlineto ldef
/s {show newpath} bdef
/sc {setcmykcolor} bdef
/sr /setrgbcolor ldef
/sg /setgray ldef
/w /setlinewidth ldef
/j /setlinejoin ldef
/cap /setlinecap ldef
/rc {rectclip} bdef
/rf {rectfill} bdef
% page state control
/pgsv () def
/bpage {/pgsv save def} bdef
/epage {pgsv restore} bdef
/bplot /gsave ldef
/eplot {stroke grestore} bdef
% orientation switch
/portraitMode 0 def /landscapeMode 1 def /rotateMode 2 def
% coordinate system mappings
/dpi2point 0 def
% font control
/FontSize 0 def
/FMS {/FontSize xstore findfont [FontSize 0 0 FontSize neg 0 0]
  makefont setfont} bdef
/reencode {exch dup where {pop load} {pop StandardEncoding} ifelse
  exch dup 3 1 roll findfont dup length dict begin
  { 1 index /FID ne {def}{pop pop} ifelse } forall
  /Encoding exch def currentdict end definefont pop} bdef
/isroman {findfont /CharStrings get /Agrave known} bdef
/FMSR {3 1 roll 1 index dup isroman {reencode} {pop pop} ifelse
  exch FMS} bdef
/csm {1 dpi2point div -1 dpi2point div scale neg translate
 dup landscapeMode eq {pop -90 rotate}
  {rotateMode eq {90 rotate} if} ifelse} bdef
% line types: solid, dotted, dashed, dotdash
/SO { [] 0 setdash } bdef
/DO { [.5 dpi2point mul 4 dpi2point mul] 0 setdash } bdef
/DA { [6 dpi2point mul] 0 setdash } bdef
/DD { [.5 dpi2point mul 4 dpi2point mul 6 dpi2point mul 4
  dpi2point mul] 0 setdash } bdef
% macros for lines and objects
/L {lineto stroke} bdef
/MP {3 1 roll moveto 1 sub {rlineto} repeat} bdef
/AP {{rlineto} repeat} bdef
/PDlw -1 def
/W {/PDlw currentlinewidth def setlinewidth} def
/PP {closepath eofill} bdef
/DP {closepath stroke} bdef
/MR {4 -2 roll moveto dup  0 exch rlineto exch 0 rlineto
  neg 0 exch rlineto closepath} bdef
/FR {MR stroke} bdef
/PR {MR fill} bdef
/L1i {{currentfile picstr readhexstring pop} image} bdef
/tMatrix matrix def
/MakeOval {newpath tMatrix currentmatrix pop translate scale
0 0 1 0 360 arc tMatrix setmatrix} bdef
/FO {MakeOval stroke} bdef
/PO {MakeOval fill} bdef
/PD {currentlinewidth 2 div 0 360 arc fill
   PDlw -1 eq not {PDlw w /PDlw -1 def} if} def
/FA {newpath tMatrix currentmatrix pop translate scale
  0 0 1 5 -2 roll arc tMatrix setmatrix stroke} bdef
/PA {newpath tMatrix currentmatrix pop	translate 0 0 moveto scale
  0 0 1 5 -2 roll arc closepath tMatrix setmatrix fill} bdef
/FAn {newpath tMatrix currentmatrix pop translate scale
  0 0 1 5 -2 roll arcn tMatrix setmatrix stroke} bdef
/PAn {newpath tMatrix currentmatrix pop translate 0 0 moveto scale
  0 0 1 5 -2 roll arcn closepath tMatrix setmatrix fill} bdef
/vradius 0 def /hradius 0 def /lry 0 def
/lrx 0 def /uly 0 def /ulx 0 def /rad 0 def
/MRR {/vradius xdef /hradius xdef /lry xdef /lrx xdef /uly xdef
  /ulx xdef newpath tMatrix currentmatrix pop ulx hradius add uly
  vradius add translate hradius vradius scale 0 0 1 180 270 arc 
  tMatrix setmatrix lrx hradius sub uly vradius add translate
  hradius vradius scale 0 0 1 270 360 arc tMatrix setmatrix
  lrx hradius sub lry vradius sub translate hradius vradius scale
  0 0 1 0 90 arc tMatrix setmatrix ulx hradius add lry vradius sub
  translate hradius vradius scale 0 0 1 90 180 arc tMatrix setmatrix
  closepath} bdef
/FRR {MRR stroke } bdef
/PRR {MRR fill } bdef
/MlrRR {/lry xdef /lrx xdef /uly xdef /ulx xdef /rad lry uly sub 2 div def
  newpath tMatrix currentmatrix pop ulx rad add uly rad add translate
  rad rad scale 0 0 1 90 270 arc tMatrix setmatrix lrx rad sub lry rad
  sub translate rad rad scale 0 0 1 270 90 arc tMatrix setmatrix
  closepath} bdef
/FlrRR {MlrRR stroke } bdef
/PlrRR {MlrRR fill } bdef
/MtbRR {/lry xdef /lrx xdef /uly xdef /ulx xdef /rad lrx ulx sub 2 div def
  newpath tMatrix currentmatrix pop ulx rad add uly rad add translate
  rad rad scale 0 0 1 180 360 arc tMatrix setmatrix lrx rad sub lry rad
  sub translate rad rad scale 0 0 1 0 180 arc tMatrix setmatrix
  closepath} bdef
/FtbRR {MtbRR stroke } bdef
/PtbRR {MtbRR fill } bdef
/stri 6 array def /dtri 6 array def
/smat 6 array def /dmat 6 array def
/tmat1 6 array def /tmat2 6 array def /dif 3 array def
/asub {/ind2 exch def /ind1 exch def dup dup
  ind1 get exch ind2 get sub exch } bdef
/tri_to_matrix {
  2 0 asub 3 1 asub 4 0 asub 5 1 asub
  dup 0 get exch 1 get 7 -1 roll astore } bdef
/compute_transform {
  dmat dtri tri_to_matrix tmat1 invertmatrix 
  smat stri tri_to_matrix tmat2 concatmatrix } bdef
/ds {stri astore pop} bdef
/dt {dtri astore pop} bdef
/db {2 copy /cols xdef /rows xdef mul dup 3 mul string
  currentfile 
  3 index 0 eq {/ASCIIHexDecode filter}
  {/ASCII85Decode filter 3 index 2 eq {/RunLengthDecode filter} if }
  ifelse exch readstring pop
  dup 0 3 index getinterval /rbmap xdef
  dup 2 index dup getinterval /gbmap xdef
  1 index dup 2 mul exch getinterval /bbmap xdef pop pop}bdef
/it {gs np dtri aload pop moveto lineto lineto cp c
  cols rows 8 compute_transform 
  rbmap gbmap bbmap true 3 colorimage gr}bdef
/il {newpath moveto lineto stroke}bdef
currentdict end def
%%EndProlog

%%BeginSetup
MathWorks begin

0 cap

end
%%EndSetup

%%Page: 1 1
%%BeginPageSetup
%%PageBoundingBox:   103   307   508   484
MathWorks begin
bpage
%%EndPageSetup

%%BeginObject: obj1
bplot

/dpi2point 12 def
portraitMode 1236 5808 csm

    0     0  4867  2122 rc
85 dict begin %Colortable dictionary
/c0 { 0.000000 0.000000 0.000000 sr} bdef
/c1 { 1.000000 1.000000 1.000000 sr} bdef
/c2 { 0.900000 0.000000 0.000000 sr} bdef
/c3 { 0.000000 0.820000 0.000000 sr} bdef
/c4 { 0.000000 0.000000 0.800000 sr} bdef
/c5 { 0.910000 0.820000 0.320000 sr} bdef
/c6 { 1.000000 0.260000 0.820000 sr} bdef
/c7 { 0.000000 0.820000 0.820000 sr} bdef
c0
1 j
1 sg
   0    0 4868 2123 rf
6 w
0 1646 3772 0 0 -1646 633 1805 4 MP
PP
-3772 0 0 1646 3772 0 0 -1646 633 1805 5 MP stroke
4 w
DO
0 sg
 633 1805 mt  633  159 L
 633  159 mt  633  159 L
1171 1805 mt 1171  159 L
1171  159 mt 1171  159 L
1710 1805 mt 1710  159 L
1710  159 mt 1710  159 L
2249 1805 mt 2249  159 L
2249  159 mt 2249  159 L
2788 1805 mt 2788  159 L
2788  159 mt 2788  159 L
3327 1805 mt 3327  159 L
3327  159 mt 3327  159 L
3866 1805 mt 3866  159 L
3866  159 mt 3866  159 L
4405 1805 mt 4405  159 L
4405  159 mt 4405  159 L
 633 1805 mt 4405 1805 L
4405 1805 mt 4405 1805 L
 633 1475 mt 4405 1475 L
4405 1475 mt 4405 1475 L
 633 1146 mt 4405 1146 L
4405 1146 mt 4405 1146 L
 633  817 mt 4405  817 L
4405  817 mt 4405  817 L
 633  488 mt 4405  488 L
4405  488 mt 4405  488 L
 633  159 mt 4405  159 L
4405  159 mt 4405  159 L
SO
6 w
 633 1805 mt 4405 1805 L
 633  159 mt 4405  159 L
 633 1805 mt  633  159 L
4405 1805 mt 4405  159 L
 633 1805 mt 4405 1805 L
 633 1805 mt  633  159 L
 633 1805 mt  633 1767 L
 633  159 mt  633  196 L
%%IncludeResource: font Helvetica
/Helvetica /ISOLatin1Encoding 120 FMSR

 600 1950 mt 
(0) s
1171 1805 mt 1171 1767 L
1171  159 mt 1171  196 L
1138 1950 mt 
(5) s
1710 1805 mt 1710 1767 L
1710  159 mt 1710  196 L
1644 1950 mt 
(10) s
2249 1805 mt 2249 1767 L
2249  159 mt 2249  196 L
2183 1950 mt 
(15) s
2788 1805 mt 2788 1767 L
2788  159 mt 2788  196 L
2722 1950 mt 
(20) s
3327 1805 mt 3327 1767 L
3327  159 mt 3327  196 L
3261 1950 mt 
(25) s
3866 1805 mt 3866 1767 L
3866  159 mt 3866  196 L
3800 1950 mt 
(30) s
4405 1805 mt 4405 1767 L
4405  159 mt 4405  196 L
4339 1950 mt 
(35) s
 633 1805 mt  670 1805 L
4405 1805 mt 4367 1805 L
 532 1849 mt 
(0) s
 633 1475 mt  670 1475 L
4405 1475 mt 4367 1475 L
 432 1519 mt 
(0.2) s
 633 1146 mt  670 1146 L
4405 1146 mt 4367 1146 L
 432 1190 mt 
(0.4) s
 633  817 mt  670  817 L
4405  817 mt 4367  817 L
 432  861 mt 
(0.6) s
 633  488 mt  670  488 L
4405  488 mt 4367  488 L
 432  532 mt 
(0.8) s
 633  159 mt  670  159 L
4405  159 mt 4367  159 L
 532  203 mt 
(1) s
 633 1805 mt 4405 1805 L
 633  159 mt 4405  159 L
 633 1805 mt  633  159 L
4405 1805 mt 4405  159 L
gs 633 159 3773 1647 rc
150 0 0 -1 48 0 0 -1 99 0 0 -1 57 0 0 -1 
46 0 0 -1 15 0 10 0 0 -1 23 0 0 -1 36 0 
0 -2 11 -1 0 -1 33 0 39 0 0 -1 26 0 0 -4 
12 0 0 -1 20 0 14 0 0 -1 12 0 0 -1 14 0 
0 -1 27 0 0 -1 3 0 0 -1 11 0 0 -2 6 0 
0 -1 3 -1 0 -1 10 0 0 -1 18 0 0 -1 14 0 
0 -1 28 0 0 -2 6 0 0 -2 12 0 0 -1 4 0 
0 -1 11 0 0 -1 16 0 0 -1 19 0 0 -1 3 0 
18 0 0 -2 5 0 0 -2 11 0 0 -1 12 0 0 -1 
21 0 0 -1 5 0 0 -3 4 0 0 -1 7 0 0 -1 
8 0 0 -1 3 0 0 -1 10 0 0 -1 4 0 0 -4 
8 0 0 -1 13 -1 0 -2 4 0 17 0 0 -1 16 0 
0 -3 22 0 0 -1 10 0 0 -4 10 0 0 -1 5 0 
0 -1 3 0 0 -3 16 0 0 -2 3 0 0 -1 8 0 
0 -1 9 -1 0 -1 21 0 0 -1 8 0 0 -1 7 0 
0 -4 3 0 0 -1 3 0 0 -1 2 0 0 -2 19 0 
0 -3 6 0 0 -1 3 0 2 0 0 -2 5 0 0 -3 
17 0 0 -1 7 0 0 -1 7 0 0 -1 8 0 0 -1 
8 0 0 -5 12 -1 0 -2 9 0 0 -2 9 0 0 -4 
3 0 2 0 0 -1 5 0 0 -2 12 0 0 -2 2 0 
0 -3 8 0 0 -1 2 0 1 -1 1 -1 0 -2 5 -1 
0 -1 12 0 0 -2 1 -1 1 -1 0 -3 2 0 0 -2 
2 0 0 -7 3 0 0 -1 2 0 0 -1 4 0 0 -1 
5 0 0 -1 7 0 0 -1 5 0 0 -2 5 0 0 -1 
3 0 2 0 0 -6 3 0 0 -1 3 -1 0 -1 3 0 
0 -1 10 -1 0 -1 2 0 4 0 0 -4 2 0 1 -1 
3 0 0 -1 2 0 0 -1 3 0 0 -4 4 0 0 -1 
4 0 0 -3 5 0 0 -1 5 -1 0 -5 3 0 4 0 
0 -1 2 0 0 -3 5 0 0 -1 4 0 0 -1 4 0 
8 0 0 -3 1 0 0 -2 5 0 0 -2 2 0 0 -1 
5 -1 0 -1 2 0 0 -1 3 0 0 -1 5 -1 0 -1 
3 0 0 -1 5 0 0 -1 3 0 0 -1 6 0 0 -2 
3 0 0 -2 2 0 0 -2 2 0 0 -6 2 0 1 0 
0 -2 3 0 0 -2 3 0 0 -1 4 0 0 -15 2 0 
0 -1 15 -1 2 0 0 -1 3 0 0 -1 2 0 0 -3 
2 0 0 -1 2 0 6 0 1 -1 0 -2 4 0 0 -2 
6 0 1 -1 3 0 1 -1 1 -1 0 -3 3 0 0 -5 
4 0 0 -1 2 0 2728 431 300 MP stroke
0 -1 2 0 0 -3 3 -1 0 -1 2 0 0 -8 7 0 
0 -2 5 -1 0 -5 4 -1 0 0 7 -1 0 -6 2 0 
0 -1 2 0 0 -1 6 0 0 -1 8 -1 0 -3 4 0 
0 -1 3 0 0 -4 5 0 0 -3 1 0 1 -1 0 -5 
2 -2 0 -1 7 -1 0 -1 4 -1 3 0 0 -2 3 0 
0 -2 3 0 0 -3 3 0 0 -2 3 0 0 -2 4 0 
0 -4 5 0 0 -1 3 0 0 -1 3 0 13 0 0 -6 
2 0 0 -8 5 0 1 -1 0 -1 4 -1 0 -3 4 0 
0 -1 2 0 0 -1 2 0 3 0 0 -2 4 0 0 -1 
2 0 0 -1 9 -1 0 -4 1 -1 0 -9 4 0 0 -1 
5 0 0 -1 2 0 0 -1 6 0 0 -7 2 0 0 -1 
4 0 0 -3 2 0 0 -5 2 0 0 -1 3 -1 1 -1 
0 -1 3 -1 1 -1 1 -1 0 -2 4 0 0 -1 3 -1 
0 -1 3 0 0 -2 3 0 0 -2 2 0 1 -1 0 -6 
2 0 0 -1 3 -1 3 0 0 -7 3 0 0 -1 3 -1 
0 -1 2 0 0 -2 2 0 0 -3 3 0 0 -1 2 0 
0 -1 2 0 1 0 0 -6 4 0 0 -1 2 0 0 -1 
4 0 1 -1 0 -2 2 0 0 -4 3 0 0 -1 3 0 
0 -1 4 0 0 -8 1 0 0 -3 2 0 1 0 0 -1 
3 -1 0 -6 3 -1 0 -3 1 0 2 0 0 -1 4 -1 
0 -1 3 0 1 -1 1 -1 2 0 1 -1 0 -2 3 0 
0 -1 4 0 0 -1 3 0 1 -1 1 0 0 -2 2 0 
0 -1 2 0 0 -19 4 0 0 -1 2 0 5 0 0 -4 
2 0 0 -6 3 -1 1 0 0 -13 1 0 0 -2 4 0 
0 -2 3 -1 0 -3 3 0 0 -1 5 -1 1 -1 0 -3 
8 0 0 -1 3 0 0 -2 2 0 0 -4 3 -1 0 -2 
3 -1 1 -1 1 -1 3 0 0 -2 2 0 0 -2 3 0 
1 -1 1 0 0 -2 1 0 1 -1 0 -1 5 -1 0 -8 
8 -1 0 -1 2 0 0 -1 3 0 1 -1 0 -2 4 0 
0 -10 1 0 0 -4 1 0 0 -1 3 -1 0 -1 7 0 
0 -3 4 -1 0 -1 3 0 0 -2 1 0 0 -3 3 0 
3 0 0 -6 4 -1 0 -3 3 -1 1 -1 1 -1 1 -1 
0 -6 6 0 1 -1 0 -2 2 0 1 0 0 -4 2 0 
0 -4 5 0 0 -2 2 0 0 -1 5 0 1 -1 0 -1 
3 -1 0 -3 2 0 0 -2 3 0 0 -2 5 -1 1 0 
0 -2 2 0 1 -1 0 -3 1 0 1 -1 0 -3 3 0 
0 -2 2 0 0 -1 2 0 0 -1 3 0 0 -11 8 0 
0 -1 3 0 0 -1 2238 855 300 MP stroke
4 0 0 -2 4 0 0 -1 3 0 1 -1 0 -2 3 0 
1 -1 1 -1 0 -3 1 0 0 -5 3 0 0 -1 2 0 
1 -1 0 -10 1 0 0 -8 6 0 0 -2 4 0 1 -1 
0 -2 7 0 0 -1 4 0 0 -3 2 0 0 -3 5 0 
1 -1 0 -7 4 0 0 -2 3 0 0 -1 4 0 0 -3 
4 0 0 -1 2 0 0 -1 2 0 1 -1 0 -4 3 -1 
1 0 0 -6 1 0 0 -1 10 -1 0 -3 1 0 1 0 
0 -2 5 0 0 -7 2 0 0 -2 3 0 0 -9 3 0 
1 -1 0 -2 2 0 3 0 0 -1 2 0 1 -1 0 -2 
4 0 1 -1 3 0 0 -9 1 0 0 -3 1 0 0 -4 
3 0 0 -1 2 0 0 -3 3 0 0 -1 2 0 0 -1 
2 0 0 -1 3 0 0 -5 2 0 0 -1 13 0 1 0 
1 -1 1 -1 0 -1 2 -2 1 -1 5 0 0 -1 4 0 
0 -16 6 0 0 -2 3 0 0 -5 2 0 0 -3 2 0 
0 -7 2 0 1 0 0 -5 2 0 5 0 0 -1 3 -1 
0 -1 5 -1 0 -1 3 0 1 -1 0 -2 3 0 0 -1 
3 -1 0 -3 1 0 1 -1 1 -1 1 -1 1 -1 0 -1 
6 -1 0 -10 9 0 3 0 0 -1 3 0 1 -1 0 -3 
3 0 0 -3 5 0 0 -1 2 0 0 -2 1 0 2 0 
0 -5 8 0 0 -11 6 0 0 -1 2 0 0 -1 2 0 
0 -2 1 -1 0 -9 2 0 0 -2 6 0 0 -1 3 -1 
0 -1 7 0 0 -3 5 0 1 -1 0 -1 0 1 1 -3 
0 -1 8 -1 0 -1 5 0 0 -1 5 0 0 -5 3 0 
0 -1 3 0 0 -7 2 0 0 -5 3 -1 0 -1 4 -1 
0 -1 3 0 0 -1 10 0 0 -5 5 0 0 -1 3 -1 
0 -5 2 0 1 -1 0 -3 1 0 0 -3 9 -1 0 -1 
3 -1 1 0 0 -5 1 0 0 -2 5 0 0 -1 3 0 
1 -1 0 -2 8 0 1 0 0 -7 1 0 0 -5 1 0 
1 0 0 -3 6 0 1 -1 1 -1 1 0 0 -1 12 -1 
0 -5 3 0 0 -1 5 0 0 -2 3 0 0 -11 1 0 
0 -3 3 0 1 -1 0 -4 1 0 0 -2 2 0 0 -1 
7 0 0 -2 2 0 0 -5 2 0 0 -10 4 0 0 -2 
3 0 1 -1 1 -1 0 -2 6 -1 0 -1 2 0 1 -1 
0 -6 2 0 0 -4 3 0 4 0 0 -1 3 -1 0 -2 
6 0 0 -3 2 0 0 -4 2 0 0 -1 2 0 0 0 
5 -1 1 -1 0 -1 6 -1 0 -1 2 0 0 -1 12 0 
0 -2 12 0 0 -7 1 0 0 -2 1 0 0 -5 1 0 
0 -6 2 0 0 -1 1715 1306 300 MP stroke
1 -1 0 -2 2 -2 2 0 0 -19 8 0 0 -1 7 0 
0 -1 3 0 0 -1 9 0 4 0 0 -1 4 0 0 -1 
4 0 0 -2 2 0 0 -1 2 0 1 -1 0 -1 7 -1 
0 -2 3 -1 0 -2 3 0 0 -1 0 1 1 -4 2 0 
0 -3 1 0 0 -3 9 0 0 -3 2 0 0 -3 1 0 
1 0 1 -1 0 -3 7 0 1 -1 6 0 0 -7 1 0 
0 -6 3 0 0 -1 2 0 0 -1 6 0 0 -1 3 -1 
0 -1 4 0 0 -6 9 0 0 -2 3 0 0 -3 1 0 
0 -3 2 0 1 -1 0 -1 5 -1 0 -2 5 0 0 -1 
2 0 0 -1 6 0 1 -1 0 -3 3 0 1 -1 0 -4 
5 0 0 -1 2 0 0 -1 2 0 0 -1 3 0 0 -6 
1 0 1 0 0 -5 2 0 0 -1 3 0 2 0 0 -1 
2 0 0 -1 6 0 0 -2 3 0 0 -5 6 0 0 -2 
2 0 1 -1 0 -7 3 -1 1 -1 0 -2 4 0 0 -1 
6 0 1 -1 0 -1 12 -1 0 -3 4 0 0 -2 5 0 
1 -1 0 -6 3 -1 0 -1 5 0 0 -1 3 -1 0 -1 
3 0 0 -3 2 0 0 -2 1 0 0 -4 6 0 0 -4 
2 0 0 0 5 -1 1 -1 0 -2 3 0 1 -1 2 0 
0 -1 2 0 0 -3 2 0 0 -1 3 0 0 -11 6 0 
0 -1 4 0 3 0 0 -1 3 0 0 -2 2 0 0 -14 
4 0 7 0 0 -1 4 -1 0 -2 4 0 0 -1 2 0 
0 -1 4 0 0 -3 2 0 0 -1 5 0 0 -1 4 -1 
0 -1 3 0 0 -5 6 0 0 -4 1 0 1 -1 0 0 
5 -1 0 -2 3 0 0 -1 2 0 0 -1 13 -1 2 0 
0 -12 7 0 0 -1 10 0 1 -1 0 -1 3 -1 0 -4 
2 0 0 -1 3 -1 0 -12 4 0 3 0 0 -1 8 0 
0 -4 3 0 0 -1 6 0 1 -1 0 -4 4 0 1 -1 
0 -2 2 0 0 -1 8 0 0 -1 6 0 0 -2 2 0 
0 -1 5 0 0 -1 2 0 0 -3 9 -1 0 -4 6 0 
0 -1 2 0 0 -2 2 0 0 -2 3 -1 2 0 0 -1 
3 0 0 -1 6 0 0 -1 6 0 0 -2 5 0 0 -9 
3 0 0 -1 6 0 0 -4 4 0 0 -1 6 0 0 -2 
7 -1 0 -1 3 0 0 -2 2 0 0 -2 6 0 0 -1 
14 0 0 -5 1 0 1 -1 0 -2 2 0 0 -10 20 0 
0 -1 5 0 0 -2 3 0 0 -1 2 0 0 -1 6 0 
0 -2 1 0 0 -3 7 0 0 -5 14 -1 0 -1 2 0 
0 -3 2 0 0 -1 2 0 0 -1 6 0 0 -2 3 0 
0 -2 16 0 0 -5 1082 1701 300 MP stroke
3 0 0 -1 7 0 3 0 0 -1 5 0 0 -3 10 0 
0 -1 3 0 0 -1 12 -1 0 -1 7 0 0 -1 4 0 
0 -6 5 0 0 -1 3 0 0 -1 5 0 0 -2 4 0 
0 -1 5 -1 0 -1 3 0 0 -1 10 0 1 0 0 -10 
13 0 0 -1 8 0 4 0 0 -3 3 0 0 -1 8 0 
0 -1 4 0 0 -1 9 0 0 -1 3 0 0 -1 8 0 
0 -1 3 0 0 -2 8 0 1 -1 0 -2 2 0 0 -1 
14 0 0 -1 16 0 0 -1 7 0 0 -1 8 0 0 -1 
8 -1 0 -1 17 0 0 -1 12 0 0 -2 6 0 0 -5 
6 0 12 0 0 -4 12 0 0 -1 12 0 0 -3 11 0 
0 -1 9 -1 0 -1 16 0 12 0 0 -1 5 0 0 -1 
4 0 0 -1 9 0 0 -3 89 0 0 -23 633 1805 95 MP stroke
gr

2039 2093 mt 
(Flow loss rate \(%\)) s
 350 1106 mt  -90 rotate
(CDF) s
90 rotate
gs 633 159 3773 1647 rc
DA
/c8 { 0.000000 0.000000 1.000000 sr} bdef
c8
157 0 0 -1 48 0 0 -1 105 0 21 0 0 -1 11 0 
0 -1 13 0 0 0 23 -1 41 0 0 -1 26 0 52 0 
0 -1 16 0 0 -1 17 0 0 -1 4 0 0 -1 8 0 
0 -1 3 0 0 -1 3 0 40 0 0 -1 36 0 27 0 
0 -1 18 0 0 -1 15 0 11 0 0 -2 17 0 0 0 
20 -1 0 -1 20 0 7 0 0 -1 28 0 7 0 0 -2 
7 -1 3 0 0 -1 51 0 0 -1 6 0 4 0 0 -2 
9 0 1 -1 0 0 4 -1 0 -1 3 0 0 -1 11 0 
0 0 19 -1 0 -1 3 0 0 -1 2 0 7 0 0 -1 
20 0 3 0 0 -1 16 0 1 -1 1 -1 5 0 0 -1 
2 0 11 0 0 -5 6 0 0 -1 3 0 0 -1 4 0 
0 -1 4 0 0 -1 7 0 0 -1 2 0 6 0 0 -1 
4 0 9 0 0 -1 2 0 8 0 0 -1 2 0 0 -1 
3 0 3 0 0 -1 22 0 0 -3 5 0 7 0 0 -1 
3 0 0 -1 6 0 0 -1 2 0 0 -2 3 0 0 -1 
8 0 0 -1 4 0 0 -2 6 0 1 -1 0 -1 14 -1 
0 -1 3 0 0 -1 2 0 0 -1 2 0 12 0 0 -1 
3 0 12 0 0 -1 2 0 0 -10 16 0 0 0 5 -1 
0 -2 5 0 0 -4 7 0 6 0 1 -1 1 0 0 -2 
4 0 0 -1 2 0 0 -1 3 0 0 -2 5 0 5 0 
0 -2 2 0 0 -1 10 0 0 -1 3 0 6 0 0 -2 
6 0 0 -1 3 0 0 -1 2 0 0 -2 6 0 0 -2 
5 0 0 -1 3 0 0 -1 2 0 0 0 4 -1 8 0 
0 -1 4 0 1 0 0 -3 3 -1 0 -1 3 0 0 -1 
3 0 0 -3 8 -1 2 0 0 -2 1 -1 0 -1 3 -1 
2 0 0 -2 4 0 1 -1 1 0 0 -1 4 -1 0 -1 
4 0 0 0 4 -1 2 0 0 -1 6 0 0 -3 2 0 
0 -2 1 -1 1 -1 0 -6 8 0 0 -1 2 0 1 0 
0 -2 2 0 1 0 1 -1 1 -1 2 0 0 -1 7 -1 
0 -5 2 0 1 0 0 -4 2 0 0 -1 1 -1 3 0 
0 -1 3 0 0 -2 3 0 0 -1 3 -1 0 0 3 -1 
0 -4 4 -1 0 -1 4 0 0 -1 4 -1 0 -1 2 0 
0 -2 1 0 1 0 0 -2 2 0 0 0 3 -1 0 0 
3 -1 0 -4 2 0 1 -1 0 -3 4 -1 0 -3 2 0 
1 -1 1 -1 1 0 0 -3 3 0 1 -1 0 -1 3 -1 
0 -1 3 0 1 -1 0 -2 6 0 2 0 0 -2 5 -1 
1 -1 0 -4 4 0 1 0 0 -1 3 -1 0 -1 2 0 
1 0 1 -1 1 -1 1051 385 300 MP stroke
0 -1 4 -1 0 -1 3 0 0 -1 1 -1 0 -2 4 0 
0 -4 2 0 0 -2 5 -1 3 0 1 -1 0 -5 2 0 
0 -2 2 0 0 -3 4 0 1 -1 3 0 1 -1 0 -2 
2 0 2 0 1 -1 1 -1 1 0 1 -1 0 0 3 -1 
0 -2 1 0 1 -1 1 0 1 -1 1 -1 1 -1 2 0 
0 -1 3 0 0 -1 1 -1 0 -10 8 0 2 0 0 -2 
6 -1 0 0 5 -1 0 -1 2 0 0 -1 2 0 0 -3 
3 -1 0 -1 3 0 0 -1 3 0 0 -1 2 0 0 -1 
4 0 0 -2 4 -1 1 -1 0 -1 3 -1 1 -1 0 -3 
1 0 0 -2 1 0 1 0 0 -4 2 0 1 -1 1 -1 
0 -1 3 -1 0 -1 3 -1 1 -1 0 -2 1 0 1 -1 
1 -1 2 0 0 -1 3 0 1 -1 0 -4 2 0 0 -1 
2 0 0 -2 2 0 0 -1 2 0 0 -1 4 0 1 0 
0 -1 3 -1 0 -3 1 -1 1 -1 0 -5 6 0 1 -1 
0 -2 3 0 3 0 0 -2 2 -2 0 -2 2 0 1 0 
1 -1 0 -2 1 0 1 -1 1 -1 1 -1 0 -2 2 0 
2 0 0 -2 2 0 0 -1 1 -1 0 -4 3 0 0 -1 
2 0 1 -1 0 -2 1 0 1 -1 0 -2 2 0 0 -1 
1 -1 0 -2 2 0 0 -2 1 0 0 -1 3 -1 0 -2 
1 0 1 0 1 -1 0 -2 3 -1 0 -1 1 -1 0 -5 
4 0 1 -1 0 0 3 -1 0 -2 1 0 1 -1 0 -3 
2 0 1 -1 1 0 1 -1 0 -2 1 0 2 0 0 -6 
1 0 0 -2 1 -1 1 -1 1 -1 1 -1 0 -2 1 0 
1 -1 1 -1 1 0 1 -1 0 -3 2 0 0 -2 1 -1 
0 -2 2 0 0 -1 2 0 1 -1 0 -6 1 0 2 0 
1 -1 0 0 2 -2 0 -2 2 0 0 -1 3 -1 0 -1 
1 -1 0 -4 1 0 0 -2 1 0 1 -1 1 -1 2 0 
0 -2 2 0 0 -2 1 0 0 -1 3 -1 0 -5 1 0 
0 -2 1 0 1 0 1 -1 1 -1 0 -2 2 0 0 -3 
1 0 1 -1 0 -2 1 -1 0 0 2 -2 0 -3 1 0 
0 -2 2 0 1 -1 0 -2 3 0 1 -1 0 -2 1 0 
0 -5 3 -1 1 -1 1 0 0 -2 1 -1 1 -1 0 -6 
3 0 1 -1 0 -1 0 1 1 -3 1 -1 1 -1 1 -1 
0 -6 2 0 1 0 0 -2 2 -2 0 -4 3 -1 1 -1 
2 0 0 -3 1 0 0 -8 2 0 0 -1 1 -1 1 -1 
1 0 0 -1 0 1 1 -7 0 0 3 -1 0 -4 1 -1 
1 0 0 -3 3 -1 0 -2 3 0 1 0 0 -1 0 1 
1 -7 1 0 1 -1 719 734 300 MP stroke
2 0 1 -1 0 -3 1 0 0 -2 1 0 1 -1 1 -1 
0 -2 2 0 0 -6 3 0 0 -1 0 1 1 -5 1 -1 
1 -1 0 -3 1 0 1 -1 0 -3 2 0 0 -1 2 0 
0 -3 1 0 0 -1 3 -1 1 -1 0 -1 3 -1 0 -2 
1 0 1 -1 0 -2 1 0 1 0 0 -4 1 0 1 -1 
0 -1 0 1 1 -3 0 -2 1 0 0 -1 3 -1 0 -2 
1 0 0 -2 1 0 0 -2 1 -1 0 -2 2 0 0 -1 
2 0 1 -1 0 -2 2 0 1 -1 2 0 0 -3 2 0 
1 0 0 -1 3 -1 0 -2 2 0 1 -1 1 -1 0 -2 
2 0 2 0 0 -1 1 -1 0 -1 4 -1 0 -1 14 0 
0 -985 633 1805 82 MP stroke
gr

c8
DA
0 sg
 616 1848 mt 
( ) s
4389  201 mt 
( ) s
SO
1 sg
0 342 1963 0 0 -342 2335 1687 4 MP
PP
-1963 0 0 342 1963 0 0 -342 2335 1687 5 MP stroke
4 w
DO
SO
6 w
0 sg
2335 1687 mt 4298 1687 L
2335 1345 mt 4298 1345 L
2335 1687 mt 2335 1345 L
4298 1687 mt 4298 1345 L
2335 1687 mt 4298 1687 L
2335 1687 mt 2335 1345 L
2335 1687 mt 4298 1687 L
2335 1345 mt 4298 1345 L
2335 1687 mt 2335 1345 L
4298 1687 mt 4298 1345 L
2803 1483 mt 
(Buffer = 18 \(Large flow\)) s
gs 2335 1345 1964 343 rc
360 0 2406 1441 2 MP stroke
gr

2803 1634 mt 
(Buffer = 500 \(Large flow\)) s
gs 2335 1345 1964 343 rc
DA
c8
360 0 2406 1591 2 MP stroke
SO
gr

c8

end %%Color Dict

eplot
%%EndObject

epage
end

showpage

%%Trailer
%%EOF
