%!PS-Adobe-3.0 EPSF-3.0
%%Creator: MATLAB, The MathWorks, Inc. Version 8.1.0.604 (R2013a). Operating System: Linux 3.19.0-59-generic #65~14.04.1-Ubuntu SMP Tue Apr 19 18:57:09 UTC 2016 x86_64.
%%Title: /home/rajeevpnj/Downloads/output/largeThrCL.eps
%%CreationDate: 05/05/2016  18:42:10
%%DocumentNeededFonts: Helvetica
%%DocumentProcessColors: Cyan Magenta Yellow Black
%%LanguageLevel: 2
%%Pages: 1
%%BoundingBox:   103   307   508   484
%%EndComments

%%BeginProlog
% MathWorks dictionary
/MathWorks 160 dict begin
% definition operators
/bdef {bind def} bind def
/ldef {load def} bind def
/xdef {exch def} bdef
/xstore {exch store} bdef
% operator abbreviations
/c  /clip ldef
/cc /concat ldef
/cp /closepath ldef
/gr /grestore ldef
/gs /gsave ldef
/mt /moveto ldef
/np /newpath ldef
/cm /currentmatrix ldef
/sm /setmatrix ldef
/rm /rmoveto ldef
/rl /rlineto ldef
/s {show newpath} bdef
/sc {setcmykcolor} bdef
/sr /setrgbcolor ldef
/sg /setgray ldef
/w /setlinewidth ldef
/j /setlinejoin ldef
/cap /setlinecap ldef
/rc {rectclip} bdef
/rf {rectfill} bdef
% page state control
/pgsv () def
/bpage {/pgsv save def} bdef
/epage {pgsv restore} bdef
/bplot /gsave ldef
/eplot {stroke grestore} bdef
% orientation switch
/portraitMode 0 def /landscapeMode 1 def /rotateMode 2 def
% coordinate system mappings
/dpi2point 0 def
% font control
/FontSize 0 def
/FMS {/FontSize xstore findfont [FontSize 0 0 FontSize neg 0 0]
  makefont setfont} bdef
/reencode {exch dup where {pop load} {pop StandardEncoding} ifelse
  exch dup 3 1 roll findfont dup length dict begin
  { 1 index /FID ne {def}{pop pop} ifelse } forall
  /Encoding exch def currentdict end definefont pop} bdef
/isroman {findfont /CharStrings get /Agrave known} bdef
/FMSR {3 1 roll 1 index dup isroman {reencode} {pop pop} ifelse
  exch FMS} bdef
/csm {1 dpi2point div -1 dpi2point div scale neg translate
 dup landscapeMode eq {pop -90 rotate}
  {rotateMode eq {90 rotate} if} ifelse} bdef
% line types: solid, dotted, dashed, dotdash
/SO { [] 0 setdash } bdef
/DO { [.5 dpi2point mul 4 dpi2point mul] 0 setdash } bdef
/DA { [6 dpi2point mul] 0 setdash } bdef
/DD { [.5 dpi2point mul 4 dpi2point mul 6 dpi2point mul 4
  dpi2point mul] 0 setdash } bdef
% macros for lines and objects
/L {lineto stroke} bdef
/MP {3 1 roll moveto 1 sub {rlineto} repeat} bdef
/AP {{rlineto} repeat} bdef
/PDlw -1 def
/W {/PDlw currentlinewidth def setlinewidth} def
/PP {closepath eofill} bdef
/DP {closepath stroke} bdef
/MR {4 -2 roll moveto dup  0 exch rlineto exch 0 rlineto
  neg 0 exch rlineto closepath} bdef
/FR {MR stroke} bdef
/PR {MR fill} bdef
/L1i {{currentfile picstr readhexstring pop} image} bdef
/tMatrix matrix def
/MakeOval {newpath tMatrix currentmatrix pop translate scale
0 0 1 0 360 arc tMatrix setmatrix} bdef
/FO {MakeOval stroke} bdef
/PO {MakeOval fill} bdef
/PD {currentlinewidth 2 div 0 360 arc fill
   PDlw -1 eq not {PDlw w /PDlw -1 def} if} def
/FA {newpath tMatrix currentmatrix pop translate scale
  0 0 1 5 -2 roll arc tMatrix setmatrix stroke} bdef
/PA {newpath tMatrix currentmatrix pop	translate 0 0 moveto scale
  0 0 1 5 -2 roll arc closepath tMatrix setmatrix fill} bdef
/FAn {newpath tMatrix currentmatrix pop translate scale
  0 0 1 5 -2 roll arcn tMatrix setmatrix stroke} bdef
/PAn {newpath tMatrix currentmatrix pop translate 0 0 moveto scale
  0 0 1 5 -2 roll arcn closepath tMatrix setmatrix fill} bdef
/vradius 0 def /hradius 0 def /lry 0 def
/lrx 0 def /uly 0 def /ulx 0 def /rad 0 def
/MRR {/vradius xdef /hradius xdef /lry xdef /lrx xdef /uly xdef
  /ulx xdef newpath tMatrix currentmatrix pop ulx hradius add uly
  vradius add translate hradius vradius scale 0 0 1 180 270 arc 
  tMatrix setmatrix lrx hradius sub uly vradius add translate
  hradius vradius scale 0 0 1 270 360 arc tMatrix setmatrix
  lrx hradius sub lry vradius sub translate hradius vradius scale
  0 0 1 0 90 arc tMatrix setmatrix ulx hradius add lry vradius sub
  translate hradius vradius scale 0 0 1 90 180 arc tMatrix setmatrix
  closepath} bdef
/FRR {MRR stroke } bdef
/PRR {MRR fill } bdef
/MlrRR {/lry xdef /lrx xdef /uly xdef /ulx xdef /rad lry uly sub 2 div def
  newpath tMatrix currentmatrix pop ulx rad add uly rad add translate
  rad rad scale 0 0 1 90 270 arc tMatrix setmatrix lrx rad sub lry rad
  sub translate rad rad scale 0 0 1 270 90 arc tMatrix setmatrix
  closepath} bdef
/FlrRR {MlrRR stroke } bdef
/PlrRR {MlrRR fill } bdef
/MtbRR {/lry xdef /lrx xdef /uly xdef /ulx xdef /rad lrx ulx sub 2 div def
  newpath tMatrix currentmatrix pop ulx rad add uly rad add translate
  rad rad scale 0 0 1 180 360 arc tMatrix setmatrix lrx rad sub lry rad
  sub translate rad rad scale 0 0 1 0 180 arc tMatrix setmatrix
  closepath} bdef
/FtbRR {MtbRR stroke } bdef
/PtbRR {MtbRR fill } bdef
/stri 6 array def /dtri 6 array def
/smat 6 array def /dmat 6 array def
/tmat1 6 array def /tmat2 6 array def /dif 3 array def
/asub {/ind2 exch def /ind1 exch def dup dup
  ind1 get exch ind2 get sub exch } bdef
/tri_to_matrix {
  2 0 asub 3 1 asub 4 0 asub 5 1 asub
  dup 0 get exch 1 get 7 -1 roll astore } bdef
/compute_transform {
  dmat dtri tri_to_matrix tmat1 invertmatrix 
  smat stri tri_to_matrix tmat2 concatmatrix } bdef
/ds {stri astore pop} bdef
/dt {dtri astore pop} bdef
/db {2 copy /cols xdef /rows xdef mul dup 3 mul string
  currentfile 
  3 index 0 eq {/ASCIIHexDecode filter}
  {/ASCII85Decode filter 3 index 2 eq {/RunLengthDecode filter} if }
  ifelse exch readstring pop
  dup 0 3 index getinterval /rbmap xdef
  dup 2 index dup getinterval /gbmap xdef
  1 index dup 2 mul exch getinterval /bbmap xdef pop pop}bdef
/it {gs np dtri aload pop moveto lineto lineto cp c
  cols rows 8 compute_transform 
  rbmap gbmap bbmap true 3 colorimage gr}bdef
/il {newpath moveto lineto stroke}bdef
currentdict end def
%%EndProlog

%%BeginSetup
MathWorks begin

0 cap

end
%%EndSetup

%%Page: 1 1
%%BeginPageSetup
%%PageBoundingBox:   103   307   508   484
MathWorks begin
bpage
%%EndPageSetup

%%BeginObject: obj1
bplot

/dpi2point 12 def
portraitMode 1236 5808 csm

    0     0  4867  2122 rc
85 dict begin %Colortable dictionary
/c0 { 0.000000 0.000000 0.000000 sr} bdef
/c1 { 1.000000 1.000000 1.000000 sr} bdef
/c2 { 0.900000 0.000000 0.000000 sr} bdef
/c3 { 0.000000 0.820000 0.000000 sr} bdef
/c4 { 0.000000 0.000000 0.800000 sr} bdef
/c5 { 0.910000 0.820000 0.320000 sr} bdef
/c6 { 1.000000 0.260000 0.820000 sr} bdef
/c7 { 0.000000 0.820000 0.820000 sr} bdef
c0
1 j
1 sg
   0    0 4868 2123 rf
6 w
0 1609 3772 0 0 -1609 633 1768 4 MP
PP
-3772 0 0 1609 3772 0 0 -1609 633 1768 5 MP stroke
4 w
DO
0 sg
 633 1768 mt  633  159 L
 633  159 mt  633  159 L
2519 1768 mt 2519  159 L
2519  159 mt 2519  159 L
4405 1768 mt 4405  159 L
4405  159 mt 4405  159 L
 633 1768 mt 4405 1768 L
4405 1768 mt 4405 1768 L
 633 1446 mt 4405 1446 L
4405 1446 mt 4405 1446 L
 633 1124 mt 4405 1124 L
4405 1124 mt 4405 1124 L
 633  802 mt 4405  802 L
4405  802 mt 4405  802 L
 633  480 mt 4405  480 L
4405  480 mt 4405  480 L
 633  159 mt 4405  159 L
4405  159 mt 4405  159 L
SO
6 w
 633 1768 mt 4405 1768 L
 633  159 mt 4405  159 L
 633 1768 mt  633  159 L
4405 1768 mt 4405  159 L
 633 1768 mt 4405 1768 L
 633 1768 mt  633  159 L
 633 1768 mt  633 1749 L
 633  159 mt  633  177 L
DO
 633 1768 mt  633  159 L
 633  159 mt  633  159 L
SO
 633 1768 mt  633 1730 L
 633  159 mt  633  196 L
%%IncludeResource: font Helvetica
/Helvetica /ISOLatin1Encoding 120 FMSR

 545 1950 mt 
(10) s
%%IncludeResource: font Helvetica
/Helvetica /ISOLatin1Encoding 80 FMSR

 678 1876 mt 
(4) s
1200 1768 mt 1200 1749 L
1200  159 mt 1200  177 L
DO
1200 1768 mt 1200  159 L
1200  159 mt 1200  159 L
SO
1532 1768 mt 1532 1749 L
1532  159 mt 1532  177 L
DO
1532 1768 mt 1532  159 L
1532  159 mt 1532  159 L
SO
1768 1768 mt 1768 1749 L
1768  159 mt 1768  177 L
DO
1768 1768 mt 1768  159 L
1768  159 mt 1768  159 L
SO
1951 1768 mt 1951 1749 L
1951  159 mt 1951  177 L
DO
1951 1768 mt 1951  159 L
1951  159 mt 1951  159 L
SO
2100 1768 mt 2100 1749 L
2100  159 mt 2100  177 L
DO
2100 1768 mt 2100  159 L
2100  159 mt 2100  159 L
SO
2226 1768 mt 2226 1749 L
2226  159 mt 2226  177 L
DO
2226 1768 mt 2226  159 L
2226  159 mt 2226  159 L
SO
2336 1768 mt 2336 1749 L
2336  159 mt 2336  177 L
DO
2336 1768 mt 2336  159 L
2336  159 mt 2336  159 L
SO
2432 1768 mt 2432 1749 L
2432  159 mt 2432  177 L
DO
2432 1768 mt 2432  159 L
2432  159 mt 2432  159 L
SO
2519 1768 mt 2519 1749 L
2519  159 mt 2519  177 L
DO
2519 1768 mt 2519  159 L
2519  159 mt 2519  159 L
SO
2519 1768 mt 2519 1730 L
2519  159 mt 2519  196 L
%%IncludeResource: font Helvetica
/Helvetica /ISOLatin1Encoding 120 FMSR

2431 1950 mt 
(10) s
%%IncludeResource: font Helvetica
/Helvetica /ISOLatin1Encoding 80 FMSR

2564 1876 mt 
(5) s
3086 1768 mt 3086 1749 L
3086  159 mt 3086  177 L
DO
3086 1768 mt 3086  159 L
3086  159 mt 3086  159 L
SO
3418 1768 mt 3418 1749 L
3418  159 mt 3418  177 L
DO
3418 1768 mt 3418  159 L
3418  159 mt 3418  159 L
SO
3654 1768 mt 3654 1749 L
3654  159 mt 3654  177 L
DO
3654 1768 mt 3654  159 L
3654  159 mt 3654  159 L
SO
3837 1768 mt 3837 1749 L
3837  159 mt 3837  177 L
DO
3837 1768 mt 3837  159 L
3837  159 mt 3837  159 L
SO
3986 1768 mt 3986 1749 L
3986  159 mt 3986  177 L
DO
3986 1768 mt 3986  159 L
3986  159 mt 3986  159 L
SO
4112 1768 mt 4112 1749 L
4112  159 mt 4112  177 L
DO
4112 1768 mt 4112  159 L
4112  159 mt 4112  159 L
SO
4222 1768 mt 4222 1749 L
4222  159 mt 4222  177 L
DO
4222 1768 mt 4222  159 L
4222  159 mt 4222  159 L
SO
4318 1768 mt 4318 1749 L
4318  159 mt 4318  177 L
DO
4318 1768 mt 4318  159 L
4318  159 mt 4318  159 L
SO
4405 1768 mt 4405 1749 L
4405  159 mt 4405  177 L
DO
4405 1768 mt 4405  159 L
4405  159 mt 4405  159 L
SO
4405 1768 mt 4405 1730 L
4405  159 mt 4405  196 L
%%IncludeResource: font Helvetica
/Helvetica /ISOLatin1Encoding 120 FMSR

4317 1950 mt 
(10) s
%%IncludeResource: font Helvetica
/Helvetica /ISOLatin1Encoding 80 FMSR

4450 1876 mt 
(6) s
 633 1768 mt  670 1768 L
4405 1768 mt 4367 1768 L
%%IncludeResource: font Helvetica
/Helvetica /ISOLatin1Encoding 120 FMSR

 532 1812 mt 
(0) s
 633 1446 mt  670 1446 L
4405 1446 mt 4367 1446 L
 432 1490 mt 
(0.2) s
 633 1124 mt  670 1124 L
4405 1124 mt 4367 1124 L
 432 1168 mt 
(0.4) s
 633  802 mt  670  802 L
4405  802 mt 4367  802 L
 432  846 mt 
(0.6) s
 633  480 mt  670  480 L
4405  480 mt 4367  480 L
 432  524 mt 
(0.8) s
 633  159 mt  670  159 L
4405  159 mt 4367  159 L
 532  203 mt 
(1) s
 633 1768 mt 4405 1768 L
 633  159 mt 4405  159 L
 633 1768 mt  633  159 L
4405 1768 mt 4405  159 L
gs 633 159 3773 1610 rc
13 0 0 -1 65 0 0 -1 5 0 0 -2 5 0 5 0 
0 -2 56 0 0 -1 2 0 0 -1 3 0 0 -1 2 0 
0 -1 3 0 0 -1 8 0 0 -2 14 0 0 -1 13 0 
9 0 0 -1 14 0 0 -1 9 0 0 -2 5 0 0 -1 
18 0 0 -1 12 0 0 -1 9 0 0 -1 15 0 0 -1 
10 0 0 -1 3 0 0 -2 3 0 0 -1 6 0 0 -1 
13 0 0 -1 10 0 0 -1 10 0 0 -2 7 0 0 -1 
6 0 0 -1 10 0 7 0 0 -1 4 0 0 -1 3 0 
0 -1 7 0 0 -1 7 0 0 -1 7 0 0 -4 18 0 
0 -1 11 0 0 -1 19 0 0 -1 4 0 0 -2 23 0 
0 -1 4 0 16 0 0 -1 4 0 0 -1 8 0 0 -2 
8 0 0 -1 4 0 0 -1 4 0 0 -2 13 0 0 -2 
4 0 8 0 0 -1 31 0 0 -3 4 0 0 -2 5 0 
0 -1 9 0 0 -2 4 0 5 0 0 -1 4 0 0 -1 
10 0 0 -1 14 0 0 -1 4 0 0 -1 5 0 0 -1 
5 0 0 -2 5 0 0 -1 5 0 0 -1 19 0 5 0 
0 -1 5 0 0 -1 5 0 0 -1 11 0 0 -2 5 0 
5 0 0 -1 5 0 0 -1 6 0 0 -1 5 0 0 -2 
5 0 0 -2 11 0 0 -3 5 0 6 0 0 -1 5 0 
0 -3 6 0 0 -1 6 0 0 -2 11 0 0 -2 6 0 
0 -1 5 0 0 -1 24 0 0 -2 6 0 0 -1 6 0 
0 -1 6 0 6 0 0 -2 6 0 0 -1 6 0 0 -2 
6 0 0 -1 7 0 0 -4 6 0 0 -1 6 0 0 -2 
7 0 0 -1 6 0 0 -1 7 0 0 -1 20 0 0 -1 
6 0 0 -1 7 0 0 -1 7 0 0 -3 7 0 0 -2 
7 0 0 -1 14 0 0 -1 7 0 0 -2 7 0 0 -4 
8 0 0 -2 7 0 0 -2 7 0 0 -2 8 0 0 -1 
8 0 0 -3 15 0 0 -2 8 0 0 -1 7 0 0 -1 
16 0 0 -3 8 0 35 0 0 -1 5 0 0 -1 5 0 
0 -1 5 0 0 -1 2 0 0 -1 3 0 6 0 0 -1 
4 0 0 -1 4 0 0 -1 4 -1 0 -1 2 0 4 0 
0 -2 4 0 0 -1 2 0 0 -1 3 -1 1 0 0 -1 
10 -1 0 -2 1 0 1 -1 2 0 0 -2 3 0 0 -1 
5 0 1 -1 0 -1 4 -1 0 -1 2 0 0 -1 2 0 
1 -1 0 0 6 -1 0 -2 2 0 0 -1 11 0 0 -1 
5 0 0 -2 3 -1 0 -2 1 0 3 0 0 -2 2 0 
1 -1 1 -1 1 -1 0 0 4 -1 0 -1 7 0 0 -1 
6 -1 0 -1 4 0 3119 365 300 MP stroke
5 0 0 -1 8 0 0 -1 3 0 0 -1 3 0 0 -1 
3 0 0 -1 5 0 10 0 0 -1 2 0 0 -2 2 0 
0 -1 3 0 1 -1 1 -1 0 -1 6 -1 0 -1 3 0 
0 -1 3 0 3 0 1 -1 0 -2 4 -1 0 -1 3 0 
1 0 0 -2 3 0 0 -1 6 0 0 -2 1 0 3 0 
0 -1 3 0 1 -1 0 -1 3 -1 1 -1 0 0 7 -1 
1 -1 1 -1 0 -1 3 -1 0 -2 4 0 1 -1 1 -1 
0 -2 2 0 1 -1 0 -2 4 0 0 -2 2 0 0 -1 
8 -1 0 -1 3 0 2 0 0 -1 3 0 0 -1 3 0 
0 -1 3 0 0 -1 7 0 1 -1 8 0 0 -1 3 -1 
0 -3 2 0 2 0 0 -1 3 0 0 -1 5 0 0 -1 
5 0 0 -2 4 0 2 0 0 -1 2 0 0 -1 3 0 
0 -2 2 0 1 -1 0 -6 3 0 0 -2 7 -1 0 -1 
2 0 6 0 1 -1 0 -4 1 0 0 -2 2 0 0 -1 
6 0 0 -2 3 0 0 -1 2 0 0 -1 2 0 0 -1 
2 0 0 -1 3 -1 0 -2 1 0 0 -2 5 -1 3 0 
0 -1 3 0 0 -1 6 0 0 -1 3 0 0 -1 5 0 
0 -1 3 0 0 -2 7 0 0 -1 5 -1 0 0 3 -1 
0 -1 4 0 1 -1 0 -2 2 0 0 0 3 -1 1 -1 
0 -3 1 0 0 -2 2 0 0 -1 7 0 0 -1 3 0 
0 -1 4 0 0 -5 3 0 5 0 0 -2 2 0 0 -1 
3 -1 0 -1 4 0 0 -1 2 0 1 -1 0 -1 3 -1 
0 -3 1 0 0 -3 5 0 1 0 0 -2 2 0 0 -1 
3 0 0 -2 4 0 0 -1 2 0 1 -1 0 -2 6 0 
0 -1 2 0 1 0 0 -2 2 0 0 -4 3 0 0 -1 
3 0 0 -1 6 0 0 -2 6 0 5 0 0 -1 4 0 
0 -1 5 0 0 -2 2 0 0 -1 3 0 0 -1 3 0 
0 -2 2 0 0 -2 3 0 0 -3 2 0 0 -3 1 0 
0 -3 2 0 0 -6 1 0 0 -2 2 0 0 -2 3 0 
0 -5 3 0 2 0 0 -1 3 0 0 -1 2 0 0 -1 
3 0 0 -1 4 0 0 -1 3 0 3 0 0 -1 2 0 
0 -1 2 0 0 -1 3 -1 0 -1 3 0 7 0 0 -3 
2 0 0 -2 2 0 1 0 0 -3 5 0 0 -2 2 0 
4 0 0 -2 3 -1 0 -7 2 0 0 -3 2 0 0 -1 
3 -1 0 -4 4 0 0 -1 3 0 0 -1 2 0 0 -1 
2 0 0 -1 2 0 1 -1 2 0 0 -1 2 0 0 -2 
2 0 0 -2 2 0 5 0 0 -1 4 0 0 -1 2 0 
0 -1 3 -1 0 -2 2606 617 300 MP stroke
2 0 0 -3 6 0 0 -1 5 0 4 0 0 -1 6 0 
0 -2 1 0 0 -5 4 0 0 -2 2 0 0 -3 4 0 
0 -2 6 0 0 -1 2 0 0 -2 2 0 0 -1 2 0 
0 -1 2 0 0 -5 7 -1 0 -1 2 0 0 -1 2 0 
0 -2 2 0 0 -1 8 0 0 -1 2 0 0 -1 2 0 
0 -1 2 0 2 0 0 -1 2 0 0 -1 2 0 0 -1 
2 0 0 -2 2 0 2 0 0 -2 3 0 0 -2 2 0 
0 -1 2 0 2 0 0 -4 4 0 0 -1 2 0 0 -1 
4 0 0 -1 6 0 0 -3 7 0 0 -1 2 0 0 -3 
2 0 0 -1 2 0 0 -3 2 0 0 -3 3 0 0 -1 
2 0 0 -1 2 0 0 -3 2 0 0 -4 2 0 0 -1 
2 0 0 -2 3 0 0 -1 2 0 0 -1 2 0 0 -2 
2 0 0 -3 2 0 3 0 0 -3 2 0 0 -2 2 0 
0 -2 2 0 0 -2 3 0 0 -1 4 0 0 -3 2 0 
0 -1 5 0 0 -1 2 0 0 -3 2 0 0 -1 5 0 
0 -1 2 0 0 -2 3 0 0 -2 2 0 0 -1 2 0 
0 -1 3 0 0 -3 2 0 0 -1 2 0 0 -2 3 0 
0 -2 2 0 0 -1 2 0 0 -2 3 0 0 -1 2 0 
0 -1 2 0 0 -1 5 0 0 -1 3 0 0 -1 2 0 
0 -1 2 0 0 -1 3 0 2 0 0 -3 3 0 0 -2 
7 0 0 -2 3 0 0 -1 2 0 0 -2 3 0 0 -4 
2 0 0 -1 3 0 0 -2 2 0 0 -1 3 0 0 -2 
2 0 0 -2 3 0 0 -1 2 0 0 -2 3 0 2 0 
0 -2 5 0 0 -1 3 0 0 -1 3 0 2 0 0 -2 
3 0 0 -1 2 0 0 -3 3 0 0 -5 3 0 0 -2 
2 0 0 -2 3 0 0 -2 3 0 0 -2 5 0 0 -1 
3 0 0 -1 5 0 0 -2 5 0 0 -1 3 0 0 -4 
3 0 0 -3 3 0 0 -4 2 0 3 0 0 -1 3 0 
0 -4 3 0 0 -4 2 0 0 -1 3 0 0 -4 3 0 
0 -1 3 0 0 -2 6 0 0 -3 2 0 0 -2 3 0 
0 -3 3 0 0 -2 3 0 0 -2 3 0 0 -1 9 0 
0 -3 3 0 0 -3 5 0 0 -2 3 0 0 -3 3 0 
0 -2 3 0 0 -2 3 0 0 -2 3 0 0 -1 3 0 
0 -1 3 0 0 -2 3 0 0 -2 4 0 0 -4 6 0 
0 -1 3 0 0 -2 3 0 0 -7 3 0 0 -2 3 0 
0 -1 3 0 0 -1 3 0 0 -3 4 0 3 0 0 -1 
3 0 0 -2 6 0 0 -2 3 0 0 -3 4 0 0 -4 
3 0 0 -4 6 0 2134 903 300 MP stroke
0 -2 4 0 0 -1 3 0 0 -1 3 0 0 -6 4 0 
0 -4 3 0 0 -4 3 0 0 -8 7 0 0 -1 4 0 
0 -3 3 0 0 -13 3 0 0 -2 4 0 0 -2 3 0 
0 -2 7 0 0 -3 4 0 0 -1 3 0 0 -3 4 0 
0 -2 3 0 0 -1 7 0 0 -1 4 0 0 -6 4 0 
0 -2 3 0 0 -1 4 0 0 -3 3 0 0 -14 4 0 
0 -6 4 0 0 -3 3 0 0 -1 8 0 0 -1 4 0 
0 -1 3 0 0 -3 4 0 0 -11 4 0 0 -3 4 0 
0 -2 4 0 0 -4 4 0 0 -1 3 0 0 -4 4 0 
0 -6 4 0 0 -2 4 0 0 -2 4 0 0 -2 4 0 
0 -3 4 0 0 -4 4 0 0 -8 4 0 0 -2 4 0 
0 -2 4 0 0 -1 4 0 0 -5 4 0 0 -3 4 0 
0 -1 5 0 0 -6 4 0 0 -3 4 0 0 -1 4 0 
0 -4 4 0 0 -4 5 0 0 -11 4 0 0 -4 4 0 
0 -4 5 0 0 -4 4 0 0 -1 4 0 0 -3 5 0 
0 -4 4 0 0 -1 5 0 0 -6 4 0 0 -2 4 0 
0 -5 5 0 0 -3 5 0 0 -16 4 0 0 -4 5 0 
0 -4 4 0 0 -8 5 0 0 -4 5 0 0 -6 4 0 
0 -2 5 0 0 -2 5 0 0 -5 5 0 0 -4 4 0 
0 -2 5 0 0 -4 5 0 0 -19 5 0 0 -2 5 0 
0 -5 5 0 0 -5 5 0 0 -7 5 0 0 -4 5 0 
0 -3 5 0 0 -3 5 0 0 -5 5 0 0 -2 5 0 
0 -5 6 0 0 -1 5 0 0 -13 5 0 0 -6 5 0 
0 -3 6 0 0 -3 5 0 0 -4 5 0 0 -6 6 0 
0 -4 5 0 0 -7 6 0 0 -1 5 0 0 -2 12 0 
0 -7 5 0 0 -18 6 0 0 -2 6 0 0 -2 6 0 
0 -8 5 0 0 -5 6 0 0 -3 6 0 0 -7 6 0 
0 -4 6 0 0 -6 6 0 0 -2 6 0 0 -5 6 0 
0 -3 7 0 0 -16 6 0 0 -8 6 0 0 -8 6 0 
0 -7 7 0 0 -7 6 0 0 -3 7 0 0 -4 6 0 
0 -6 7 0 0 -8 6 0 0 -7 7 0 0 -6 7 0 
0 -7 7 0 0 -7 7 0 0 -6 6 0 0 -3 7 0 
0 -5 7 0 0 -9 8 0 0 -5 7 0 0 -4 7 0 
0 -10 7 0 0 -8 8 0 0 -9 7 0 0 -9 7 0 
0 -4 8 0 0 -7 8 0 0 -3 7 0 0 -6 8 0 
0 -5 8 0 0 -5 8 0 0 -6 8 0 0 -10 8 0 
0 -5 8 0 1 -1 0 -1 5 -1 3 0 0 -2 3 0 
0 -1 3 0 1 -1 1367 1599 300 MP stroke
1 -1 1 0 0 -1 3 -1 1 -1 0 -3 2 0 1 -1 
1 -1 0 -2 1 0 0 -2 2 0 0 -1 3 0 0 -1 
2 0 0 -1 2 0 2 0 1 -1 0 -2 3 -1 0 -1 
3 0 0 -1 0 1 1 -3 0 -3 6 -1 0 -2 3 0 
0 -1 2 0 3 0 0 -1 5 0 1 -1 1 -1 0 -3 
2 0 1 -1 0 -3 1 0 2 0 0 -1 2 0 0 -1 
2 0 0 -2 2 0 1 -1 0 -2 3 -1 0 -1 2 0 
0 -1 3 -1 0 -3 1 0 0 -2 2 0 0 -1 2 0 
1 -1 1 -1 1 -1 1 -1 1 -1 0 -2 1 0 0 -2 
2 0 0 -1 3 0 0 -2 2 0 1 0 0 -2 3 0 
1 -1 1 -1 0 -2 2 0 0 -1 5 0 0 -1 2 0 
0 -1 5 0 1 -1 0 0 3 -1 0 -2 4 0 0 -1 
5 -1 2 0 1 -1 1 -1 1 -1 0 -1 3 -1 1 -1 
1 -1 1 -1 0 -1 3 -1 3 0 1 -1 0 -2 3 0 
0 -2 1 0 1 -1 1 -1 0 -3 5 -1 0 -2 1 0 
1 -1 1 0 0 -1 4 -1 0 -2 4 -1 1 -1 1 -1 
1 -1 1 -1 1 -1 3 0 1 -1 0 -1 5 -1 0 -1 
6 -1 0 -2 2 0 1 -1 0 -1 3 -1 7 0 0 -2 
2 0 0 -1 3 -1 0 -1 5 -1 1 -1 0 -1 7 -1 
0 -1 2 0 0 0 7 -1 0 -2 2 0 0 -1 7 0 
1 -1 1 -1 1 -1 0 -2 3 -1 0 -2 4 0 1 -1 
0 -2 1 0 6 0 1 -1 0 -2 1 0 0 -2 3 0 
0 0 3 -1 0 -2 5 0 0 -1 2 0 0 -1 3 0 
1 -1 1 -1 0 -2 3 0 0 -1 1094 1768 190 MP stroke
gr

1912 2093 mt 
(Flow Throughput \(Bps\)) s
 350 1087 mt  -90 rotate
(CDF) s
90 rotate
gs 633 159 3773 1610 rc
DA
/c8 { 0.000000 0.000000 1.000000 sr} bdef
c8
30 0 0 -1 97 0 7 0 0 -1 20 0 18 0 0 -1 
11 0 45 0 0 -1 34 0 0 -1 15 0 27 0 0 -1 
19 0 3 0 0 -1 6 0 3 0 0 -1 39 0 0 -2 
17 0 3 0 0 -1 3 0 21 0 0 -1 18 0 11 0 
0 -2 7 0 7 0 0 -1 4 0 0 -1 7 0 0 -1 
12 0 0 -1 7 0 0 -1 12 0 16 0 0 -1 4 0 
0 -1 4 0 0 -1 20 0 0 -1 8 0 0 -1 4 0 
0 -1 4 0 0 -3 5 0 8 0 0 -1 4 0 0 -1 
5 0 0 -1 4 0 8 0 0 -2 5 0 4 0 0 -1 
5 0 0 -1 4 0 5 0 0 -1 4 0 5 0 0 -1 
4 0 0 -4 5 0 0 -1 4 0 0 -1 5 0 0 -2 
5 0 0 -1 4 0 0 -1 5 0 0 -3 5 0 4 0 
0 -1 5 0 0 -1 5 0 0 -1 5 0 0 -1 5 0 
0 -2 9 0 0 -2 5 0 0 -1 5 0 0 -2 5 0 
0 -3 5 0 0 -1 5 0 0 -1 6 0 0 -4 5 0 
0 -1 5 0 0 -2 10 0 0 -3 6 0 0 -1 5 0 
0 -5 5 0 0 -1 6 0 0 -5 5 0 0 -2 5 0 
0 -3 6 0 0 -2 5 0 0 -5 6 0 0 -2 6 0 
0 -3 5 0 0 -3 6 0 0 -4 6 0 0 -4 5 0 
0 -5 6 0 0 -3 6 0 0 -1 6 0 0 -2 6 0 
0 -1 6 0 0 -8 6 0 0 -4 6 0 0 -2 6 0 
0 -3 6 0 0 -4 6 0 0 -5 6 0 0 -1 7 0 
0 -4 6 0 0 -3 6 0 0 -5 7 0 0 -4 6 0 
0 -4 7 0 0 -5 6 0 0 -7 7 0 0 -4 7 0 
0 -2 6 0 0 -2 7 0 0 -2 7 0 0 -3 7 0 
0 -3 7 0 0 -2 7 0 0 -4 7 0 0 -6 7 0 
0 -4 7 0 0 -5 8 0 0 -6 7 0 0 -4 7 0 
0 -5 8 0 0 -4 8 0 0 -9 7 0 0 -8 8 0 
0 -6 8 0 0 -6 7 0 0 -4 8 0 0 -10 8 0 
0 -7 8 0 0 -6 30 0 0 -1 0 1 1 -4 0 -3 
1 0 0 -2 2 0 1 0 0 -1 0 1 1 -3 0 -1 
3 -1 1 0 0 -3 1 0 0 -1 4 -1 1 -1 1 -1 
1 -1 1 -1 1 -1 1 -1 2 0 0 -1 2 0 0 -2 
1 -1 4 0 1 -1 1 -1 1 -1 1 -1 1 -1 1 -1 
1 -1 1 0 0 -2 1 0 2 0 1 -1 0 -1 3 -1 
1 -1 1 -1 1 -1 1 -1 0 -2 1 0 0 -1 0 1 
1 -3 0 -2 1 0 0 -3 3 0 1 -1 0 -1 3 -1 
0 -2 2 0 0 -1 3206 519 300 MP stroke
2 0 0 -3 2 0 0 -3 2 0 1 0 0 -2 1 0 
1 -1 0 -2 1 0 1 -1 0 -1 3 -1 3 0 1 -1 
1 -1 1 -1 0 -1 3 -1 4 0 0 -2 2 0 1 -1 
1 0 0 -1 2 -2 0 -1 4 -1 1 -1 1 -1 1 -1 
0 -3 4 0 0 -2 1 -1 0 -2 2 0 1 0 0 -2 
2 0 1 0 1 -1 1 -1 0 -1 3 -1 1 0 0 -2 
1 0 1 -1 0 -2 1 0 0 -2 1 0 1 -1 1 0 
1 -1 1 -1 0 -2 1 0 1 -1 1 -1 0 -2 1 0 
0 -2 2 0 1 0 1 -1 0 -1 3 -1 0 -1 2 0 
1 -1 1 -1 0 -2 1 0 1 -1 1 -1 1 -1 1 -1 
0 -1 3 -1 1 -1 0 -2 1 0 2 0 0 -4 1 0 
0 0 3 -1 0 -2 1 0 1 0 1 -1 1 -1 1 -1 
2 0 0 -2 1 0 0 -4 1 0 1 -1 1 -1 1 -1 
1 -1 1 -1 0 -2 1 0 1 -1 0 -1 4 -1 3 0 
1 -1 0 -2 1 0 1 -1 1 -1 0 -1 4 -1 0 -2 
1 0 0 -2 2 0 0 -1 3 0 1 -1 1 0 1 -1 
2 0 0 -2 2 0 0 -1 4 0 0 -1 3 0 0 -1 
2 0 0 -1 2 0 0 -1 3 -1 0 -1 2 0 0 0 
3 -1 1 -1 1 -1 1 0 1 -1 1 -1 1 0 1 -1 
0 -2 1 0 1 -1 0 -2 1 0 0 -1 3 -1 0 -1 
2 0 1 -1 1 -1 1 -1 1 -1 1 -1 0 -3 1 0 
0 -1 3 -1 1 0 0 -2 1 0 1 0 1 -1 0 -2 
2 0 1 -1 0 -3 1 0 0 -2 2 0 0 -2 1 0 
0 -2 1 0 1 -1 1 0 0 -2 2 0 0 0 3 -1 
1 -1 1 -1 1 -1 1 -1 0 -2 2 0 0 -1 4 0 
1 0 1 -1 1 -1 1 -1 0 -3 3 0 1 -1 0 -3 
1 0 1 -1 4 0 1 -1 0 -2 1 0 1 -1 0 -3 
1 0 0 -1 3 -1 0 -2 4 -1 0 -1 2 0 1 -1 
0 -2 1 0 1 -1 2 0 0 -2 2 0 0 -2 2 0 
1 -1 0 -1 3 -1 0 -2 1 0 0 -2 3 -1 0 -2 
2 0 0 -2 1 0 0 -1 4 -1 0 0 4 -1 0 -1 
2 0 1 0 1 -1 0 0 3 -1 1 -1 0 -3 1 0 
1 -1 0 -2 2 0 1 -1 0 -2 1 0 0 -1 3 -1 
1 -1 1 -1 0 -1 4 -1 0 -2 1 0 1 -1 0 -4 
2 0 1 -1 0 -2 1 0 0 -3 3 -1 1 0 0 -2 
1 0 0 -2 2 0 1 -1 1 -1 0 -1 3 -1 0 -1 
2 0 0 -1 2 0 1 -1 1 -1 0 -2 1 0 0 -2 
2 0 1 -1 0 -2 2888 796 300 MP stroke
3 -1 1 -1 1 -1 0 -2 2 0 1 -1 1 -1 0 -4 
2 0 1 0 0 -1 3 -1 0 -1 2 0 0 -1 3 0 
0 -1 3 -1 1 0 1 -1 0 -2 2 0 1 -1 1 -1 
0 -2 2 0 1 0 0 -1 3 -1 0 -3 1 0 1 -1 
0 -2 2 0 0 -2 1 0 0 -3 1 0 0 -4 2 0 
0 -1 4 -1 1 -1 0 -3 2 0 0 -4 3 -1 1 -1 
0 -21 3 -1 0 -2 3 -1 1 -1 0 -4 1 0 0 -2 
2 0 0 -3 1 0 0 -2 2 0 0 -3 1 0 0 -3 
3 -1 0 -5 1 0 0 -2 2 0 0 -1 3 -1 0 -3 
1 0 0 -2 3 -1 0 -2 1 0 3 0 0 -1 2 0 
1 -1 0 -2 2 0 0 -2 2 0 0 -1 2 0 0 -1 
3 0 0 0 3 -1 0 -2 1 0 0 -3 2 0 0 -2 
1 0 0 -2 2 0 1 -1 0 -2 2 0 0 -1 3 -1 
0 -2 1 0 0 -4 2 0 0 -3 1 0 0 -3 3 0 
0 -1 3 0 0 -1 2 0 0 -2 1 0 0 -2 2 0 
0 -3 1 0 0 -2 2 0 0 -2 1 0 0 -3 2 0 
1 -1 0 -3 2 0 0 -1 3 -1 0 -3 2 0 1 -1 
0 -3 2 0 0 -4 1 0 2 0 1 -1 0 -4 2 0 
1 -1 0 -2 2 0 0 -2 2 0 0 -2 3 -1 0 -2 
1 0 0 -2 2 0 0 -2 2 0 0 -3 1 0 0 -3 
2 0 0 -2 1 0 0 -3 2 0 0 -1 2 0 0 -4 
3 -1 0 -3 1 0 2 0 0 -1 3 0 0 -5 2 0 
0 -2 3 -1 0 -2 2 0 0 -2 3 -1 0 -1 2 0 
0 -3 3 -1 0 -2 2 0 0 -2 3 0 0 -1 2 0 
0 -1 3 -1 0 -2 2 0 0 -2 3 0 0 -2 2 0 
0 -1 3 -1 0 -2 2 0 0 -6 3 -1 0 -3 2 0 
0 -2 2 0 0 -1 3 -1 2 0 0 -2 1 0 2 0 
0 -1 2 0 0 -1 2 0 0 -3 1 0 0 -3 2 0 
0 -1 2 0 0 -2 2 0 0 -1 3 -1 2 0 0 -1 
2 0 1 -1 0 -3 2 0 0 -2 2 0 0 -2 2 0 
0 -2 2 0 0 -2 1 0 0 -2 2 0 0 -2 2 0 
0 -2 2 0 0 -3 2 0 0 -2 3 -1 0 -2 2 0 
0 -2 2 0 0 -3 2 0 0 -1 2 0 0 -2 3 0 
0 -3 2 0 0 -3 2 0 0 -3 2 0 0 -2 2 0 
0 -2 1 0 0 -2 2 0 0 -1 2 0 0 -3 2 0 
0 -1 2 0 0 -2 2 0 0 -3 2 0 0 -2 2 0 
0 -2 1 0 0 -6 2 0 0 -2 2 0 0 -7 2 0 
0 -1 2 0 0 -1 2574 1163 300 MP stroke
2 0 0 -4 2 0 0 -1 2 0 0 -3 2 0 2 0 
0 -3 2 0 0 -2 2 0 0 -3 2 0 0 -6 1 0 
0 -2 2 0 0 -1 2 0 0 -1 2 0 0 -4 2 0 
0 -2 2 0 0 -3 2 0 0 -2 2 0 0 -5 2 0 
0 -3 2 0 0 -2 2 0 0 -1 2 0 0 -3 2 0 
0 -4 2 0 0 -2 2 0 0 -3 2 0 0 -3 2 0 
0 -3 2 0 0 -3 2 0 0 -2 2 0 0 -3 3 0 
0 -3 2 0 0 -2 2 0 0 -3 2 0 0 -4 2 0 
0 -2 2 0 0 -2 2 0 0 -4 2 0 0 -1 2 0 
0 -3 2 0 0 -6 2 0 0 -4 2 0 0 -5 3 0 
0 -2 2 0 0 -3 2 0 0 -4 2 0 0 -3 2 0 
0 -2 2 0 0 -3 2 0 0 -2 3 0 0 -2 2 0 
0 -1 2 0 0 -3 2 0 0 -3 2 0 0 -4 2 0 
0 -3 3 0 0 -2 2 0 0 -3 2 0 0 -3 2 0 
0 -1 2 0 0 -2 3 0 0 -1 2 0 0 -1 2 0 
0 -1 2 0 0 -2 3 0 0 -4 2 0 0 -1 2 0 
0 -4 2 0 0 -2 3 0 0 -3 2 0 0 -5 2 0 
0 -3 2 0 0 -1 3 0 0 -1 2 0 0 -3 2 0 
0 -4 3 0 0 -4 2 0 0 -1 2 0 0 -4 3 0 
0 -3 2 0 0 -2 2 0 0 -3 3 0 0 -5 2 0 
0 -2 2 0 0 -2 3 0 0 -2 2 0 0 -1 2 0 
0 -2 3 0 0 -3 2 0 0 -1 3 0 0 -2 2 0 
0 -2 2 0 0 -1 3 0 0 -3 2 0 0 -3 3 0 
0 -2 2 0 0 -2 3 0 0 -4 2 0 0 -5 3 0 
0 -3 2 0 0 -3 3 0 0 -1 2 0 0 -4 3 0 
0 -2 2 0 0 -4 3 0 0 -3 2 0 0 -5 3 0 
0 -1 2 0 0 -1 3 0 0 -3 2 0 0 -1 3 0 
0 -4 2 0 0 -2 3 0 0 -3 3 0 0 -3 2 0 
0 -3 3 0 0 -7 2 0 0 -3 3 0 0 -6 3 0 
0 -2 2 0 0 -3 3 0 0 -1 3 0 0 -4 2 0 
3 0 0 -2 3 0 0 -2 2 0 0 -3 3 0 0 -2 
3 0 0 -2 2 0 0 -4 3 0 0 -3 3 0 0 -2 
3 0 0 -4 2 0 0 -4 3 0 0 -7 3 0 0 -2 
3 0 0 -9 2 0 0 -7 3 0 0 -2 3 0 0 -6 
3 0 0 -2 3 0 0 -3 3 0 0 -4 2 0 0 -2 
3 0 0 -1 3 0 0 -3 3 0 3 0 0 -3 3 0 
0 -1 3 0 0 -3 3 0 3 0 0 -1 3 0 0 -3 
2 0 0 -4 3 0 2215 1580 300 MP stroke
0 -2 3 0 0 -5 3 0 0 -5 3 0 0 -4 3 0 
0 -3 3 0 0 -4 3 0 0 -4 3 0 0 -5 4 0 
0 -2 3 0 0 -1 3 0 0 -4 3 0 0 -3 3 0 
0 -4 3 0 0 -1 3 0 0 -1 6 0 0 -2 4 0 
0 -1 3 0 0 -2 3 0 3 0 0 -1 6 0 0 -1 
4 0 0 -1 3 0 0 -2 3 0 0 -1 3 0 0 -1 
4 0 0 -2 3 0 0 -1 3 0 0 -2 4 0 0 -2 
3 0 0 -1 3 0 0 -2 4 0 0 -1 7 0 0 -1 
3 0 0 -4 3 0 0 -1 4 0 0 -3 3 0 0 -1 
4 0 0 -1 3 0 0 -1 4 0 0 -2 3 0 0 -2 
4 0 0 -1 3 0 0 -2 4 0 0 -3 3 0 0 -2 
4 0 0 -3 4 0 0 -2 7 0 0 -1 3 0 0 -1 
4 0 0 -1 4 0 0 -2 3 0 0 -1 4 0 0 -3 
4 0 0 -1 4 0 3 0 0 -1 4 0 0 -5 4 0 
15 0 0 -2 4 0 0 -1 4 0 0 -1 4 0 0 -1 
4 0 0 -2 4 0 0 -1 4 0 0 -1 4 0 0 -3 
4 0 0 -1 4 0 0 -1 12 0 0 -2 4 0 0 -1 
5 0 0 -1 4 0 0 -3 4 0 0 -1 4 0 0 -1 
4 0 0 -1 5 0 0 -1 4 0 0 -1 4 0 5 0 
0 -1 4 0 0 -1 9 0 0 -1 9 0 0 -1 4 0 
0 -1 4 0 5 0 0 -3 9 0 0 -1 5 0 0 -1 
4 0 0 -2 5 0 0 -1 9 0 5 0 0 -2 5 0 
0 -1 9 0 0 -1 5 0 0 -1 5 0 0 -2 5 0 
20 0 0 -1 5 0 5 0 0 -3 5 0 0 -1 5 0 
0 -2 16 0 0 -2 5 0 5 0 0 -1 16 0 6 0 
0 -1 11 0 0 -1 5 0 0 -1 6 0 0 -1 6 0 
5 0 0 -1 23 0 0 -1 6 0 0 -1 6 0 0 -1 
6 0 6 0 0 -1 12 0 0 -1 13 0 85 0 0 -1 
28 0 0 -2 51 0 88 0 0 -1 62 0 8 0 0 -1 
49 0 0 -1 1239 1768 235 MP stroke
gr

c8
DA
0 sg
 616 1811 mt 
( ) s
4389  201 mt 
( ) s
SO
1 sg
0 342 1964 0 0 -342 2397 1619 4 MP
PP
-1964 0 0 342 1964 0 0 -342 2397 1619 5 MP stroke
4 w
DO
SO
6 w
0 sg
2397 1619 mt 4361 1619 L
2397 1277 mt 4361 1277 L
2397 1619 mt 2397 1277 L
4361 1619 mt 4361 1277 L
2397 1619 mt 4361 1619 L
2397 1619 mt 2397 1277 L
2397 1619 mt 4361 1619 L
2397 1277 mt 4361 1277 L
2397 1619 mt 2397 1277 L
4361 1619 mt 4361 1277 L
2865 1415 mt 
(Buffer = 18 \(Large flow\)) s
gs 2397 1277 1965 343 rc
360 0 2469 1373 2 MP stroke
gr

2865 1566 mt 
(Buffer = 500 \(Large flow\)) s
gs 2397 1277 1965 343 rc
DA
c8
360 0 2469 1523 2 MP stroke
SO
gr

c8

end %%Color Dict

eplot
%%EndObject

epage
end

showpage

%%Trailer
%%EOF
